Name,Event,Equipment,Sex,Team,BodyweightKg,WeightClassKg,Division,Squat1Kg,Squat2Kg,Squat3Kg,Squat4Kg,Best3SquatKg,Bench1Kg,Bench2Kg,Bench3Kg,Bench4Kg,Best3BenchKg,Deadlift1Kg,Deadlift2Kg,Deadlift3Kg,Deadlift4Kg,Best3DeadliftKg,TotalKg,Place
Bianca Helmdach,B,Multi-ply,F,TSV KROPP,42,44,Open,,,,,,60,65,70,,70,,,,,,70,1
Wiebke Hinrichsen,B,Multi-ply,F,TSV KROPP,64.6,67.5,Open,,,,,,110,117.5,-120,,117.5,,,,,,117.5,1
Manuela Richter,B,Multi-ply,F,SV BERLIN BUCH,112.8,90+,Open,,,,,,82.5,90,95,,95,,,,,,95,1
Viola Kongehl,B,Multi-ply,F,SV EINHEIT GENTHIN,71.9,75,M 45-49,,,,,,85,90,95,,95,,,,,,95,1
Inge Kaule,B,Multi-ply,F,POWERLIFTING LAUCHHAMMER,50.1,52,M 60-64,,,,,,52.5,55,,,55,,,,,,55,1
Kirsten Schwade,B,Multi-ply,F,,94.8,90+,M 60-64,,,,,,90,97.5,-100,,97.5,,,,,,97.5,1
Justin Steuernagel,B,Multi-ply,M,KRAFT & FITNESS EILENBURG,66.2,67.5,T 16-17,,,,,,-85,85,90,-103,90,,,,,,90,1
Tim Hausner,B,Multi-ply,M,1. STENDALER KSV,81.1,82.5,T 16-17,,,,,,80,87.5,-92.5,,87.5,,,,,,87.5,1
Paul Günther,B,Multi-ply,M,SV 1919 GRIMMA,105.1,110,T 18-19,,,,,,170,-185,-185,,170,,,,,,170,1
Dominik Bentrop,B,Multi-ply,M,1. STENDALER KSV,99.1,100,Jun,,,,,,145,152.5,-165,,152.5,,,,,,152.5,1
Sandro Kreller,B,Multi-ply,M,EKV JÖHSTADT,72.6,75,Open,,,,,,195,-200,200,,200,,,,,,200,1
Viktor Suppes,B,Multi-ply,M,SV 1919 GRIMMA,72.7,75,Open,,,,,,130,150,160,,160,,,,,,160,2
Nikolay Klass,B,Multi-ply,M,TODTGLÜSINGER SV,75,75,Open,,,,,,-160,160,-170,,160,,,,,,160,3
Martin Neumann,B,Multi-ply,M,SV BERLIN BUCH,74.6,75,Open,,,,,,-140,145,-155,,145,,,,,,145,4
Gerrit Scheel,B,Multi-ply,M,TSV FRIEDRICHSBERG,81.7,82.5,Open,,,,,,195,-200,-205,,195,,,,,,195,1
Robert Bürger,B,Multi-ply,M,K&F EILENBURG,82.5,82.5,Open,,,,,,160,170,-175,,170,,,,,,170,2
Martin Kries,B,Multi-ply,M,,99,100,Open,,,,,,255,270,-280,,270,,,,,,270,1
Christoph Scheel,B,Multi-ply,M,TSV FRIEDRICHSBERG,98.4,100,Open,,,,,,250,255,-270,,255,,,,,,255,2
Marcus Heuer,B,Multi-ply,M,TSV KROPP,105.4,110,Open,,,,,,-275,275,285,,285,,,,,,285,1
Henning Tiedje,B,Multi-ply,M,,103.8,110,Open,,,,,,265,-275,-275,,265,,,,,,265,2
Christopher Röper,B,Multi-ply,M,KRAFT & FITNESS EILENBURG,110,110,Open,,,,,,240,-250,-265,,240,,,,,,240,3
Helmut Scheide,B,Multi-ply,M,SV EINHEIT GENTHIN,102.1,110,Open,,,,,,-190,-190,-190,,,,,,,,,DQ
Daniel Kaufmann,B,Multi-ply,M,1. STENDALER KSV,101.1,110,Open,,,,,,-235,-240,-257.5,,,,,,,,,DQ
Matthias Joecks,B,Multi-ply,M,TSV KROPP,110.1,125,Open,,,,,,275,290,305.5,,305.5,,,,,,305.5,1
Marcel Trost,B,Multi-ply,M,KRÖPELINER SV,113.4,125,Open,,,,,,180,190,200,,200,,,,,,200,2
Sirko Petermann,B,Multi-ply,M,TUSG MITTELSACHSEN,129,140,Open,,,,,,232.5,240,250,,250,,,,,,250,1
Michael Becherer,B,Multi-ply,M,POSITIV FITNESS INGOLSTADT,125.2,140,Open,,,,,,-200,200,210,,210,,,,,,210,2
André Schober,B,Multi-ply,M,KSC FRAUENAU,144.7,140+,Open,,,,,,150,-185,,,150,,,,,,150,1
Gorden Schramke,B,Multi-ply,M,SV EINHEIT GENTHIN,77.6,82.5,M 40-44,,,,,,-145,-147.5,147.5,,147.5,,,,,,147.5,1
Reiko Kruse,B,Multi-ply,M,KRÖPELINER SV,121.3,125,M 40-44,,,,,,245,260,270,,270,,,,,,270,1
Oliver Dorsch,B,Multi-ply,M,POSITIV FITNESS INGOLSTADT,137.1,140,M 40-44,,,,,,-250,-250,-250,,,,,,,,,DQ
Kai-Uwe Werner,B,Multi-ply,M,ALPHA FITNESS,118.7,125,M 45-49,,,,,,265,-272.5,-272.5,,265,,,,,,265,1
Frank Hennig,B,Multi-ply,M,LACKY FITNESS,80.8,82.5,M 50-54,,,,,,140,145,-150,,145,,,,,,145,1
Peter Ihlenfeld,B,Multi-ply,M,SV BERLIN BUCH,121.6,125,M 50-54,,,,,,-217.5,217.5,-222.5,,217.5,,,,,,217.5,1
Kurt Rooch,B,Multi-ply,M,POWERLIFTING LAUCHHAMMER,66.9,67.5,M 55-59,,,,,,125,135,-141,,135,,,,,,135,1
Thomas Wagner,B,Multi-ply,M,AC DESSAU,81.2,82.5,M 55-59,,,,,,112.5,117.5,120,,120,,,,,,120,1
Ulfert Rinas,B,Multi-ply,M,TSV KROPP,98,100,M 55-59,,,,,,200,205,212.5,,212.5,,,,,,212.5,1
Peter Rathke,B,Multi-ply,M,1. STENDALER KSV,93.8,100,M 55-59,,,,,,180,,,,180,,,,,,180,2
Krystian Slosarek,B,Multi-ply,M,TODTGLÜSINGER SV,118.1,125,M 55-59,,,,,,-200,200,-216,,200,,,,,,200,1
Lutz Dürre,B,Multi-ply,M,SV EINHEIT GENTHIN,128.1,140,M 55-59,,,,,,-155,-155,-155,,,,,,,,,DQ
Wolfgang Seiler,B,Multi-ply,M,K&F EILENBURG,82.1,82.5,M 60-64,,,,,,166.5,-172.5,-175,,166.5,,,,,,166.5,1
Armin Bunzel,B,Multi-ply,M,SV EINHEIT GENTHIN,98.9,100,M 60-64,,,,,,150,-157.5,-157.5,,150,,,,,,150,1
Ulrich Vetter,B,Multi-ply,M,POWERLIFTING LAUCHHAMMER,107.6,110,M 60-64,,,,,,175,-182.5,187.5,,187.5,,,,,,187.5,1
Fred Marienfeldt,B,Multi-ply,M,KSV ALTENA,89.8,90,M 65-69,,,,,,160,167.5,172.5,,172.5,,,,,,172.5,1
Dieter Schweitzer,B,Multi-ply,M,AC DESSAU,66.8,67.5,M 75-79,,,,,,50,52.5,-55,,52.5,,,,,,52.5,1
Konrad Merta,B,Multi-ply,M,TODTGLÜSINGER SV,85.1,90,M 75-79,,,,,,110,,,,110,,,,,,110,1
Sabrina Pauli,B,Raw,F,KSC FRAUENAU,58.2,60,T 13-15,,,,,,37.5,40,42.5,-45,42.5,,,,,,42.5,1
Lia Maleen Eckhoff,B,Raw,F,TSV KROPP,66.6,67.5,Jun,,,,,,50,55,-60,,55,,,,,,55,1
Bianca Helmdach,B,Raw,F,TSV KROPP,42.5,44,Open,,,,,,55,60,62.5,65.5,62.5,,,,,,62.5,1
Daniela Adamkewics,B,Raw,F,LOK STENDAL,55.1,56,Open,,,,,,57.5,62.5,-65,,62.5,,,,,,62.5,1
Karin Behrends,B,Raw,F,LOK STENDAL,77.2,82.5,M 50-54,,,,,,70,-72.5,72.5,,72.5,,,,,,72.5,1
Margit Flett,B,Raw,F,ORANIENBURGER BC,59,60,M 55-59,,,,,,35,37.5,-40,,37.5,,,,,,37.5,1
Kirsten Schwade,B,Raw,F,,94.7,90+,M 60-64,,,,,,80,85,-87.5,,85,,,,,,85,1
Sigrid Sack,B,Raw,F,SPORTVEREIN AMENDINGEN,55.7,56,M 65-69,,,,,,50,52.5,55.5,,55.5,,,,,,55.5,1
Ingrid Cedel,B,Raw,F,LOK STENDAL,65.9,67.5,M 65-69,,,,,,47.5,50,53,,53,,,,,,53,1
Ursula Eulenstein,B,Raw,F,FSV 1895 MAGDEBURG,84.1,90,M 65-69,,,,,,70,72.5,75,,75,,,,,,75,1
Benjamin Scholz,B,Raw,M,SSV TORGAU,74.3,75,T 13-15,,,,,,70,75,-82.5,,75,,,,,,75,1
Max Glok,B,Raw,M,,77.3,82.5,T 13-15,,,,,,87.5,92.5,-97.5,,92.5,,,,,,92.5,1
Quentin Klatt,B,Raw,M,ALPHA FITNESS,75,75,T 16-17,,,,,,102.5,108,110,112.5,110,,,,,,110,1
Joshua Fischer,B,Raw,M,,72.8,75,T 16-17,,,,,,75,-80,-85,,75,,,,,,75,2
Dennis Glok,B,Raw,M,,75.9,82.5,T 16-17,,,,,,90,97.5,-102.5,,97.5,,,,,,97.5,1
Chris Mahlo,B,Raw,M,,89.2,90,T 16-17,,,,,,95,-102.5,-102.5,,95,,,,,,95,1
Herbert Czeplinski,B,Raw,M,,105.7,110,T 16-17,,,,,,170,180,-186,,180,,,,,,180,1
Julian Vigh,B,Raw,M,,71.2,75,T 18-19,,,,,,126,130,135,,135,,,,,,135,1
Fabian Baum,B,Raw,M,TUSG MITTELSACHSEN,97.9,100,T 18-19,,,,,,160,-172.5,-172.5,,160,,,,,,160,1
Valentin Rohm,B,Raw,M,,94.4,100,Jun,,,,,,150,157.5,-160,,157.5,,,,,,157.5,1
Benedict Sura,B,Raw,M,,121.8,125,Jun,,,,,,160,-170,170,,170,,,,,,170,1
Gerrit Scheel,B,Raw,M,TSV FRIEDRICHSBERG,81.9,82.5,Open,,,,,,182.5,-187.5,-187.5,,182.5,,,,,,182.5,1
Daniel Eckert,B,Raw,M,K&F EILENBURG,82,82.5,Open,,,,,,145,150,-155,,150,,,,,,150,2
Thomas Winkelmann,B,Raw,M,SV 1919 GRIMMA,80.2,82.5,Open,,,,,,135,142.5,-150,,142.5,,,,,,142.5,3
Branko Kautz,B,Raw,M,TSV TANGERMÜNDE,80.5,82.5,Open,,,,,,130,135,-140,,135,,,,,,135,4
Thomas Giesa,B,Raw,M,SV 1919 GRIMMA,82.5,82.5,Open,,,,,,125,130,-137.5,,130,,,,,,130,5
Andreas Machann,B,Raw,M,,78.4,82.5,Open,,,,,,90,100,-102.5,,100,,,,,,100,6
Tilo Sauer,B,Raw,M,FAMILY FITNESS,83.8,90,Open,,,,,,140,145,147.5,,147.5,,,,,,147.5,1
Wolfgang Fischer,B,Raw,M,PSV HATTINGEN,89.3,90,Open,,,,,,135,-142.5,142.5,,142.5,,,,,,142.5,2
Stefan Gneist,B,Raw,M,KÖTHENER SV,85.7,90,Open,,,,,,130,137.5,-142.5,,137.5,,,,,,137.5,3
Thomas Lenke,B,Raw,M,,89.9,90,Open,,,,,,135,-140,-140,,135,,,,,,135,4
Jan Ove Frahm,B,Raw,M,,89.7,90,Open,,,,,,110,-120,120,,120,,,,,,120,5
Christoph Scheel,B,Raw,M,TSV FRIEDRICHSBERG,98.3,100,Open,,,,,,210,218,222.5,-227.5,222.5,,,,,,222.5,1
Josef Still,B,Raw,M,,97.2,100,Open,,,,,,170,175,-180,,175,,,,,,175,2
Mario Rumrich,B,Raw,M,,93.2,100,Open,,,,,,145,-160,160,,160,,,,,,160,3
Enrico Greßner,B,Raw,M,OSV ALTENBURG,106.8,110,Open,,,,,,210,220,230,,230,,,,,,230,1
Oliver Hirschmann,B,Raw,M,TUSG MITTELSACHSEN,105.4,110,Open,,,,,,200,210,220,,220,,,,,,220,2
Michael Lauenstein,B,Raw,M,LOK STENDAL,106.1,110,Open,,,,,,195,200,-202.5,,200,,,,,,200,3
Jens Hoffmann,B,Raw,M,POWERGYM UERDINGEN,105.1,110,Open,,,,,,180,-200,-200,,180,,,,,,180,4
Michael Sommer,B,Raw,M,1. TSV ALTENBERG,122.6,125,Open,,,,,,200,210,,,210,,,,,,210,1
Jan Sylvester,B,Raw,M,K&F EILENBURG,124.2,125,Open,,,,,,-195,195,-200,,195,,,,,,195,2
Richard Gensch,B,Raw,M,,111.5,125,Open,,,,,,150,-160,-160,,150,,,,,,150,3
Christoph Nagy,B,Raw,M,POSITIV FITNESS INGOLSTADT,126.8,140,Open,,,,,,180,190,-200,,190,,,,,,190,1
Alexander Benik,B,Raw,M,XXXL DIE SCHMIEDE,88.8,90,M 40-44,,,,,,157.5,162.5,165,,165,,,,,,165,1
Oliver Beck,B,Raw,M,TSV TANGERMÜNDE,107.8,110,M 40-44,,,,,,172.5,180,190,,190,,,,,,190,1
Sven Nethe,B,Raw,M,TSV TANGERMÜNDE,118.6,125,M 40-44,,,,,,175,182.5,192.5,,192.5,,,,,,192.5,1
Mathias Schiller,B,Raw,M,ALPHA FITNESS,121.4,125,M 40-44,,,,,,175,-180,-180,,175,,,,,,175,2
Danny Schmalz,B,Raw,M,ALPHA FITNESS,126.2,140,M 40-44,,,,,,182.5,187.5,192.5,,192.5,,,,,,192.5,1
Silvio Heinke,B,Raw,M,OSV ALTENBURG,61.9,67.5,M 45-49,,,,,,-70,70,80,,80,,,,,,80,1
Wolfgang Fischer,B,Raw,M,PSV HATTINGEN,89.3,90,M 45-49,,,,,,125,135,140,,140,,,,,,140,1
Rico Martinez,B,Raw,M,,93.1,100,M 45-49,,,,,,185,-192.5,-192.5,,185,,,,,,185,1
Steffen Reisbach,B,Raw,M,KÖTHENER SV,93.9,100,M 45-49,,,,,,152.5,,,,152.5,,,,,,152.5,2
Kai-Uwe Werner,B,Raw,M,ALPHA FITNESS NEUBRANDENBURG,119.3,125,M 45-49,,,,,,175,185,192.5,,192.5,,,,,,192.5,1
Friedhelm Schröter,B,Raw,M,,73.6,75,M 50-54,,,,,,110,120,125,,125,,,,,,125,1
Frank Hennig,B,Raw,M,LACKY FITNESS,81.6,82.5,M 50-54,,,,,,125,127.5,-130,,127.5,,,,,,127.5,1
Tilo Kupper,B,Raw,M,,89.6,90,M 50-54,,,,,,145,150,157.5,,157.5,,,,,,157.5,1
Rolf Zeißler,B,Raw,M,OSV ALTENBURG,88.8,90,M 50-54,,,,,,140,147.5,155,,155,,,,,,155,2
Thorsten Ritter,B,Raw,M,,94,100,M 50-54,,,,,,140,150,160,,160,,,,,,160,1
Uwe Vernaldi,B,Raw,M,,106.7,110,M 50-54,,,,,,170,175,180,,180,,,,,,180,1
Frank Schütze,B,Raw,M,OSV ALTENBURG,115.5,125,M 50-54,,,,,,202.5,210,212.5,,212.5,,,,,,212.5,1
Andreas Behrends,B,Raw,M,LOK STENDAL,121.3,125,M 50-54,,,,,,170,175,177.5,,177.5,,,,,,177.5,2
Jeffri Höllenreiner,B,Raw,M,SPORTSELITE INGOLSTADT,128.3,140,M 50-54,,,,,,200,-205,-205,,200,,,,,,200,1
Jürgen Dziergwa,B,Raw,M,MEIN FITNESS SPREMBERG,67.3,67.5,M 55-59,,,,,,100,110,-115,,110,,,,,,110,1
Hakki Bozat,B,Raw,M,,69.8,75,M 55-59,,,,,,95,110,-115,,110,,,,,,110,1
Thomas Wagner,B,Raw,M,AC DESSAU,81.1,82.5,M 55-59,,,,,,107.5,112.5,-115,,112.5,,,,,,112.5,1
Günter Roloff,B,Raw,M,TSV TANGERMÜNDE,88.7,90,M 55-59,,,,,,110,125,,,125,,,,,,125,1
Eduard Weber,B,Raw,M,TSV KROPP,103,110,M 55-59,,,,,,130,140,-150,,140,,,,,,140,1
Hans-Jürgen Kaule,B,Raw,M,POWERLIFTING LAUCHHAMMER,74.8,75,M 60-64,,,,,,125,132.5,-136,,132.5,,,,,,132.5,1
Gerd Müller,B,Raw,M,LACKY FITNESS,80.8,82.5,M 60-64,,,,,,120,125,-130,,125,,,,,,125,1
Frank Kutzsch,B,Raw,M,K&F EILENBURG,89.2,90,M 60-64,,,,,,140,146,-150,,146,,,,,,146,1
Kurt Schoula,B,Raw,M,TSV KROPP,99.7,100,M 60-64,,,,,,160,165,-170,,165,,,,,,165,1
Hubert Markwort,B,Raw,M,,92.3,100,M 60-64,,,,,,65,-70,-70,,65,,,,,,65,2
Norbert Rösel,B,Raw,M,,73.8,75,M 65-69,,,,,,110,-115,115,,115,,,,,,115,1
Reinhold Sack,B,Raw,M,SPORTVEREIN AMENDINGEN,,82.5,M 65-69,,,,,,120,125,127.5,,127.5,,,,,,127.5,1
Andre Kühn,B,Raw,M,FITNESS & GESUNDHEITSSTUDIO GRÜNA,81.2,82.5,M 65-69,,,,,,100,107.5,110,,110,,,,,,110,2
Reinhold Schaumann-Kelch,B,Raw,M,,85.9,90,M 65-69,,,,,,120,125,-127.5,,125,,,,,,125,1
Hartmut Wiechert,B,Raw,M,,87.8,90,M 65-69,,,,,,87.5,-90,,,87.5,,,,,,87.5,2
Joachim Eulenstein,B,Raw,M,FSV 1895 MAGDEBURG,94.9,100,M 65-69,,,,,,120,127.5,132.5,,132.5,,,,,,132.5,1
Andreas Vigh,B,Raw,M,,74.2,75,M 70-74,,,,,,96,100,102.5,105,102.5,,,,,,102.5,1
Gerd Cedel,B,Raw,M,LOK STENDAL,71.2,75,M 70-74,,,,,,82.5,87.5,-90,,87.5,,,,,,87.5,2
Rolf Winterscheidt,B,Raw,M,AC DESSAU,79.1,82.5,M 70-74,,,,,,60,62.5,-65,,62.5,,,,,,62.5,1
Siegfried Wege,B,Raw,M,FITNESS & GESUNDHEITSSTUDIO GRÜNA,89.2,90,M 70-74,,,,,,105,112.5,-115,,112.5,,,,,,112.5,1
Helmut Nebelung,B,Raw,M,,85.8,90,M 70-74,,,,,,90,95,97.5,,97.5,,,,,,97.5,2
Heiner Dr. Schildbach,B,Raw,M,FITNESS & GESUNDHEITSSTUDIO GRÜNA,97.9,100,M 70-74,,,,,,105,110,-112.5,,110,,,,,,110,1
Hans-Jürgen Kuhlmey,B,Raw,M,BEST FITNESS ROSTOCK,126.8,140,M 70-74,,,,,,-120,-120,120,,120,,,,,,120,1
Bernhard Gromadecki,B,Raw,M,SV BERLIN BUCH,72.3,75,M 75-79,,,,,,-65,65,-67.5,,65,,,,,,65,1
Gerd Meyerhofer,B,Raw,M,HELLAS 09 ORANIENBAUM,79.1,82.5,M 75-79,,,,,,60,62.5,65,,65,,,,,,65,1
Hans-Jürgen Dosin,B,Raw,M,SV EINTRACHT ZINNOWITZ,98.6,100,M 75-79,,,,,,79,97.5,102.5,107.5,102.5,,,,,,102.5,1
Wiebke Hinrichsen,SBD,Multi-ply,F,TSV KROPP,65.5,67.5,Open,140,152.5,-157.5,,152.5,110,115,120,,120,140,150,-161,,150,422.5,1
Andrea Pauli,SBD,Multi-ply,F,KSC FRAUENAU,68.1,75,Open,120,140,-150,,140,80,85,-90,,85,135,150,-155,,150,375,1
Sabine Kraus,SBD,Multi-ply,F,AC POWER BURGAU,78.3,82.5,M 45-49,-125,-125,125,,125,65,75,-82.5,,75,115,130,-137.5,,130,330,1
Lion Lowag,SBD,Multi-ply,M,K&F EILENBURG,100,100,T 16-17,-220,230,250.5,,250.5,115,125,132.5,,132.5,190,-217.5,217.5,-225,217.5,600.5,1
Tristan Cianni,SBD,Multi-ply,M,POWERGYM ESCHENASY,80.7,82.5,T 18-19,-245,-245,245,,245,162.5,170,175,,175,210,-225,225,232.5,225,645,1
Max Braune,SBD,Multi-ply,M,K&F EILENBURG,75.4,82.5,Jun,195,-207.5,212.5,,212.5,112.5,-122.5,-122.5,,112.5,160,170,-177.5,,170,495,1
Viktor Suppes,SBD,Multi-ply,M,SV 1919 GRIMMA,73.3,75,Open,210,230,-250,,230,130,140,150,,150,200,-215,225,,225,605,1
Enrico Morwitz,SBD,Multi-ply,M,K&F EILENBURG,80.8,82.5,Open,-165,165,180,,180,105,112.5,117.5,,117.5,150,165,175,,175,472.5,1
Erik Knöfler,SBD,Multi-ply,M,K&F EILENBURG,98.3,100,Open,350,375,,,375,215,225,-235,,225,-280,300,-325,,300,900,1
Elias Dobrowolski,SBD,Multi-ply,M,SV QUITT ANKUM,92.2,100,Open,230,250,265,,265,-187.5,187.5,202.5,,202.5,230,250,-265,,250,717.5,2
Christoph Röper,SBD,Multi-ply,M,K&F EILENBURG,110,110,Open,300,310,,,310,225,235,-245,,235,-240,255,-280,,255,800,1
Sven Lorenz,SBD,Multi-ply,M,,108,110,Open,280,-300,300,,300,180,-200,-210,,180,240,260,-280,,260,740,2
Sergej Schumann,SBD,Multi-ply,M,AC POWER,102.2,110,Open,190,205,220,,220,115,130,140,,140,195,215,230,,230,590,3
Silvio Rücker,SBD,Multi-ply,M,K&F EILENBURG,125.2,140,Open,-320,320,342.5,,342.5,230,-240,-250,,230,260,270,280,,280,852.5,1
Roman Reisch,SBD,Multi-ply,M,ORANIENBURGER BC,123,125,M 40-44,215,225,-232.5,,225,170,180,-190,,180,215,225,-235,,225,630,1
Helmut Kraus,SBD,Multi-ply,M,AC POWER,99.1,100,M 45-49,270,305,-320,,305,215,-225,-225,,215,245,255,-262.5,,255,775,1
Torsten Kammer,SBD,Multi-ply,M,K&F EILENBURG,95.4,100,M 45-49,220,-240,-240,,220,140,150,-162.5,,150,200,212.5,-222.5,,212.5,582.5,2
Peter Rathke,SBD,Multi-ply,M,1. STENDALER KSV,92.9,100,M 55-59,-250,250,260.5,,260.5,-175,175,-182.5,,175,250,-260.5,-260.5,,250,685.5,1
Lothar Pritzl,SBD,Multi-ply,M,KSC FRAUENAU,94,100,M 55-59,215,-230,230,,230,110,140,150,,150,180,,,,180,560,2
Burkhard Steffen,SBD,Multi-ply,M,FSV 1895 MAGDEBURG,67.5,67.5,M 65-69,150,160,165,,165,90,95,100,,100,145,152.5,160,,160,425,1
Rafaela Gaki,SBD,Wraps,F,POWERGYM ESCHENASY,54.5,56,T 18-19,55,65,-72.5,,65,30,35,37.5,-40,37.5,75,85,92.5,,92.5,195,1
Karin Reingruber,SBD,Wraps,F,1. TSV ALTENBERG,54.8,56,Jun,82.5,90,95,,95,45,50,-52.5,,50,105,115,120,125,120,265,1
Amanda John,SBD,Wraps,F,,56.6,60,Jun,60,70,80,85,80,35,40,-45,,40,90,100,110,-115,110,230,1
Katrin Jung,SBD,Wraps,F,POWERGYM ESCHENASY,59.2,60,Jun,30,-35,35,,35,-25,25,-30,,25,65,70,80,,80,140,2
Saskia Schaller,SBD,Wraps,F,1. TSV ALTENBERG,66.9,67.5,Jun,90,-100,100,,100,50,55,-57.5,,55,95,102.5,-107.5,,102.5,257.5,1
Anja Schmidt,SBD,Wraps,F,,55.8,56,Open,-90,90,100,,100,40,-45,45,,45,105,112.5,117.5,-120,117.5,262.5,1
Bianca Voitek,SBD,Wraps,F,LAFIT BAYREUTH,59.8,60,Open,110,-117.5,122.5,,122.5,70,77.5,-82.5,,77.5,130,140,-150,,140,340,1
Katharina Brening,SBD,Wraps,F,ORANIENBURGER BC,59.9,60,Open,-110,110,-120,,110,60,67.5,-72.5,,67.5,115,125,135,,135,312.5,2
Michaela Sideratos,SBD,Wraps,F,,58.1,60,Open,80,90,-100,,90,35,40,-45,,40,90,100,110,,110,240,3
Hjördis Dietrich,SBD,Wraps,F,KRAFT & FITNESS EILENBURG,67.5,67.5,Open,110,120,130,,130,62.5,67.5,72.5,,72.5,125,135,-150,,135,337.5,1
Charlene Holland,SBD,Wraps,F,,66.6,67.5,Open,120,130,-140,,130,65,-72.5,-72.5,,65,125,140,-155,,140,335,2
Nicole Ketzler,SBD,Wraps,F,KRAFT & FITNESS EILENBURG,63.8,67.5,Open,112.5,-122.5,122.5,,122.5,65,70,75,,75,-122.5,125,132.5,,132.5,330,3
Andrea Pauli,SBD,Wraps,F,KSC FRAUENAU,66.6,67.5,Open,75,-100,-120,,75,55,62.5,67.5,,67.5,120,135,-140,,135,277.5,4
Anja Günther,SBD,Wraps,F,KÖTHENER SV,66,67.5,Open,75,85,95,,95,55,60,-67.5,,60,95,105,-110,,105,260,5
Denise Herber,SBD,Wraps,F,,73,75,Open,140,151,157.5,162.5,157.5,86,-90,-90,,86,155,160,165,170.5,165,408.5,1
Marlies Götze,SBD,Wraps,F,KRAFT & FITNESS EILENBURG,72.8,75,Open,-160,-165,-175,,,,,,,,,,,,,,DQ
Franziska Jahn,SBD,Wraps,F,FITNESS & GESUNDHEITSSTUDIO GRÜNA,106,90+,Open,135,150,165,,165,70,80,-85,,80,140,-160,-160,,140,385,1
Daniela Bräutigam,SBD,Wraps,F,TUSG MITTELSACHSEN,119.1,90+,M 40-44,90,100,-105,,100,52.5,-60,60,65,60,90,100,107.5,-112.5,107.5,267.5,1
Michaela Pennekamp,SBD,Wraps,F,POWERGYM UERDINGEN,104.1,90+,M 45-49,140,150,160,,160,77.5,82.5,-87.5,,82.5,160,-170,175,180,175,417.5,1
Tom Huschenbett,SBD,Wraps,M,POWERLIFTING NIPPON GOTHA,45.2,56,T 13-15,-115,115,-122.5,122.5,115,65,-70,70,72.5,70,50,60,63,65,63,248,1
Akim Basdereli,SBD,Wraps,M,,62.5,67.5,T 13-15,-135,135,-145,,135,-85,85,-95,,85,165,-175,-175,,165,385,1
Marouan Benzadi,SBD,Wraps,M,NEW FITNESS WORLD PENZBERG,74.5,75,T 16-17,-160,160,-180,,160,100,105,110,112.5,110,160,180,190,,190,460,1
Janik Piepenhagen,SBD,Wraps,M,,74.5,75,T 16-17,-150,160,-170,,160,100,107.5,110,-113,110,160,170,175,,175,445,2
Valentin Blank,SBD,Wraps,M,,76.8,82.5,T 16-17,-140,140,160,,160,75,85,90,,90,150,170,180,,180,430,1
Torge Trieglaff,SBD,Wraps,M,,82,82.5,T 18-19,-160,160,170,,170,-115,115,-120,,115,175,185,192.5,,192.5,477.5,1
Florian Abeltshauser,SBD,Wraps,M,NEW FITNESS WORLD PENZBERG,89.4,90,T 16-17,125,140,150,,150,87.5,90,-95,,90,150,165,175,,175,415,1
Kevin Hesse,SBD,Wraps,M,FIREGYM,89,90,T 18-19,225,-245,250,,250,125,137.5,-142.5,,137.5,235,255,265,,265,652.5,1
Christian Wagner,SBD,Wraps,M,POWERGYM ESCHENASY,95.3,100,T 16-17,100,120,-140,,120,80,95,-105,,95,140,160,180,,180,395,1
Konstantin Neumann,SBD,Wraps,M,,96,100,T 18-19,220,235,247.5,,247.5,150,160,162.5,,162.5,220,230,-240,,230,640,1
Fabian Baum,SBD,Wraps,M,TUSG MITTELSACHSEN,97.9,100,T 18-19,200,210,-215,,210,170,-180,-180,,170,230,245,-262.5,,245,625,2
Christoph Spliteser,SBD,Wraps,M,VFK HANNOVER,98.9,100,T 18-19,185,195,205,,205,115,120,-127.5,,120,215,230,237.5,,237.5,562.5,3
Eric Kruse,SBD,Wraps,M,KRÖPELINER SV,98.9,100,T 13-15,165,175,185,,185,90,-105,-105,,90,185,200,210,,210,485,1
Ole Rehfeld,SBD,Wraps,M,,98.9,100,T 18-19,-227.5,-227.5,-227.5,,,,,,,,,,,,,,DQ
Tom Weltzer,SBD,Wraps,M,TSV KROPP,104.2,110,T 16-17,190,200,205,,205,-130,130,-132.5,,130,190,200,220,,220,555,1
Paul Günther,SBD,Wraps,M,SV 1919 GRIMMA,105.1,110,T 18-19,200,-220,-230,,200,145,150,-157.5,,150,-240,245,-260,,245,595,1
Tobias Gnadl,SBD,Wraps,M,NEW ENERGY FITNESS,80.6,82.5,Jun,150,-175,177.5,,177.5,-100,100,-112.5,,100,215,230,235,,235,512.5,1
Markus Fesenmayr,SBD,Wraps,M,NEW FITNESS WORLD PENZBERG,80.6,82.5,Jun,175,185,-190,,185,100,-105,-105,,100,190,205,215,,215,500,2
Tim Niklas Jahn,SBD,Wraps,M,VFK HANNOVER,80.8,82.5,Jun,165,175,180,,180,110,117.5,-122.5,,117.5,200,-210,-215,,200,497.5,3
Jan Münzner,SBD,Wraps,M,TUSG MITTELSACHSEN,77.6,82.5,Jun,130,140,150,,150,85,92.5,-100,,92.5,155,165,175,,175,417.5,4
Max Schröder,SBD,Wraps,M,KSC FRAUENAU,90,90,Jun,240,250,260,-267.5,260,150,160,-165,,160,260,270,280,-290,280,700,1
Wladimir Litvinenko,SBD,Wraps,M,,90,90,Jun,220,235,245,,245,145,155,-162.5,,155,260,-290,-290,,260,660,2
Daniel Schimmel,SBD,Wraps,M,,89.3,90,Jun,230,-240,-240,,230,150,160,-165,,160,240,,,,240,630,3
Leroy Bachmann,SBD,Wraps,M,KÖTHENER SV,92.6,100,Jun,130,135,140,,140,85,90,-95,,90,180,-190,-190,,180,410,1
Tobias Beuche,SBD,Wraps,M,KRAFT & FITNESS EILENBURG,102.3,110,Jun,195,210,220,,220,110,-120,120,,120,180,200,-220,,200,540,1
Aljoscha Lehmbrock,SBD,Wraps,M,POWERGYM UERDINGEN,114,125,Jun,200,220,-235,,220,150,-160,160,,160,220,245,270,,270,650,1
Sven Kosmowski,SBD,Wraps,M,,128.4,140,Jun,200,215,225,,225,180,190,-200,,190,240,250,260,,260,675,1
Mickael Duman,SBD,Wraps,M,,74.9,75,Open,170,180,190,,190,120,125,130,,130,200,-210,,,200,520,1
Klaus Leitmann,SBD,Wraps,M,,73.9,75,Open,170,180,185,,185,90,100,,,100,172.5,182.5,-190,,182.5,467.5,2
Matthias Schröter,SBD,Wraps,M,ALBATROS ANKLAM,81.4,82.5,Open,180,192.5,-207.5,,192.5,125,127.5,130,,130,220,230,-240,,230,552.5,1
Jens Fölsing,SBD,Wraps,M,,77,82.5,Open,130,145,155,,155,105,120,-130,,120,170,185,200,,200,475,2
Gustav Kosin,SBD,Wraps,M,,81.6,82.5,Open,140,150,160,,160,90,-105,-105,,90,155,170,180,,180,430,3
Michael Herz,SBD,Wraps,M,,78.6,82.5,Open,135,-145,145,,145,90,-100,-100,,90,-170,180,-190,,180,415,4
Jeffrey Podszuweit,SBD,Wraps,M,TUSG MITTELSACHSEN,85.5,90,Open,230,250,260,,260,180,187.5,-190.5,,187.5,230,252.5,-260,,252.5,700,1
Eric Hambeck,SBD,Wraps,M,TUSG MITTELSACHSEN,89.6,90,Open,180,-190,200,,200,160,172.5,-177.5,,172.5,160,180,207.5,,207.5,580,2
Christian Fischl,SBD,Wraps,M,NEW ENERGY FITNESS,87.4,90,Open,160,170,180,,180,100,110,125,,125,180,190,200,,200,505,3
Marius Hartmann,SBD,Wraps,M,VFK HANNOVER,88.7,90,Open,170,180,187.5,,187.5,110,115,-117.5,,115,190,202.5,-207.5,,202.5,505,4
Stefan Gneist,SBD,Wraps,M,KÖTHENER SV,85.5,90,Open,150,160,-170,,160,130,135,-140,,135,165,172.5,177.5,,177.5,472.5,5
Alexander Ketterer,SBD,Wraps,M,,88,90,Open,135,145,152.5,,152.5,95,105,110,,110,160,175,-180,,175,437.5,6
Erik Knöfler,SBD,Wraps,M,KRAFT & FITNESS EILENBURG,98.6,100,Open,280,300,310,,310,160,170,180,,180,280,295,310,,310,800,1
Hagen Rokahr,SBD,Wraps,M,,99.6,100,Open,230,-250,262.5,,262.5,180,190.5,-200,,190.5,240,255,-270,,255,708,2
Romano Rengel,SBD,Wraps,M,,97.6,100,Open,230,250,260,,260,170,180,-185,,180,230,250,260,,260,700,3
Kay Milde,SBD,Wraps,M,,95,100,Open,220,230,240,,240,150,-160,-160,,150,260,270,280,,280,670,4
Steffen Kolb,SBD,Wraps,M,,96.3,100,Open,215,-235,235,,235,130,140,-150,,140,210,225,232.5,,232.5,607.5,5
Dirk Schumann,SBD,Wraps,M,,96.3,100,Open,195,205,215,,215,115,120,-125,,120,255,270,-280,,270,605,6
Michael van Nes,SBD,Wraps,M,1. TSV ALTENBERG,97.3,100,Open,175,187.5,200,,200,115,132.5,-140,,132.5,245,265,-273,,265,597.5,7
Jürgen Slawik,SBD,Wraps,M,,96.8,100,Open,-190,-190,190,,190,150,-160,,,150,240,250,,,250,590,8
Lars Marten Seidel,SBD,Wraps,M,VFK HANNOVER,98,100,Open,210,220,227.5,,227.5,117.5,122.5,-127.5,,122.5,205,217.5,-222.5,,217.5,567.5,9
Leo Läßle,SBD,Wraps,M,TUSG MITTELSACHSEN,97.5,100,Open,190,200,210,,210,112.5,-117.5,-117.5,,112.5,220,232.5,-242.5,,232.5,555,10
Sebastian Stockerl,SBD,Wraps,M,,99.3,100,Open,160,175,-190,,175,-125,125,-135,,125,230,250,,,250,550,11
Mario Rumrich,SBD,Wraps,M,,93.3,100,Open,180,-195,-200,,180,150,155,-160,,155,170,185,-195,,185,520,12
Burak Kacar,SBD,Wraps,M,,107.1,110,Open,-230,-230,230,,230,210,215,,,215,280,295,-297.5,,295,740,1
Anton Scherz,SBD,Wraps,M,NEW ENERGY FITNESS,107.5,110,Open,225,240,250,,250,152.5,160,-165,,160,280,-290,-290,,280,690,2
Ralf Döhne,SBD,Wraps,M,KRAFT & FITNESS EILENBURG,107.2,110,Open,250,265,-270,,265,160,167.5,170.5,,170.5,200,225,235,,235,670.5,3
Robert Zickerow,SBD,Wraps,M,,103.4,110,Open,215,232.5,242.5,,242.5,125,137.5,145,,145,275,-292.5,,,275,662.5,4
Elia Groschupf,SBD,Wraps,M,TUSG MITTELSACHSEN,106.8,110,Open,210,220,230,,230,130,137.5,,,137.5,220,232.5,-240,,232.5,600,5
Michael Becherer,SBD,Wraps,M,POSITIV FITNESS INGOLSTADT,125,125,Open,240,265,280,,280,170,180,185,,185,240,250,-260,,250,715,1
Mathias Große,SBD,Wraps,M,POWERGYM UERDINGEN,110.4,125,Open,240,255,-265,,255,170,-180,-180,,170,260,270,-290,,270,695,2
Andreas Wingendorf,SBD,Wraps,M,NEW ENERGY FITNESS,111,125,Open,200,-220,220,,220,140,-150,150,,150,260,280,300,,300,670,3
Martin Reiner,SBD,Wraps,M,KRAFT & FITNESS EILENBURG,118.4,125,Open,215,-225,-230,,215,140,150,-160,,150,220,235,240,,240,605,4
Robin Müller,SBD,Wraps,M,1. TSV ALTENBERG,115.3,125,Open,190,200,210,,210,135,-137.5,-137.5,,135,225,240,-245,,240,585,5
Patrick Ohleff,SBD,Wraps,M,POWERGYM UERDINGEN,131.2,140,Open,250,265,280,,280,170,180,190,,190,260,-270,,,260,730,1
René Fiedler,SBD,Wraps,M,KÖTHENER SV,132.4,140,Open,200,210,220,,220,180,190,-200,,190,220,230,240,,240,650,2
Stefan Schmidt,SBD,Wraps,M,KRAFT & FITNESS EILENBURG,126.5,140,Open,235,242.5,-250,,242.5,132.5,142.5,-145,,142.5,217.5,227.5,-235,,227.5,612.5,3
Thomas Fischer,SBD,Wraps,M,TUSG MITTELSACHSEN,71.4,75,M 40-44,90,95,100,105,100,90,95,-100,,95,130,140,145,150,145,340,1
Sebastian Beck,SBD,Wraps,M,,82,82.5,M 40-44,190,200,210,,210,110,125,-130,,125,220,240,250,,250,585,1
Oliver Dorsch,SBD,Wraps,M,POSITIV FITNESS INGOLSTADT,136.7,140,M 40-44,260,270,282.5,,282.5,170,180,-185,,180,220,,,,220,682.5,1
Steffen Giesecke,SBD,Wraps,M,KÖTHENER SV,65.2,67.5,M 45-49,110,120,130,,130,95,100,-105,,100,170,180,,,180,410,1
Steffen Reisbach,SBD,Wraps,M,KÖTHENER SV,93.7,100,M 45-49,180,-187.5,-187.5,,180,145,150,-155,,150,200,210,-215,,210,540,1
Frank Hamann,SBD,Wraps,M,,106.3,110,M 45-49,190,-210,210,,210,140,150,-155,,150,230,250,,,250,610,1
Harald Kraft,SBD,Wraps,M,1. TSV ALTENBERG,121.2,125,M 45-49,230,250,270,,270,160,180,190,,190,260,290,310,,310,770,1
Uwe Haase,SBD,Wraps,M,FITNESS & GESUNDHEITSSTUDIO GRÜNA,98.5,100,M 50-54,190,210,225,,225,160,175,-185,,175,170,200,220,,220,620,1
Bernd Backhaus,SBD,Wraps,M,NEW ENERGY FITNESS,105.8,110,M 50-54,255,-265,265,,265,155,165,-170,,165,-245,245,260,,260,690,1
Gottfried Foltas,SBD,Wraps,M,,79,82.5,M 55-59,135,145,155,,155,95,102.5,110,,110,165,185,201,,201,466,1
Lothar Pritzl,SBD,Wraps,M,KSC FRAUENAU,94,100,M 55-59,-180,180,,,180,100,120,-132.5,,120,180,-205,,,180,480,1
Calin Eschenasy,SBD,Wraps,M,POWERGYM ESCHENASY,75.1,82.5,M 60-64,-150,150,170,,170,100,-107.5,-107.5,,100,180,200,-205,,200,470,1
Klaus-Robert Franck,SBD,Wraps,M,,112.3,125,M 60-64,182.5,-192.5,-202.5,,182.5,150,157.5,-167.5,,157.5,190,200,207.5,,207.5,547.5,1
Norbert Rösel,SBD,Wraps,M,,74.3,75,M 65-69,95,-100,-105,,95,112.5,117.5,-120,,117.5,120,135,145,,145,357.5,1
Hartmut Wiechert,SBD,Wraps,M,,88.5,90,M 65-69,95,105,-110,,105,85,-90,,,85,135,145,-155,,145,335,1
Ulrich Mielich,SBD,Wraps,M,SWK 1946 REGENSBURG,75.2,82.5,M 75-79,65,75,77.5,,77.5,50,55,-60,,55,90,105,115,,115,247.5,1
Lia Maleen Eckhoff,S,Wraps,F,TSV KROPP,66.6,67.5,Jun,95,-105,105,,105,,,,,,,,,,,105,1
Lukas Pommerenke,S,Wraps,M,ALBATROS ANKLAM,74.7,75,Jun,112.5,117.5,122.5,,122.5,,,,,,,,,,,122.5,1
Alexander Wartig,S,Wraps,M,LOK STENDAL,76.2,82.5,Jun,160,-167.5,167.5,,167.5,,,,,,,,,,,167.5,1
Doninik Bentrop,S,Wraps,M,1. STENDALER KSV,99.1,100,Jun,150,160,170,,170,,,,,,,,,,,170,1
Jan Ove Frahm,S,Wraps,M,  ,90,90,Open,100,110,120,,120,,,,,,,,,,,120,1
Christoph Scheel,S,Wraps,M,TSV FRIEDRICHSBERG,98.4,100,Open,200,210,220,,220,,,,,,,,,,,220,1
Lion Lowag,S,Wraps,M,K&F EILENBURG,100,100,Open,185.5,196,208,,208,,,,,,,,,,,208,2
Mario Rumrich,S,Wraps,M, ,93.5,100,Open,160,180,190,,190,,,,,,,,,,,190,3
Michael Becherer,S,Wraps,M,POSITIV FITNESS INGOLSTADT,125.2,140,Open,230,250,,,250,,,,,,,,,,,250,1
Marco Lamprecht,S,Wraps,M,ALPHA FITNESS NEUBRANDENBURG,107.9,110,M 40-44,240,255,270,,270,,,,,,,,,,,270,1
Lothar Pritzl,S,Wraps,M,KSC FRAUENAU,94.6,100,M 55-59,190,-217,-217,,190,,,,,,,,,,,190,1
Eckhard Pelz,S,Wraps,M,FIT CLUB WUSTERHAUSEN,90,90,M 60-64,160,170,175,177.5,175,,,,,,,,,,,175,1
Norbert Rösel,S,Wraps,M, ,73.9,75,M 65-69,90,95,100,,100,,,,,,,,,,,100,1
Hartmut Wiechert,S,Wraps,M, ,87.4,90,M 65-69,-100,-105,105,-107.5,105,,,,,,,,,,,105,1
Sirko Petermann,S,Multi-ply,M,TUSG MITTELSACHSEN,129,140,Open,305,-317.5,-347.5,,305,,,,,,,,,,,305,1
Jonathan Burth,D,Multi-ply,M, ,90,90,Open,,,,,,,,,,,275,292.5,302.5,,302.5,302.5,1
Matthias Stach,D,Multi-ply,M, ,92.3,100,Open,,,,,,,,,,,260,275,290,,290,290,1
André Schober,D,Multi-ply,M,KSC FRAUENAU,144.7,140+,Open,,,,,,,,,,,190,205,217.5,,217.5,217.5,1
Markus Rücker,D,Multi-ply,M,KRAFT & FITNESS EILENBURG,82.4,82.5,M 40-44,,,,,,,,,,,235,245.5,-250,,245.5,245.5,G
Fred Marienfeldt,D,Multi-ply,M,KSV ALTENA,89.8,90,M 65-69,,,,,,,,,,,185,200,210,220,210,210,1
Joachim Probst,D,Multi-ply,M,TSV KROPP,103,110,M 65-69,,,,,,,,,,,130,150,,,150,150,1
Gerd Meyerhofer,D,Multi-ply,M,HELLAS 09 ORANIENBAUM,78.7,82.5,M 75-79,,,,,,,,,,,80,90,100,,100,100,1
Sabrina Pauli,D,Raw,F,KSC FRAUENAU,58.2,60,T 13-15,,,,,,,,,,,70,75,-80,,75,75,1
Emily Goral,D,Raw,F,ALPHA FITNESS NEUBRANDENBURG,64.7,67.5,T 13-15,,,,,,,,,,,85,92.5,97.5,100.5,97.5,97.5,1
Kirsten Schwade,D,Raw,F,  ,94.7,90+,M 60-64,,,,,,,,,,,100,115,125,,125,125,1
Ingrid Cedel,D,Raw,F,LOK STENDAL,65.9,67.5,M 65-69,,,,,,,,,,,85,90,95.5,,95.5,95.5,1
Lukas Pommerenke,D,Raw,M,ALBATROS ANKLAM,74.7,75,Jun,,,,,,,,,,,165,172.5,177.5,,177.5,177.5,1
Tobias Gnadl,D,Raw,M,NEW ENERGY FITNESS,80.6,82.5,Jun,,,,,,,,,,,210,220,230,,230,230,1
Alexander Wartig,D,Raw,M,LOK STENDAL,76.2,82.5,Jun,,,,,,,,,,,200,-220,-220,,200,200,2
Marcel Kleuß,D,Raw,M,LOK STENDAL,89.1,90,Jun,,,,,,,,,,,160,170,185,,185,185,1
Andreas Machann,D,Raw,M,  ,78.4,82.5,Open,,,,,,,,,,,160,180,200,,200,200,1
Thomas Giesa,D,Raw,M,SV 1919 GRIMMA,82.5,82.5,Open,,,,,,,,,,,180,190,-195,,190,190,2
Thomas Winkelmann,D,Raw,M,SV 1919 GRIMMA,80.2,82.5,Open,,,,,,,,,,,150,157.5,162.5,,162.5,162.5,3
Wolfgang Fischer,D,Raw,M,PSV HATTINGEN,89.3,90,Open,,,,,,,,,,,160,175,180,,180,180,1
Jan Ove Frahm,D,Raw,M, ,89.7,90,Open,,,,,,,,,,,170,180,-190,,180,180,2
Lars Stöwesandt,D,Raw,M,LOK STENDAL,97.3,100,Open,,,,,,,,,,,260,275,-290,,275,275,1
Christoph Scheel,D,Raw,M,TSV FRIEDRICHSBERG,98.3,100,Open,,,,,,,,,,,205,215,-225,,215,215,2
Marcus Heuer,D,Raw,M,TSV KROPP,105.3,110,Open,,,,,,,,,,,260,280,300.5,-305,300.5,300.5,1
Michael Lauenstein,D,Raw,M,LOK STENDAL,106.1,110,Open,,,,,,,,,,,235,245,255,,255,255,2
Fabian Prorowsky,D,Raw,M,LOK STENDAL,107.1,110,Open,,,,,,,,,,,210,220,-230,,220,220,3
Richard Gensch,D,Raw,M, ,111.5,125,Open,,,,,,,,,,,220,235,-250,,235,235,1
Christoph Nagy,D,Raw,M,POSITIV FITNESS INGOLSTADT,126.8,140,Open,,,,,,,,,,,270,300,307.5,,307.5,307.5,1
Thomas Fischer,D,Raw,M,TUSG MITTELSACHSEN,70.8,75,M 40-44,,,,,,,,,,,125,130,135,140,135,135,1
Alexander Benik,D,Raw,M,XXXL DIE SCHMIEDE,88.8,90,M 40-44,,,,,,,,,,,205,212.5,,,212.5,212.5,1
Marco Lamprecht,D,Raw,M,ALPHA FITNESS NEUBRANDENBURG,107.9,110,M 40-44,,,,,,,,,,,235,250,260,,260,260,1
Danny Schmalz,D,Raw,M,ALPHA FITNESS,126.2,140,M 40-44,,,,,,,,,,,-260,,,,,,DQ
Wolfgang Fischer,D,Raw,M,PSV HATTINGEN,89.3,90,M 45-49,,,,,,,,,,,165,175,-182.5,,175,175,1
Andreas Schmidt,D,Raw,M,LOK STENDAL,99.8,100,M 45-49,,,,,,,,,,,235,245,260,,260,260,1
Rico Martinez,D,Raw,M, ,93.1,100,M 45-49,,,,,,,,,,,210,220,240,,240,240,2
Steffen Reisbach,D,Raw,M,KÖTHENER SV,93.9,100,M 45-49,,,,,,,,,,,215,,,,215,215,3
Jürgen Dziergwa,D,Raw,M,"""MEIN FITNESS"" SPREMBERG",67.3,67.5,M 55-59,,,,,,,,,,,135,150,157.5,,157.5,157.5,1
Hakki Bozat,D,Raw,M, ,69.8,75,M 55-59,,,,,,,,,,,165,180,-190,,180,180,1
Lothar Pritzl,D,Raw,M,KSC FRAUENAU,94.6,100,M 55-59,,,,,,,,,,,190,200,,,200,200,1
Hans-Jürgen Kaule,D,Raw,M,POWERLIFTING LAUCHHAMMER,74.8,75,M 60-64,,,,,,,,,,,-190,190,-200,,190,190,1
Hans Malchau,D,Raw,M,KG SIEBENLEHN-MÖNCHENFREI,78.4,82.5,M 60-64,,,,,,,,,,,120,130,140,,140,140,1
Frank Kutzsch,D,Raw,M,KRAFT & FITNESS EILENBURG,89.2,90,M 60-64,,,,,,,,,,,220,235,242.5,,242.5,242.5,1
Eckhard Pelz,D,Raw,M,FIT CLUB WUSTERHAUSEN,91.6,100,M 60-64,,,,,,,,,,,160,175,-182.5,,175,175,1
Holger Schmidt,D,Raw,M,OSV ALTENBURG,94.9,100,M 60-64,,,,,,,,,,,150,160,175,,175,175,2
Norbert Rösel,D,Raw,M, ,73.8,75,M 65-69,,,,,,,,,,,120,127.5,135,,135,135,1
Klaus Berbig,D,Raw,M, ,78.6,82.5,M 65-69,,,,,,,,,,,185,192.5,-197.5,,192.5,192.5,1
Hartmut Wiechert,D,Raw,M, ,87.8,90,M 65-69,,,,,,,,,,,135,145,150,155,150,150,1
Gerd Cedel,D,Raw,M,LOK STENDAL,71.2,75,M 70-74,,,,,,,,,,,122.5,128,130,,130,130,1
Hans-Jürgen Kuhlmey,D,Raw,M,BEST FITNESS ROSTOCK,126.8,140,M 70-74,,,,,,,,,,,150,160,170,,170,170,1
Gerd Meyerhofer,D,Raw,M,HELLAS 09 ORANIENBAUM,79.1,82.5,M 75-79,,,,,,,,,,,80,90,100,,100,100,1
