Division,WeightClassKg,Place,Name,Team,BodyweightKg,Best3SquatKg,Best3BenchKg,Best3DeadliftKg,TotalKg,Equipment,Event,Sex
Boys,51.71,1,Jason Botkin,Corsicana,49.08,113.4,61.23,133.81,308.44,Single-ply,SBD,M
Boys,51.71,2,Chase Paschal,Blooming Grove,49.9,120.2,61.23,124.74,306.17,Single-ply,SBD,M
Boys,51.71,3,Jakob Jankowski,Dawson,49.71,97.52,47.63,111.13,256.28,Single-ply,SBD,M
Boys,51.71,4,Macon Hurford,Blooming Grove,50.35,90.72,47.63,102.06,240.4,Single-ply,SBD,M
Boys,55.79,1,Noah Vasquez,Palmer,55.34,176.9,104.33,151.95,433.18,Single-ply,SBD,M
Boys,55.79,2,Joe Velasquez,Blooming Grove,53.61,147.42,70.31,158.76,376.48,Single-ply,SBD,M
Boys,55.79,3,Justin Johnson,Hubbard,54.07,108.86,79.38,120.2,308.44,Single-ply,SBD,M
Boys,55.79,4,Daniel Gutierrez,Palmer,53.89,111.13,65.77,115.67,292.57,Single-ply,SBD,M
Boys,55.79,5,Lucas Walker,Dawson,54.16,99.79,61.23,127.01,288.03,Single-ply,SBD,M
Boys,55.79,DQ,Chandler Prnka,Malakoff,52.89,163.29,83.91,,,Single-ply,SBD,M
Boys,59.87,1,Sergio Watkins,Blooming Grove,56.7,199.58,108.86,183.7,492.15,Single-ply,SBD,M
Boys,59.87,2,Austin Adams,Eustace,58.88,151.95,90.72,145.15,387.82,Single-ply,SBD,M
Boys,59.87,3,Jaydon Clemens,Italy,56.7,140.61,95.25,140.61,376.48,Single-ply,SBD,M
Boys,59.87,4,Nathan Jones,Corsicana Mildred,57.06,120.2,70.31,108.86,299.37,Single-ply,SBD,M
Boys,59.87,5,Nick Lopez,Palmer,58.33,113.4,61.23,111.13,285.76,Single-ply,SBD,M
Boys,67.13,1,Deondre Brown,Corsicana,63.68,185.97,95.25,190.51,471.74,Single-ply,SBD,M
Boys,67.13,2,Triston Castillo,Eustace,63.14,181.44,102.06,170.1,453.59,Single-ply,SBD,M
Boys,67.13,3,Lucas Zepeda,Waxahachie Life,67.13,181.44,86.18,181.44,449.06,Single-ply,SBD,M
Boys,67.13,4,Manuel Villegas,Blooming Grove,64.41,165.56,108.86,165.56,439.98,Single-ply,SBD,M
Boys,67.13,5,Dakota Lewis,Blooming Grove,66.41,154.22,102.06,176.9,433.18,Single-ply,SBD,M
Boys,67.13,6,Corbin Donoho,Corsicana Mildred,62.23,163.29,86.18,163.29,412.77,Single-ply,SBD,M
Boys,67.13,7,Adam Elkins,Dawson,61.23,158.76,83.91,154.22,396.89,Single-ply,SBD,M
Boys,67.13,8,Chris Langford,Blooming Grove,64.41,136.08,97.52,158.76,392.36,Single-ply,SBD,M
Boys,67.13,9,Levi Elkins,Dawson,66.68,151.95,79.38,138.35,369.68,Single-ply,SBD,M
Boys,67.13,10,Jayson Oliver,Hubbard,65.95,136.08,90.72,138.35,365.14,Single-ply,SBD,M
Boys,67.13,11,Will Hooten,Waxahachie Life,62.87,133.81,86.18,136.08,356.07,Single-ply,SBD,M
Boys,67.13,12,Jordan King,Malakoff,62.96,111.13,72.57,124.74,308.44,Single-ply,SBD,M
Boys,67.13,13,David Austin,Eustace,64.68,108.86,54.43,136.08,299.37,Single-ply,SBD,M
Boys,67.13,NS,Luke Mitchell,Eustace,,,,,,Single-ply,SBD,M
Boys,67.13,NS,John Davis,Eustace,,,,,,Single-ply,SBD,M
Boys,67.13,DQ,Kyle Kennerk,Cayuga,67.04,151.95,81.65,,,Single-ply,SBD,M
Boys,74.84,1,Eric Dickson,Corsicana,74.84,201.85,102.06,226.8,530.7,Single-ply,SBD,M
Boys,74.84,2,Jakob Whisenhunt,Rio Vista,74.39,170.1,117.93,167.83,455.86,Single-ply,SBD,M
Boys,74.84,3,Daniel Fernandez,Kerens,72.94,181.44,117.93,151.95,451.32,Single-ply,SBD,M
Boys,74.84,4,Mason Ramon,Waxahachie Life,71.85,167.83,81.65,192.78,442.25,Single-ply,SBD,M
Boys,74.84,5,Williams Ashton,Waxahachie Life,69.67,167.83,79.38,176.9,424.11,Single-ply,SBD,M
Boys,74.84,6,Daylon Slade,Italy,68.95,136.08,102.06,167.83,405.97,Single-ply,SBD,M
Boys,74.84,7,Trey Atkeisson,Corsicana Mildred,68.58,142.88,90.72,154.22,387.82,Single-ply,SBD,M
Boys,74.84,8,Hunter Carpenter,Rio Vista,71.3,142.88,83.91,129.27,356.07,Single-ply,SBD,M
Boys,74.84,9,Brian Stroud,Hubbard,67.95,102.06,63.5,124.74,290.3,Single-ply,SBD,M
Boys,74.84,NS,Kolby Pederson,Hubbard,,,,,,Single-ply,SBD,M
Boys,82.1,1,Kevin Kennerk,Cayuga,79.2,183.7,95.25,192.78,471.74,Single-ply,SBD,M
Boys,82.1,2,Austin Prevost,Malakoff,78.74,174.63,106.59,181.44,462.66,Single-ply,SBD,M
Boys,82.1,3,Cason Grasch,Cayuga,81.47,170.1,102.06,174.63,446.79,Single-ply,SBD,M
Boys,82.1,4,John Hernandez,Malakoff,77.66,161.03,108.86,165.56,435.45,Single-ply,SBD,M
Boys,82.1,5,Tyler Crews,Malakoff,79.11,161.03,81.65,174.63,417.3,Single-ply,SBD,M
Boys,82.1,6,Rj Cormier,Hubbard,77.2,161.03,106.59,147.42,415.04,Single-ply,SBD,M
Boys,82.1,7,Carson Rucks,Blooming Grove,79.83,158.76,113.4,142.88,415.04,Single-ply,SBD,M
Boys,82.1,8,Koby Phelps,Kerens,79.38,158.76,99.79,151.95,410.5,Single-ply,SBD,M
Boys,82.1,NS,Alex Dupree,Eustace,,,,,,Single-ply,SBD,M
Boys,82.1,NS,Jordan DeShaume,Dawson,,,,,,Single-ply,SBD,M
Boys,89.81,1,Brian Black,Palmer,89.72,226.8,154.22,210.92,591.94,Single-ply,SBD,M
Boys,89.81,2,Waltis Harry,Corsicana,88.18,215.46,102.06,226.8,544.31,Single-ply,SBD,M
Boys,89.81,3,Shane Carroll,Waxahachie Life,86.36,195.04,124.74,204.12,523.9,Single-ply,SBD,M
Boys,89.81,4,Jason Williams,Dallas Life Oak Cliff,88.54,208.65,102.06,190.51,501.22,Single-ply,SBD,M
Boys,89.81,5,Matthew Christian,Palmer,88.54,181.44,111.13,190.51,483.08,Single-ply,SBD,M
Boys,89.81,6,Jamicah Gregg,Malakoff,83.82,181.44,108.86,172.37,462.66,Single-ply,SBD,M
Boys,89.81,7,Mark Zagala,Palmer,82.92,172.37,108.86,179.17,460.4,Single-ply,SBD,M
Boys,89.81,8,Jaden Kistler,Corsicana Mildred,89.45,131.54,88.45,142.88,362.87,Single-ply,SBD,M
Boys,89.81,NS,Chris Galvan,Corsicana,,,,,,Single-ply,SBD,M
Boys,89.81,NS,Christian Adams,Eustace,,,,,,Single-ply,SBD,M
Boys,89.81,NS,Ethan Hickson,Eustace,,,,,,Single-ply,SBD,M
Boys,99.79,1,Jonas Rickman,Palmer,96.89,240.4,154.22,231.33,625.96,Single-ply,SBD,M
Boys,99.79,2,Caleb Adams,Malakoff,94.62,272.16,136.08,206.38,614.62,Single-ply,SBD,M
Boys,99.79,3,Da'Michael Harvey,Kerens,91.44,238.14,131.54,240.4,610.08,Single-ply,SBD,M
Boys,99.79,4,Micah Wafer,Corsicana,97.89,226.8,136.08,240.4,603.28,Single-ply,SBD,M
Boys,99.79,5,Charlie Flores,Blooming Grove,98.88,247.21,133.81,210.92,591.94,Single-ply,SBD,M
Boys,99.79,6,Melvin Martin,Corsicana,95.98,238.14,124.74,226.8,589.67,Single-ply,SBD,M
Boys,99.79,7,Justin Horn #1,Corsicana Mildred,99.79,222.26,140.61,226.8,589.67,Single-ply,SBD,M
Boys,99.79,8,Bryan Harwell,Waxahachie Life,94.44,224.53,122.47,222.26,569.26,Single-ply,SBD,M
Boys,99.79,9,River Drohn,Eustace,94.98,215.46,136.08,199.58,551.11,Single-ply,SBD,M
Boys,99.79,10,Fransico Gomez,Eustace,95.35,190.51,127.01,197.31,514.83,Single-ply,SBD,M
Boys,99.79,11,Garrett Griffin,Eustace,94.89,201.85,124.74,174.63,501.22,Single-ply,SBD,M
Boys,99.79,12,Wesley Kirchenbauer,Eustace,95.44,188.24,106.59,145.15,439.98,Single-ply,SBD,M
Boys,99.79,13,Blaine Williamson,Eustace,91.08,136.08,79.38,113.4,328.85,Single-ply,SBD,M
Boys,109.77,1,Anfernee Bookout,Corsicana,107.86,260.82,136.08,226.8,623.69,Single-ply,SBD,M
Boys,109.77,2,Shamar Richardson,Dawson,109.04,197.31,138.35,215.46,551.11,Single-ply,SBD,M
Boys,109.77,3,Zane Guerra,Dawson,100.43,197.31,131.54,219.99,548.85,Single-ply,SBD,M
Boys,109.77,5,Tristan LeGard,Cayuga,100.43,163.29,122.47,181.44,467.2,Single-ply,SBD,M
Boys,109.77,6,Garrett Poehls,Palmer,109.13,165.56,120.2,163.29,449.06,Single-ply,SBD,M
Boys,109.77,7,Ben Perkins,Eustace,107.14,158.76,106.59,158.76,424.11,Single-ply,SBD,M
Boys,109.77,8,Zion Barnes,Hubbard,106.59,147.42,104.33,156.49,408.23,Single-ply,SBD,M
Boys,109.77,DQ,Tyler Johnson,Dallas Life Oak Cliff,105.05,172.37,,,,Single-ply,SBD,M
Boys,109.77,DQ,Bill Quinn,Trinidad,104.87,156.49,,,,Single-ply,SBD,M
Boys,124.74,1,Eli Crawford,Kerens,116.39,272.16,140.61,272.16,684.92,Single-ply,SBD,M
Boys,124.74,2,Shelby Wilder,Waxahachie Life,111.4,247.21,136.08,233.6,616.89,Single-ply,SBD,M
Boys,124.74,3,Marcus Staggs,Eustace,121.56,238.14,147.42,219.99,605.55,Single-ply,SBD,M
Boys,124.74,4,Reuel Barrett,Waxahachie Life,118.12,233.6,142.88,208.65,585.13,Single-ply,SBD,M
Boys,124.74,4,Ben Lancone,Palmer,109.86,188.24,127.01,226.8,542.04,Single-ply,SBD,M
Boys,124.74,5,Lincoln Rogers,Malakoff,118.3,249.48,133.81,199.58,582.87,Single-ply,SBD,M
Boys,124.74,6,Chad Fancher,Eustace,122.92,204.12,154.22,188.24,546.58,Single-ply,SBD,M
Boys,124.74,7,Kenny Castro,Corsicana,112.94,204.12,124.74,215.46,544.31,Single-ply,SBD,M
Boys,124.74,8,Kieth Gomer,Eustace,110.4,206.38,140.61,192.78,539.77,Single-ply,SBD,M
Boys,124.74,9,Sam Duran,Waxahachie Life,117.3,215.46,113.4,208.65,537.51,Single-ply,SBD,M
Boys,124.74,10,Caleb Hernandez,Palmer,124.28,188.24,136.08,206.38,530.7,Single-ply,SBD,M
Boys,124.74,11,Noah Wynn,Corsicana,122.11,197.31,108.86,210.92,517.1,Single-ply,SBD,M
Boys,124.74,12,Bradley Miligan,Corsicana,115.58,185.97,111.13,197.31,494.42,Single-ply,SBD,M
Boys,124.74,13,Luis Garcia,Eustace,112.31,192.78,115.67,183.7,492.15,Single-ply,SBD,M
Boys,124.74,14,Ethan Cumins,Rio Vista,121.02,183.7,117.93,190.51,492.15,Single-ply,SBD,M
Boys,124.74,15,Elden McKinney,Dallas Life Oak Cliff,113.85,158.76,102.06,181.44,442.25,Single-ply,SBD,M
Boys,124.74,16,Tanner Drain,Blooming Grove,113.4,151.95,111.13,174.63,437.72,Single-ply,SBD,M
Boys,124.74,17,Tyler Crisp,Rio Vista,117.48,170.1,104.33,158.76,433.18,Single-ply,SBD,M
Boys,124.74,NS,Terry Dixon,Italy,,,,,,Single-ply,SBD,M
Boys,124.74,NS,Ray Reimim,Corsicana Mildred,,,,,,Single-ply,SBD,M
Boys,124.74+,1,Deontae Martin,Corsicana,132.72,256.28,151.95,260.82,669.05,Single-ply,SBD,M
Boys,124.74+,2,Eddie Zuniga,Waxahachie Life,134.99,272.16,163.29,231.33,666.78,Single-ply,SBD,M
Boys,124.74+,3,Chris Kortes,Trinidad,161.93,274.42,120.2,219.99,614.62,Single-ply,SBD,M
Boys,124.74+,4,Colton Deal,Waxahachie Life,144.79,240.4,129.27,233.6,603.28,Single-ply,SBD,M
Boys,124.74+,5,Kaleb Ferguson,Blooming Grove,125.74,192.78,129.27,235.87,557.92,Single-ply,SBD,M
Boys,124.74+,6,Josh Encina,Dawson,136.62,190.51,115.67,163.29,469.47,Single-ply,SBD,M
Boys,,NS,Jt Johnson,Dallas Life Oak Cliff,,,,,,Single-ply,SBD,M
Boys,,NS,Anthony Ables,Dallas Life Oak Cliff,,,,,,Single-ply,SBD,M
Boys,,NS,Justin Winchester,Dawson,,,,,,Single-ply,SBD,M
Boys,,NS,Christopher Acevedo,Dallas Life Oak Cliff,,,,,,Single-ply,SBD,M
Boys,,NS,Juan Arriaga,Dallas Life Oak Cliff,,,,,,Single-ply,SBD,M
Boys,,NS,Jeremiah Henderson,Dallas Life Oak Cliff,,,,,,Single-ply,SBD,M
Boys,,NS,Javion Hornbuckle,Malakoff,,,,,,Single-ply,SBD,M
Boys,,NS,Jhonny Arreola,Palmer,,,,,,Single-ply,SBD,M
Boys,,NS,Kyler Dalrymple,Malakoff,,,,,,Single-ply,SBD,M
Boys,,NS,Brendan McClintock,Malakoff,,,,,,Single-ply,SBD,M
Boys,,NS,Chance Harrah,Rio Vista,,,,,,Single-ply,SBD,M
