Division,WeightClassKg,Place,Name,Team,BodyweightKg,Best3SquatKg,Best3BenchKg,Best3DeadliftKg,TotalKg,Equipment,Event,Sex
Boys,51.71,1,Jose Sanchez,Gilmer,50.8,151.95,86.18,154.22,392.36,Single-ply,SBD,M
Boys,51.71,2,Felix Espinoza,Crandall,50.8,133.81,77.11,145.15,356.07,Single-ply,SBD,M
Boys,51.71,3,Jason Botkin,Corsicana,48.53,102.06,56.7,124.74,283.5,Single-ply,SBD,M
Boys,55.79,1,Jerrian Mapps,Marshall,55.79,136.08,72.57,138.35,347,Single-ply,SBD,M
Boys,55.79,2,Daniel Vasquez,Athens,53.52,122.47,74.84,129.27,326.59,Single-ply,SBD,M
Boys,55.79,3,George Charcas,Canton,54.88,124.74,65.77,129.27,319.78,Single-ply,SBD,M
Boys,55.79,4,Caleb Clemmons,Athens,55.34,117.93,63.5,111.13,292.57,Single-ply,SBD,M
Boys,59.87,1,Jabier Bocanegra,Gilmer,57.61,147.42,70.31,138.35,356.07,Single-ply,SBD,M
Boys,59.87,2,Manuel Vasquez,Athens,57.15,127.01,83.91,142.88,353.8,Single-ply,SBD,M
Boys,59.87,3,Jose Lopez,Grand Saline,59.42,108.86,65.77,127.01,301.64,Single-ply,SBD,M
Boys,59.87,DQ,De'Marcus Williams,Marshall,59.87,147.42,72.57,,,Single-ply,SBD,M
Boys,67.13,1,Deondre Brown,Corsicana,65.32,165.56,95.25,181.44,442.25,Single-ply,SBD,M
Boys,67.13,2,Lukas Enloe,Gilmer,67.13,163.29,88.45,136.08,387.82,Single-ply,SBD,M
Boys,67.13,3,John Davis,Eustace,65.77,129.27,83.91,149.69,362.87,Single-ply,SBD,M
Boys,67.13,4,Hunter Williams,Canton,66.68,147.42,65.77,142.88,356.07,Single-ply,SBD,M
Boys,67.13,5,Peyton Snoq,Winona,60.78,138.35,72.57,142.88,353.8,Single-ply,SBD,M
Boys,67.13,6,Ethan Watson,Crandall,64.86,108.86,74.84,117.93,301.64,Single-ply,SBD,M
Boys,67.13,7,David Austin,Eustace,63.05,106.59,52.16,133.81,292.57,Single-ply,SBD,M
Boys,67.13,8,Jacob Grimes,Crandall,62.14,99.79,72.57,99.79,272.16,Single-ply,SBD,M
Boys,67.13,DQ,Larry Rochester,Eustace,61.23,158.76,,151.95,,Single-ply,SBD,M
Boys,74.84,1,Eric Dickson,Corsicana,73.94,192.78,92.99,204.12,489.88,Single-ply,SBD,M
Boys,74.84,2,Sean Collins,Gilmer,68.49,206.38,97.52,183.7,487.61,Single-ply,SBD,M
Boys,74.84,3,Carson Barber,Gilmer,73.48,181.44,90.72,190.51,462.66,Single-ply,SBD,M
Boys,74.84,4,Logan Moffitt,Crandall,74.39,161.03,104.33,176.9,442.25,Single-ply,SBD,M
Boys,74.84,5,Cameron Cox,Gilmer,72.57,174.63,81.65,149.69,405.97,Single-ply,SBD,M
Boys,74.84,6,Jake Walker,Gilmer,74.84,129.27,81.65,136.08,347,Single-ply,SBD,M
Boys,74.84,7,Josh Gray,Athens,68.95,136.08,72.57,131.54,340.19,Single-ply,SBD,M
Boys,74.84,8,Kolby Kirk,Van,74.39,136.08,70.31,117.93,324.32,Single-ply,SBD,M
Boys,74.84,DQ,Clifford Brown,Winona,74.39,,,158.76,,Single-ply,SBD,M
Boys,74.84,DQ,Gavin Steelman,Marshall,74.84,217.72,122.47,,,Single-ply,SBD,M
Boys,82.1,1,Alex Dupree,Eustace,82.1,181.44,102.06,190.51,474,Single-ply,SBD,M
Boys,82.1,2,Jeremy Lambert,Canton,81.65,165.56,97.52,188.24,451.32,Single-ply,SBD,M
Boys,82.1,3,Cole Catlin,Van,78.47,170.1,97.52,172.37,439.98,Single-ply,SBD,M
Boys,82.1,4,Mauricio Herrera,Van,78.47,149.69,90.72,156.49,396.89,Single-ply,SBD,M
Boys,82.1,DQ,Michael Grogan,Winona,79.38,,,124.74,,Single-ply,SBD,M
Boys,82.1,DQ,Jermichael Akins,Winona,76.2,,77.11,131.54,,Single-ply,SBD,M
Boys,82.1,DQ,Adrian Cortez,Van,81.19,149.69,,156.49,,Single-ply,SBD,M
Boys,89.81,1,Nathan Sims,Athens,88.45,204.12,90.72,201.85,496.68,Single-ply,SBD,M
Boys,89.81,2,Jeremiah Bradway,Canton,88.9,181.44,102.06,204.12,487.61,Single-ply,SBD,M
Boys,89.81,3,Brandon Holland,Grand Saline,83.46,192.78,102.06,188.24,483.08,Single-ply,SBD,M
Boys,89.81,4,Tyler Bryant,Crandall,86.18,190.51,108.86,183.7,483.08,Single-ply,SBD,M
Boys,89.81,5,Waltis Harry,Corsicana,89.36,190.51,92.99,199.58,483.08,Single-ply,SBD,M
Boys,89.81,6,Klayton House,Athens,88.9,190.51,106.59,172.37,469.47,Single-ply,SBD,M
Boys,89.81,7,Ethan Hickson,Eustace,88,174.63,124.74,158.76,458.13,Single-ply,SBD,M
Boys,89.81,8,Darrell Bush,Gilmer,88.45,181.44,104.33,172.37,458.13,Single-ply,SBD,M
Boys,89.81,9,Reese Gardner,Van,88.45,181.44,95.25,176.9,453.59,Single-ply,SBD,M
Boys,89.81,10,Brycen Jimmerson,Gilmer,88.9,149.69,79.38,158.76,387.82,Single-ply,SBD,M
Boys,89.81,DQ,Ryan Rainey,Van,84.37,136.08,,131.54,,Single-ply,SBD,M
Boys,99.79,1,Micah Wafer,Corsicana,97.98,226.8,133.81,226.8,587.4,Single-ply,SBD,M
Boys,99.79,2,Melvin Martin,Corsicana,96.16,222.26,124.74,215.46,562.45,Single-ply,SBD,M
Boys,99.79,3,Tony Miranda,Athens,94.35,224.53,122.47,199.58,546.58,Single-ply,SBD,M
Boys,99.79,4,Derek Mayhugh,Grand Saline,91.17,206.38,120.2,197.31,523.9,Single-ply,SBD,M
Boys,99.79,5,River Drone,Eustace,97.52,183.7,138.35,192.78,514.83,Single-ply,SBD,M
Boys,99.79,6,Reed Deathridge,Grand Saline,99.34,197.31,106.59,195.04,498.95,Single-ply,SBD,M
Boys,99.79,7,Garrett Griffen,Eustace,96.62,188.24,117.93,181.44,487.61,Single-ply,SBD,M
Boys,99.79,8,Drew Ezell,Gilmer,99.34,199.58,106.59,181.44,487.61,Single-ply,SBD,M
Boys,99.79,9,Francisco Gomez,Eustace,97.07,172.37,120.2,192.78,485.34,Single-ply,SBD,M
Boys,99.79,10,Beau Thompson,Van,99.34,181.44,108.86,170.1,460.4,Single-ply,SBD,M
Boys,99.79,11,Bladen Collom,Gilmer,91.17,172.37,90.72,190.51,453.59,Single-ply,SBD,M
Boys,99.79,12,Melito Sanchez,Van,92.99,197.31,88.45,163.29,449.06,Single-ply,SBD,M
Boys,99.79,13,Dawson Jones,Gilmer,92.53,167.83,97.52,163.29,428.64,Single-ply,SBD,M
Boys,99.79,14,Wesley Kirchenbauer,Eustace,97.98,181.44,102.06,142.88,426.38,Single-ply,SBD,M
Boys,99.79,15,Blaine Williamson,Eustace,90.72,129.27,74.84,138.35,342.46,Single-ply,SBD,M
Boys,99.79,16,Gunner Boswell,Canton,94.8,115.67,61.23,133.81,310.71,Single-ply,SBD,M
Boys,99.79,DQ,Brevin Randle,Marshall,96.62,,,,,Single-ply,SBD,M
Boys,109.77,1,Anfernee Bookout,Corsicana,107.05,238.14,129.27,204.12,571.53,Single-ply,SBD,M
Boys,109.77,2,Jacob Moses,Gilmer,106.59,181.44,106.59,190.51,478.54,Single-ply,SBD,M
Boys,109.77,3,Rowdy Godwin,Athens,101.15,158.76,106.59,199.58,464.93,Single-ply,SBD,M
Boys,109.77,4,Anthony Hill,Athens,105.23,170.1,83.91,206.38,460.4,Single-ply,SBD,M
Boys,109.77,5,Jordan Gilberg,Gilmer,106.59,145.15,99.79,161.03,405.97,Single-ply,SBD,M
Boys,109.77,6,Matthew Acton,Canton,102.51,165.56,86.18,149.69,401.43,Single-ply,SBD,M
Boys,109.77,7,Ben Perkins,Eustace,108.41,140.61,88.45,147.42,376.48,Single-ply,SBD,M
Boys,124.74,1,Garrett Hayes,Athens,118.84,242.67,136.08,258.55,637.3,Single-ply,SBD,M
Boys,124.74,2,Caleb York,Van,114.76,254.01,161.03,217.72,632.76,Single-ply,SBD,M
Boys,124.74,3,Coty Neugin,Crandall,116.57,233.6,133.81,206.38,573.79,Single-ply,SBD,M
Boys,124.74,4,Kenny Castro,Corsicana,112.49,188.24,124.74,197.31,510.29,Single-ply,SBD,M
Boys,124.74,5,Chad Fancher,Eustace,122.92,192.78,133.81,183.7,510.29,Single-ply,SBD,M
Boys,124.74,6,Austin Terry,Gilmer,122.47,204.12,97.52,190.51,492.15,Single-ply,SBD,M
Boys,124.74,7,Luis Garcia,Eustace,112.04,192.78,108.86,179.17,480.81,Single-ply,SBD,M
Boys,124.74,8,Bradley Miligan,Corsicana,113.85,156.49,99.79,188.24,444.52,Single-ply,SBD,M
Boys,124.74,9,Kejuan Fite,Van,116.57,172.37,90.72,181.44,444.52,Single-ply,SBD,M
Boys,124.74,10,Carson McCoy,Van,119.29,158.76,111.13,142.88,412.77,Single-ply,SBD,M
Boys,124.74,11,Josh Lambert,Canton,112.04,142.88,72.57,156.49,371.95,Single-ply,SBD,M
Boys,124.74,DQ,Marcus Staggs,Eustace,122.92,210.92,140.61,,,Single-ply,SBD,M
Boys,124.74,DQ,Cody Saffel,Canton,120.66,170.1,,,,Single-ply,SBD,M
Boys,124.74+,1,Devon King,Gilmer,141.52,263.08,156.49,260.82,680.39,Single-ply,SBD,M
Boys,124.74+,2,Dakota Smith,Canton,146.51,272.16,170.1,204.12,646.37,Single-ply,SBD,M
Boys,124.74+,3,Christian Hood,Marshall,127.46,258.55,133.81,226.8,619.15,Single-ply,SBD,M
Boys,124.74+,4,Blake Olivares,Gilmer,129.27,249.48,131.54,210.92,591.94,Single-ply,SBD,M
Boys,124.74+,5,Drew Nunn,Canton,130.18,226.8,106.59,226.8,560.19,Single-ply,SBD,M
Boys,124.74+,6,Demaree Gay,Crandall,149.69,224.53,115.67,188.24,528.44,Single-ply,SBD,M
Boys,,NS,Deontae Martin,Corsicana,,,,,,Single-ply,SBD,M
Boys,,NS,Tristan Williams,Corsicana,,,,,,Single-ply,SBD,M
Boys,,NS,Bradley Miles,Athens,,,,,,Single-ply,SBD,M
Boys,,NS,Jett Jones,Gilmer,,,,,,Single-ply,SBD,M
Boys,,NS,Jon Paye,Gilmer,,,,,,Single-ply,SBD,M
Boys,,NS,Gage Dillon,Crandall,,,,,,Single-ply,SBD,M
Boys,,NS,DeKendrick Bender,Marshall,,,,,,Single-ply,SBD,M
Boys,,NS,Jacyrin Coats,Marshall,,,,,,Single-ply,SBD,M
Boys,,NS,Quin Johnson,Winona,,,,,,Single-ply,SBD,M
