Place,Name,Sex,Event,Division,WeightClassKg,Equipment,BirthYear,Team,State,BodyweightKg,Squat1Kg,Squat2Kg,Squat3Kg,Best3SquatKg,Bench1Kg,Bench2Kg,Bench3Kg,Best3BenchKg,Deadlift1Kg,Deadlift2Kg,Deadlift3Kg,Best3DeadliftKg,TotalKg
1,Jodel Patino,F,SBD,F-C,57,Single-ply,1997,Midland University,TX,56.75,167.5,175,-182.5,175,-115,115,-125,115,165,-175,-175,165,455
2,Mikaela Leibfried,F,SBD,F-C,57,Single-ply,1999,Midland University,WI,55.8,145,155,160,160,75,82.5,87.5,87.5,132.5,140,145,145,392.5
3,Jazmin Estrada,F,SBD,F-C,57,Single-ply,1999,Midland University,TX,57,115,122.5,130,130,67.5,-72.5,72.5,72.5,115,130,137.5,137.5,340
1,Nallely Gutierrez,F,SBD,F-C,63,Single-ply,2000,Midland University,TX,63,145,147.5,-150,147.5,102.5,105,112.5,112.5,150,160,170,170,430
2,Breanna Santos,F,SBD,F-C,63,Single-ply,1998,Midland University,TX,61.3,135,140,147.5,147.5,75,80,-82.5,80,130,137.5,142.5,142.5,370
1,Kailey Jones,F,SBD,F-C,84,Single-ply,2000,Midland University,TX,83.25,-215,-222.5,222.5,222.5,130,135,,135,205,217.5,-222.5,217.5,575
2,Faithtorian Goins,F,SBD,F-C,84,Single-ply,1999,Midland University,NE,82.55,195,200,-205,200,-100,-100,100,100,155,165,175,175,475
3,Yesenia Martinez,F,SBD,F-C,84,Single-ply,1999,Midland University,TX,83.7,160,167.5,172.5,172.5,105,110,-115,110,150,-160,-165,150,432.5
1,Brittany Bond,F,SBD,F-C,84+,Single-ply,1996,Midland University,AK,98.55,185,-195,,185,110,115,125,125,155,162.5,170,170,480
2,Samantha Heimer,F,SBD,F-C,84+,Single-ply,2000,Midland University,TX,124.15,-175,180,187.5,187.5,-145,145,-182.5,145,140,145,147.5,147.5,480
3,Desiree Dorsey,F,SBD,F-C,84+,Single-ply,2000,Midland University,NE,93.25,145,155,160,160,-105,105,-107.5,105,130,137.5,145,145,410
1,Callie Spohn,F,SBD,FR-C,52,Raw,2000,,PA,48.4,-92.5,95,107.5,107.5,55,57.5,-60,57.5,127.5,140,145,145,310
1,Katelyn Dundas,F,SBD,FR-C,57,Raw,1999,Midland University,NC,56.8,100,105,107.5,107.5,57.5,62.5,65,65,130,-137.5,137.5,137.5,310
1,Jenna Palmiero,F,SBD,FR-C,63,Raw,2000,Ottawa University Powerlifting,MS,59.79,110,117.5,-120,117.5,52.5,57.5,-60,57.5,135,-140,-140,135,310
2,Abigail Linkhart,F,SBD,FR-C,63,Raw,1997,,NE,61.45,92.5,97.5,-100,97.5,45,-47.5,47.5,47.5,95,102.5,107.5,107.5,252.5
1,Samantha Jayes,F,SBD,FR-C,72,Raw,1999,Midland University,OH,71.9,135,142.5,145,145,-75,75,80,80,147.5,160,172.5,172.5,397.5
2,Alexandra Chavez,F,SBD,FR-C,72,Raw,1999,Midland University,TX,71.15,-145,145,155,155,72.5,-80,-80,72.5,150,160,-172.5,160,387.5
3,Brook McCluskey,F,SBD,FR-C,72,Raw,1996,,NE,70.65,127.5,130,-132.5,130,77.5,80,-82.5,80,157.5,162.5,167.5,167.5,377.5
4,Gretchen Bricker,F,SBD,FR-C,72,Raw,1998,,NE,68.8,112.5,117.5,-127.5,117.5,57.5,-60,60,60,115,120,125,125,302.5
5,Katie Martin,F,SBD,FR-C,72,Raw,1999,Ottawa University Powerlifting,KS,71.4,102.5,115,-132.5,115,47.5,55,-60,55,102.5,112.5,-120,112.5,282.5
6,Jeni Laha,F,SBD,FR-C,72,Raw,2000,Ottawa University Powerlifting,KS,70.9,80,90,102.5,102.5,45,52.5,55,55,102.5,110,120,120,277.5
1,Andrea Dvorak,F,SBD,FR-C,84,Raw,1999,Midland University,NE,78.2,110,120,127.5,127.5,55,60,,60,135,-145,150,150,337.5
2,Abbie Perault,F,SBD,FR-C,84,Raw,1999,,NE,81.5,122.5,132.5,140,140,52.5,57.5,-60,57.5,120,130,137.5,137.5,335
3,Alexandria Dodds,F,SBD,FR-C,84,Raw,2000,Midland University,FL,79.55,95,105,115,115,70,75,77.5,77.5,107.5,117.5,-125,117.5,310
1,Nia Brown,F,SBD,FR-C,84+,Raw,1998,Midland University,MO,97.35,147.5,155,-165,155,77.5,82.5,87.5,87.5,145,-157.5,157.5,157.5,400
2,Bryanna Houser,F,SBD,FR-C,84+,Raw,1999,Ottawa University Powerlifting,TN,109.65,125,142.5,-167.5,142.5,65,70,77.5,77.5,135,150,167.5,167.5,387.5
3,Jaqui Carey,F,SBD,FR-C,84+,Raw,2000,Ottawa University Powerlifting,KS,119.5,122.5,137.5,162.5,162.5,52.5,60,-67.5,60,110,125,137.5,137.5,360
1,Roberto Saenz,M,SBD,M-C,59,Single-ply,2000,Midland University,TX,58.95,205,-220,220,220,130,137.5,142.5,142.5,205,220,-227.5,220,582.5
1,Ja'Quan Foster,M,SBD,M-C,66,Single-ply,1999,Midland University,MS,65.95,-215,215,-230,215,125,135,-142.5,135,225,245,-265,245,595
1,Jonathan Chavira,M,SBD,M-C,74,Single-ply,2000,Midland University,TX,73.85,235,245,250,250,-155,155,-157.5,155,225,240,250,250,655
2,Steven Ramirez,M,SBD,M-C,74,Single-ply,2000,Midland University,TX,72.35,210,225,240,240,105,120,-137.5,120,225,240,245,245,605
1,Gilibaldo Garcia,M,SBD,M-C,83,Single-ply,2000,Midland University,TX,82.2,225,235,245,245,125,130,135,135,220,250,260,260,640
1,Garrett Parkhill,M,SBD,M-C,93,Single-ply,1998,Midland University,TX,92.3,295,307.5,,307.5,-205,205,-220,205,260,275,-282.5,275,787.5
1,Dalton Staller,M,SBD,M-C,105,Single-ply,1998,Midland University,WI,99.75,255,-265,-265,255,150,152.5,155,155,200,215,225,225,635
1,Marcos Garza,M,SBD,M-C,120,Single-ply,1999,Midland University,TX,110.5,270,282.5,292.5,292.5,185,192.5,-200,192.5,225,262.5,267.5,267.5,752.5
1,Eddie Taylor,M,SBD,MR-C,59,Raw,1997,Midland University,NE,57.15,100,,,100,82.5,92.5,,92.5,155,-182.5,,155,347.5
1,Kole Metts,M,SBD,MR-C,66,Raw,1999,Midland University,GA,64.05,185,200,205,205,120,,,120,205,227.5,235,235,560
2,Wyatt Edler,M,SBD,MR-C,66,Raw,2000,Weight Club at Iowa State University,IA,65.3,150,155,-165,155,102.5,107.5,-115,107.5,190,202.5,-207.5,202.5,465
1,Benjamin Cooney,M,SBD,MR-C,74,Raw,1998,Midland University,NE,71.7,200,212.5,-227.5,212.5,115,122.5,127.5,127.5,210,227.5,240,240,580
2,Kevin Kieu,M,SBD,MR-C,74,Raw,1998,Weight Club at Iowa State University,IA,72.1,135,140,147.5,147.5,95,-100,-100,95,160,170,177.5,177.5,420
1,Kyle Dawson,M,SBD,MR-C,83,Raw,1999,,NE,81.55,230,237.5,245,245,115,120,-125,120,242.5,252.5,-262.5,252.5,617.5
2,Isaak Wilson,M,SBD,MR-C,83,Raw,1998,,NE,82.35,207.5,215,222.5,222.5,115,130,-135,130,240,250,-255,250,602.5
3,Gavin Znamenacek,M,SBD,MR-C,83,Raw,1998,,NE,82.15,-170,172.5,185,185,-125,127.5,137.5,137.5,192.5,210,220,220,542.5
4,Jacob Jundt,M,SBD,MR-C,83,Raw,1996,,NE,81.55,155,165,175,175,107.5,117.5,127.5,127.5,195,205,215,215,517.5
5,Xzaviare Hampton,M,SBD,MR-C,83,Raw,1999,Ottawa University Powerlifting,KS,79.7,137.5,160,170,170,110,-117.5,117.5,117.5,172.5,182.5,200,200,487.5
6,Brandon Reyes,M,SBD,MR-C,83,Raw,1999,,NE,80.15,142.5,155,170,170,75,77.5,85,85,192.5,205,215,215,470
7,Adrian Blanton,M,SBD,MR-C,83,Raw,1999,Ottawa University Powerlifting,TN,77.6,137.5,147.5,152.5,152.5,87.5,97.5,107.5,107.5,157.5,167.5,182.5,182.5,442.5
1,Zach Helton,M,SBD,MR-C,93,Raw,2000,Midland University,TX,92.9,195,207.5,215,215,107.5,-115,122.5,122.5,235,245,250,250,587.5
2,Desmond Cooney,M,SBD,MR-C,93,Raw,1995,,IL,92.25,177.5,185,192.5,192.5,112.5,-120,-120,112.5,215,227.5,-240,227.5,532.5
3,Zach Rohde,M,SBD,MR-C,93,Raw,1995,,NE,92.8,190,-195,-195,190,112.5,120,127.5,127.5,175,180,,180,497.5
4,Michael Cataluna,M,SBD,MR-C,93,Raw,1996,,NE,92.7,155,162.5,170,170,120,125,-130,125,180,190,195,195,490
DQ,Javier Ortiz,M,SBD,MR-C,93,Raw,2000,Weight Club at Iowa State University,IA,91.85,175,185,-192.5,185,117.5,122.5,125,125,-1,,,,
1,Dawson Windham,M,SBD,MR-C,105,Raw,1998,Midland University,SC,100.35,225,242.5,255,255,175,185,,185,250,,,250,690
2,Baxter Self,M,SBD,MR-C,105,Raw,2000,Ottawa University Powerlifting,KS,103.9,200,212.5,-227.5,212.5,147.5,155,160,160,210,225,235,235,607.5
1,Garrett Beebe,M,SBD,MR-C,120,Raw,1996,,IA,115.75,225,240,255,255,175,-185,187.5,187.5,265,280,300,300,742.5
2,Kenneth Smith,M,SBD,MR-C,120,Raw,2000,Midland University,MN,118.05,250,265,-275,265,137.5,-145,145,145,225,240,-250,240,650
3,Nick Petersen,M,SBD,MR-C,120,Raw,1995,,NE,119.3,225,235,245,245,-125,132.5,-140,132.5,250,262.5,-272.5,262.5,640
4,Patrick Moss,M,SBD,MR-C,120,Raw,1999,Ottawa University Powerlifting,KS,119.35,180,192.5,205,205,135,142.5,-150,142.5,185,-190,190,190,537.5
1,Cory Austin,M,SBD,MR-C,120+,Raw,1994,,NE,147.8,260,270,280,280,170,177.5,185,185,285,310,322.5,322.5,787.5
2,Tucker Richey,M,SBD,MR-C,120+,Raw,2000,Ottawa University Powerlifting,KS,134.75,247.5,262.5,272.5,272.5,160,167.5,-177.5,167.5,235,250,252.5,252.5,692.5
