Division,WeightClassKg,Place,Name,Team,BodyweightKg,Best3SquatKg,Best3BenchKg,Best3DeadliftKg,TotalKg,Equipment,Event,Sex
Girls,44.23,1,Samantha Sanchez,Natalia,43.64,131.54,63.5,120.2,315.25,Single-ply,SBD,F
Girls,44.23,2,Valery Cano,Edinburg Idea College Prep,42.96,120.2,63.5,124.74,308.44,Single-ply,SBD,F
Girls,44.23,3,Arely Ortega,Edinburg Quest College Prep,43.27,122.47,61.23,115.67,299.37,Single-ply,SBD,F
Girls,44.23,4,Johaly Perez,Little River Academy,43.23,97.52,58.97,111.13,267.62,Single-ply,SBD,F
Girls,44.23,5,Jakelin Cisneros,Hemphill,43.77,104.33,49.9,113.4,267.62,Single-ply,SBD,F
Girls,44.23,6,Katelyn Espinosa,Early,42.86,99.79,61.23,104.33,265.35,Single-ply,SBD,F
Girls,44.23,7,Linsey Tackett,Orangefield,43.5,104.33,49.9,108.86,263.08,Single-ply,SBD,F
Girls,44.23,8,Jessie Henry,Bowie,42.73,95.25,54.43,102.06,251.74,Single-ply,SBD,F
Girls,44.23,9,Amber Gallegos,San Diego,41.5,86.18,49.9,104.33,240.4,Single-ply,SBD,F
Girls,44.23,10,Madison Villa,Sadler S & S Cons,43.05,79.38,49.9,83.91,213.19,Single-ply,SBD,F
Girls,44.23,11,Aubrey Lopez,Crane,43.82,83.91,38.56,83.91,206.38,Single-ply,SBD,F
Girls,44.23,12,Courtney Wooddell,Colorado City Colorado,43.41,72.57,38.56,90.72,201.85,Single-ply,SBD,F
Girls,47.85,1,Natalie Walker,Blue Ridge,47.45,151.95,83.91,138.35,374.21,Single-ply,SBD,F
Girls,47.85,2,Samantha Garcia,Whitney,47.26,131.54,68.04,147.42,347,Single-ply,SBD,F
Girls,47.85,3,Annika Nittmo,Winnsboro,47.85,133.81,65.77,142.88,342.46,Single-ply,SBD,F
Girls,47.85,4,Jacqueline Pena,Edinburg Idea College Prep,47.45,140.61,68.04,131.54,340.19,Single-ply,SBD,F
Girls,47.85,5,Reina de la Paz,Santa Gertrudis Academy,47.49,127.01,65.77,140.61,333.39,Single-ply,SBD,F
Girls,47.85,6,Megan Bailey,Karnes City,45.77,127.01,65.77,122.47,315.25,Single-ply,SBD,F
Girls,47.85,7,Julia Owens,Natalia,47.17,127.01,61.23,124.74,312.98,Single-ply,SBD,F
Girls,47.85,8,Lacey Tackett,Orangefield,45.95,122.47,58.97,113.4,294.84,Single-ply,SBD,F
Girls,47.85,9,Kaylee Garza,Cotulla,46.49,111.13,47.63,136.08,294.84,Single-ply,SBD,F
Girls,47.85,10,Brandy Deleon,Mathis,47.49,111.13,63.5,120.2,294.84,Single-ply,SBD,F
Girls,47.85,11,Clarissa Jimenez,Big Lake Reagan County,46.27,106.59,54.43,127.01,288.03,Single-ply,SBD,F
Girls,47.85,12,Jozalyn Sewell,Blooming Grove,46.99,127.01,52.16,108.86,288.03,Single-ply,SBD,F
Girls,47.85,13,Shelby Wilson,Palacios,46.54,115.67,47.63,117.93,281.23,Single-ply,SBD,F
Girls,47.85,14,Adelina Caceres,Trinity,46.18,113.4,56.7,108.86,278.96,Single-ply,SBD,F
Girls,47.85,15,Andrea Cervantes,Big Lake Reagan County,47.13,115.67,52.16,111.13,278.96,Single-ply,SBD,F
Girls,47.85,16,Lesette Munoz,Mathis,47.67,111.13,61.23,106.59,278.96,Single-ply,SBD,F
Girls,47.85,17,Zhynese Finley,Bangs,46.72,97.52,54.43,124.74,276.69,Single-ply,SBD,F
Girls,47.85,18,Meg Martinez,Natalia,46.95,106.59,65.77,104.33,276.69,Single-ply,SBD,F
Girls,47.85,19,Sierra Skinner,Bowie,46.86,113.4,47.63,104.33,265.35,Single-ply,SBD,F
Girls,51.94,1,Liszette Rosado,San Antonio Jubilee,50.67,163.29,106.59,154.22,424.11,Single-ply,SBD,F
Girls,51.94,2,Heav'nly Noriega,Tulia,51.48,149.69,74.84,129.27,353.8,Single-ply,SBD,F
Girls,51.94,3,Micah Monday,Winnsboro,51.94,140.61,72.57,136.08,349.27,Single-ply,SBD,F
Girls,51.94,4,Kaylee Bolyard,Hemphill,50.53,127.01,70.31,142.88,340.19,Single-ply,SBD,F
Girls,51.94,5,Rilee Stewart,Redwater,51.39,142.88,74.84,117.93,335.66,Single-ply,SBD,F
Girls,51.94,6,Noelia Delgado,Whitney,50.98,131.54,74.84,127.01,333.39,Single-ply,SBD,F
Girls,51.94,7,Dashae Atkinson,Hebbronville,51.21,122.47,70.31,127.01,319.78,Single-ply,SBD,F
Girls,51.94,8,Evette Martinez,De Kalb,50.39,124.74,49.9,138.35,312.98,Single-ply,SBD,F
Girls,51.94,9,Kimberly Phan,Palacios,50.58,120.2,58.97,131.54,310.71,Single-ply,SBD,F
Girls,51.94,10,Reece Griffin,West,50.67,124.74,52.16,133.81,310.71,Single-ply,SBD,F
Girls,51.94,11,Sydney Kasting,McGregor,51.17,124.74,58.97,127.01,310.71,Single-ply,SBD,F
Girls,51.94,12,Nia Williams,Colorado City Colorado,50.62,113.4,74.84,111.13,299.37,Single-ply,SBD,F
Girls,51.94,13,Emma Skinner,Bowie,50.53,124.74,49.9,117.93,292.57,Single-ply,SBD,F
Girls,51.94,14,Bryana Cusick,Buna,50.71,124.74,49.9,117.93,292.57,Single-ply,SBD,F
Girls,51.94,15,Korina Wallace,Leonard,51.66,106.59,63.5,113.4,283.5,Single-ply,SBD,F
Girls,51.94,16,Kylee Schroeder-Howard,West,49.35,115.67,56.7,108.86,281.23,Single-ply,SBD,F
Girls,51.94,DQ,Katelynn Clark,Lone Oak,50.62,,,,,Single-ply,SBD,F
Girls,56.02,1,Caitlin Berry,Bishop,52.89,163.29,99.79,151.95,415.04,Single-ply,SBD,F
Girls,56.02,2,Aaliyah Portales,Big Lake Reagan County,52.16,165.56,77.11,151.95,394.63,Single-ply,SBD,F
Girls,56.02,3,Alicia Dennis,Kemp,54.93,165.56,79.38,145.15,390.09,Single-ply,SBD,F
Girls,56.02,4,Lexi Mounger,Lone Oak,53.39,161.03,83.91,142.88,387.82,Single-ply,SBD,F
Girls,56.02,5,Phaidra Malcher,Poth,54.25,145.15,97.52,142.88,385.55,Single-ply,SBD,F
Girls,56.02,6,Haily Trevino,Winnie East Chambers,54.57,147.42,61.23,131.54,340.19,Single-ply,SBD,F
Girls,56.02,7,Selene Vargas,Cameron Yoe,54.7,131.54,65.77,138.35,335.66,Single-ply,SBD,F
Girls,56.02,8,Viviana Hernandez,Goliad,55.25,129.27,70.31,133.81,333.39,Single-ply,SBD,F
Girls,56.02,9,Triniti Vidrine,West,54.3,133.81,63.5,131.54,328.85,Single-ply,SBD,F
Girls,56.02,10,Peyton Garner,Buna,53.39,131.54,63.5,131.54,326.59,Single-ply,SBD,F
Girls,56.02,11,Traci Vickers,Sonora,55.57,129.27,77.11,117.93,324.32,Single-ply,SBD,F
Girls,56.02,12,Eimmi Fraire,Sadler S & S Cons,55.2,131.54,58.97,124.74,315.25,Single-ply,SBD,F
Girls,56.02,13,Madison Chalenburg,Wichita Falls City View,55.29,113.4,58.97,136.08,308.44,Single-ply,SBD,F
Girls,56.02,DQ,Madison Salinas,Hebbronville,55.79,140.61,63.5,,,Single-ply,SBD,F
Girls,60.1,1,Madison Taylor,Orangefield,59.33,170.1,97.52,151.95,419.57,Single-ply,SBD,F
Girls,60.1,2,Jayci Robicheaux,Buna,60.1,165.56,97.52,142.88,405.97,Single-ply,SBD,F
Girls,60.1,3,Makayla Salaiz,San Diego,59.78,154.22,86.18,149.69,390.09,Single-ply,SBD,F
Girls,60.1,4,Katelynn Fuller,Lone Oak,58.97,172.37,79.38,136.08,387.82,Single-ply,SBD,F
Girls,60.1,5,Isis Sandiford,Edinburg Idea College Prep,59.15,163.29,81.65,142.88,387.82,Single-ply,SBD,F
Girls,60.1,6,Cierra Reyes,Brady,59.1,163.29,65.77,151.95,381.02,Single-ply,SBD,F
Girls,60.1,7,Morgan Kent,Dublin,59.06,165.56,74.84,136.08,376.48,Single-ply,SBD,F
Girls,60.1,8,Raina Rivera,Bishop,58.83,147.42,72.57,147.42,367.41,Single-ply,SBD,F
Girls,60.1,9,Brittany Kelley,Karnes City,59.19,154.22,61.23,138.35,353.8,Single-ply,SBD,F
Girls,60.1,10,Jerrilyn Gonzales,Karnes City,58.83,149.69,56.7,142.88,349.27,Single-ply,SBD,F
Girls,60.1,11,Kaitlyn McCarter,Paris Chisum,58.11,127.01,70.31,140.61,337.93,Single-ply,SBD,F
Girls,60.1,12,Cailey Glover,Coahoma,58.79,145.15,61.23,127.01,333.39,Single-ply,SBD,F
Girls,60.1,13,Kelbi Dykes,Leonard,59.28,117.93,65.77,140.61,324.32,Single-ply,SBD,F
Girls,60.1,14,Baylee Young,Breckenridge,58.69,131.54,68.04,122.47,322.05,Single-ply,SBD,F
Girls,60.1,15,Minnel Leal,Dimmitt,59.74,117.93,65.77,138.35,322.05,Single-ply,SBD,F
Girls,67.36,1,Tristyn Boone,Lone Oak,66.86,172.37,90.72,161.03,424.11,Single-ply,SBD,F
Girls,67.36,2,Ellie Carrillo,San Diego,66.45,158.76,95.25,154.22,408.23,Single-ply,SBD,F
Girls,67.36,3,Jessie Pessin,Lago Vista,66.18,161.03,74.84,154.22,390.09,Single-ply,SBD,F
Girls,67.36,4,Keisha Walker,Buna,66.09,147.42,65.77,174.63,387.82,Single-ply,SBD,F
Girls,67.36,5,Meranda Segura,Karnes City,66.04,167.83,77.11,138.35,383.29,Single-ply,SBD,F
Girls,67.36,6,Estefania Hernandez,Mathis,66.41,165.56,83.91,133.81,383.29,Single-ply,SBD,F
Girls,67.36,7,Kenzie Poindexter,Early,66.36,147.42,72.57,142.88,362.87,Single-ply,SBD,F
Girls,67.36,8,J'Lailah Dotson,Hitchcock,67.27,158.76,65.77,136.08,360.61,Single-ply,SBD,F
Girls,67.36,9,Carina Sianez,Muleshoe,66.95,138.35,70.31,149.69,358.34,Single-ply,SBD,F
Girls,67.36,10,Alerah Turpin,Millsap,63.78,149.69,74.84,131.54,356.07,Single-ply,SBD,F
Girls,67.36,11,Tia Thompson,Blue Ridge,66.41,145.15,79.38,129.27,353.8,Single-ply,SBD,F
Girls,67.36,12,Bella Glass,Big Lake Reagan County,66.72,145.15,74.84,133.81,353.8,Single-ply,SBD,F
Girls,67.36,DQ,Kenley Windle,Mount Pleasant Chapel Hill,65.59,165.56,97.52,,,Single-ply,SBD,F
Girls,75.07,1,Allie Blasingame,Early,71.94,199.58,97.52,188.24,485.34,Single-ply,SBD,F
Girls,75.07,2,Shamaurie Williams,El Maton Tidehaven,74.57,185.97,97.52,188.24,471.74,Single-ply,SBD,F
Girls,75.07,3,Mercedes Rodriguez,San Diego,72.17,181.44,86.18,174.63,442.25,Single-ply,SBD,F
Girls,75.07,4,Maddie Dills,Bonham,74.8,174.63,99.79,163.29,437.72,Single-ply,SBD,F
Girls,75.07,5,Dezarae Perez,Natalia,71.53,163.29,88.45,163.29,415.04,Single-ply,SBD,F
Girls,75.07,6,Bethany Alexander,Kemp,72.26,181.44,81.65,151.95,415.04,Single-ply,SBD,F
Girls,75.07,7,Beatrice Garcia,Bishop,74.75,154.22,83.91,161.03,399.16,Single-ply,SBD,F
Girls,75.07,8,Raquel Balderas,Blooming Grove,69.58,154.22,95.25,142.88,392.36,Single-ply,SBD,F
Girls,75.07,9,Faith Rios,Mathis,69.72,167.83,74.84,142.88,385.55,Single-ply,SBD,F
Girls,75.07,10,Hannah Junek,Little River Academy,74.57,151.95,97.52,131.54,381.02,Single-ply,SBD,F
Girls,75.07,11,Abigail Villegas,Lone Oak,71.12,145.15,83.91,149.69,378.75,Single-ply,SBD,F
Girls,75.07,12,Kinley Liska,Karnes City,72.57,149.69,81.65,145.15,376.48,Single-ply,SBD,F
Girls,75.07,13,Adriana Ortiz,Friona,72.21,161.03,83.91,127.01,371.95,Single-ply,SBD,F
Girls,75.07,14,Elizabeth Price,Kermit,70.35,133.81,90.72,145.15,369.68,Single-ply,SBD,F
Girls,75.07,15,Lilly Perez,West,74.66,140.61,92.99,127.01,360.61,Single-ply,SBD,F
Girls,75.07,16,Ashleigh Butler,Leonard,70.72,133.81,81.65,138.35,353.8,Single-ply,SBD,F
Girls,75.07,17,Allana Subblett,Ganado,72.21,142.88,52.16,129.27,324.32,Single-ply,SBD,F
Girls,75.07,DQ,Dasha Gildon,Lago Vista,71.3,170.1,65.77,,,Single-ply,SBD,F
Girls,75.07,DQ,Gabrielle Santoya,Natalia,74.62,154.22,,,,Single-ply,SBD,F
Girls,82.33,1,Marissa Lutz,Lone Oak,80.38,215.46,138.35,192.78,546.58,Single-ply,SBD,F
Girls,82.33,2,Carrington Davis,Bowie,78.88,190.51,106.59,147.42,444.52,Single-ply,SBD,F
Girls,82.33,3,Abbey Evans,Tulia,81.1,195.04,86.18,151.95,433.18,Single-ply,SBD,F
Girls,82.33,4,Desiree Vega,El Maton Tidehaven,80.15,163.29,92.99,151.95,408.23,Single-ply,SBD,F
Girls,82.33,5,Kamryn Kettler,Clifton,80.74,154.22,63.5,181.44,399.16,Single-ply,SBD,F
Girls,82.33,6,Samantha Gonzalez,Edinburg Idea College Prep,80.51,165.56,77.11,154.22,396.89,Single-ply,SBD,F
Girls,82.33,7,Cassie Castro,Poth,77.66,172.37,70.31,149.69,392.36,Single-ply,SBD,F
Girls,82.33,8,Jenna Eugster,Whitesboro,81.24,156.49,86.18,138.35,381.02,Single-ply,SBD,F
Girls,82.33,9,Kamelia Navarette,Crane,78.43,158.76,63.5,151.95,374.21,Single-ply,SBD,F
Girls,82.33,10,Andrea Barrett,Commerce,78.93,149.69,88.45,131.54,369.68,Single-ply,SBD,F
Girls,82.33,11,Hailey Sanchez,Boling,80.6,151.95,61.23,154.22,367.41,Single-ply,SBD,F
Girls,82.33,DQ,Madi Waddle,Groesbeck,80.92,154.22,,,,Single-ply,SBD,F
Girls,90.04,1,Alexis Gallegos,San Diego,82.74,213.19,142.88,167.83,523.9,Single-ply,SBD,F
Girls,90.04,2,Harlie Guerra,Bishop,85.87,197.31,102.06,170.1,469.47,Single-ply,SBD,F
Girls,90.04,3,Maggie Conlon,Troy,88.63,190.51,115.67,163.29,469.47,Single-ply,SBD,F
Girls,90.04,4,Ellie Ryan,Early,86.5,158.76,102.06,170.1,430.91,Single-ply,SBD,F
Girls,90.04,5,Jasmine Ramon,Natalia,86.86,190.51,81.65,142.88,415.04,Single-ply,SBD,F
Girls,90.04,6,Alexandra Hall,Edinburg Quest College Prep,88.41,167.83,95.25,147.42,410.5,Single-ply,SBD,F
Girls,90.04,7,Kenlee Clifton,Emory Rains,83.96,192.78,79.38,127.01,399.16,Single-ply,SBD,F
Girls,90.04,8,Alivia Jackson,Diboll,87.14,179.17,70.31,133.81,383.29,Single-ply,SBD,F
Girls,90.04,9,Kansas Smith,Edna,83.23,151.95,77.11,151.95,381.02,Single-ply,SBD,F
Girls,90.04,10,Iris Guerrero,Big Lake Reagan County,86.55,163.29,61.23,151.95,376.48,Single-ply,SBD,F
Girls,90.04,11,Hayden Thompson,Whitewright,82.42,149.69,81.65,131.54,362.87,Single-ply,SBD,F
Girls,90.04,12,Jessica Thomas,Van Alstyne,86.82,149.69,74.84,131.54,356.07,Single-ply,SBD,F
Girls,90.04,13,Anisa Rodriguez,El Maton Tidehaven,82.83,122.47,63.5,136.08,322.05,Single-ply,SBD,F
Girls,90.04,DQ,Victoria Carby,Stanton,82.46,133.81,65.77,,,Single-ply,SBD,F
Girls,90.04,DQ,Erika Lowry,Gladewater Sabine,87.95,181.44,77.11,,,Single-ply,SBD,F
Girls,100.02,1,Taylor Strmiska,Little River Academy,93.98,238.14,163.29,213.19,614.62,Single-ply,SBD,F
Girls,100.02,2,Bekah Parks,Teague,92.4,213.19,102.06,154.22,469.47,Single-ply,SBD,F
Girls,100.02,3,Sabrina Gonzales,Dimmitt,95.57,195.04,92.99,181.44,469.47,Single-ply,SBD,F
Girls,100.02,4,Jalyce Dennis,Troup,98.93,188.24,99.79,161.03,449.06,Single-ply,SBD,F
Girls,100.02,5,Carmela Guevara,Tolar,92.53,181.44,88.45,158.76,428.64,Single-ply,SBD,F
Girls,100.02,6,Katarina Cassel,Rice,97.61,163.29,113.4,127.01,403.7,Single-ply,SBD,F
Girls,100.02,7,Jacie Doyle,Leonard,96.89,163.29,90.72,142.88,396.89,Single-ply,SBD,F
Girls,100.02,8,Regina Seidel,Cotulla,92.03,163.29,81.65,145.15,390.09,Single-ply,SBD,F
Girls,100.02,9,Taylor McCarty,Childress,96.48,156.49,88.45,145.15,390.09,Single-ply,SBD,F
Girls,100.02,10,Olivia Monsevais,Karnes City,90.81,163.29,79.38,145.15,387.82,Single-ply,SBD,F
Girls,100.02,11,Alli Lewis,Gladewater Sabine,96.57,158.76,86.18,136.08,381.02,Single-ply,SBD,F
Girls,100.02,12,Karla Moreno,El Maton Tidehaven,95.21,147.42,65.77,161.03,374.21,Single-ply,SBD,F
Girls,100.02,13,Hailey Fuentes,Palacios,98.7,136.08,81.65,142.88,360.61,Single-ply,SBD,F
Girls,100.02,DQ,Dezurai Martinez,Jarrell,95.25,,,,,Single-ply,SBD,F
Girls,100.02,DQ,Chelsea Price,Bowie,94.89,,,,,Single-ply,SBD,F
Girls,100.02,DQ,Hailey Jacobs,Winona,97.89,,,,,Single-ply,SBD,F
Girls,117.71,1,Ebony Vega,Mathis,114.85,247.21,117.93,179.17,544.31,Single-ply,SBD,F
Girls,117.71,2,Madison Wilbanks,Malakoff,108.32,240.4,102.06,183.7,526.17,Single-ply,SBD,F
Girls,117.71,3,Kailyn Fisher,Trinity,110.54,188.24,113.4,179.17,480.81,Single-ply,SBD,F
Girls,117.71,4,Sierra Caro,Falfurrias,106.68,215.46,106.59,142.88,464.93,Single-ply,SBD,F
Girls,117.71,5,Medrano Izabella,Sadler S & S Cons,114.89,181.44,108.86,156.49,446.79,Single-ply,SBD,F
Girls,117.71,6,Halee McCaslin,Corsicana Mildred,110.59,190.51,102.06,142.88,435.45,Single-ply,SBD,F
Girls,117.71,7,Avery Crossland,Leonard,111.95,181.44,97.52,147.42,426.38,Single-ply,SBD,F
Girls,117.71,8,Cheyenne LeBlanc,Lago Vista,105.96,195.04,72.57,151.95,419.57,Single-ply,SBD,F
Girls,117.71,9,Yareli Contreras,Cameron Yoe,111.77,165.56,92.99,154.22,412.77,Single-ply,SBD,F
Girls,117.71,10,Kamri Preston,Hitchcock,112.63,163.29,86.18,129.27,378.75,Single-ply,SBD,F
Girls,117.71,11,Courtney Junious,Edna,101.15,154.22,68.04,122.47,344.73,Single-ply,SBD,F
Girls,117.71,12,Ashley Beauchamp,Coleman,102.74,138.35,63.5,140.61,342.46,Single-ply,SBD,F
Girls,117.71,13,Maraya Corrales,Dimmitt,106.78,136.08,63.5,117.93,317.51,Single-ply,SBD,F
Girls,117.71+,1,Hailie Morehead,Franklin,144.51,254.01,99.79,213.19,566.99,Single-ply,SBD,F
Girls,117.71+,2,Victoria Gonzalez,Cotulla,131.22,242.67,124.74,197.31,564.72,Single-ply,SBD,F
Girls,117.71+,3,Andrea Beasley,Kemp,128.28,249.48,102.06,165.56,517.1,Single-ply,SBD,F
Girls,117.71+,4,Bethany Gonzales,Santa Gertrudis Academy,149.01,181.44,115.67,183.7,480.81,Single-ply,SBD,F
Girls,117.71+,5,Daejanay Bell,Cameron Yoe,126.92,195.04,102.06,165.56,462.66,Single-ply,SBD,F
Girls,117.71+,6,DeAndra Hinton,Brady,168.92,176.9,117.93,149.69,444.52,Single-ply,SBD,F
Girls,117.71+,7,Alyssah Cunningham,Buna,130,172.37,106.59,156.49,435.45,Single-ply,SBD,F
Girls,117.71+,8,Jazmine Esquivel,Altair Rice,119.25,201.85,68.04,161.03,430.91,Single-ply,SBD,F
Girls,117.71+,9,Kayle Chapman,Leonard,118.98,181.44,97.52,145.15,424.11,Single-ply,SBD,F
Girls,117.71+,10,Mariela Garcia,Pollok Central,141.29,183.7,79.38,138.35,401.43,Single-ply,SBD,F
Girls,117.71+,11,Arlene Solis,Dimmitt,124.01,151.95,54.43,131.54,337.93,Single-ply,SBD,F
Girls,117.71+,DQ,Jessie Nelson,Boyd,119.93,149.69,65.77,,,Single-ply,SBD,F
Girls,117.71+,DQ,Koral Sylestine,Woodville,121.38,,,,,Single-ply,SBD,F
Girls,117.71+,DQ,Alondra Salinas,Troup,127.19,213.19,,,,Single-ply,SBD,F
Girls,117.71+,DQ,Shaianne Gonzales,Ballinger,146.28,,,,,Single-ply,SBD,F
Girls,117.71+,DQ,Denaesjah Wickware,Mount Vernon,135.67,,,,,Single-ply,SBD,F
Girls,,NS,Veronica Villerreal,Early,,,,,,Single-ply,SBD,F
Girls,,NS,Betsy Ramirez,Winnsboro,,,,,,Single-ply,SBD,F
