Division,WeightClassKg,Place,Name,Team,BodyweightKg,Best3SquatKg,Best3BenchKg,Best3DeadliftKg,TotalKg,Equipment,Event,Sex
Junior Varsity,67.13,1,Caleb Hussey,Orangefield,61.69,117.93,70.31,136.08,324.32,Single-ply,SBD,M
Junior Varsity,67.13,2,Tate Hardy,Silsbee,63.5,97.52,65.77,113.4,276.69,Single-ply,SBD,M
Junior Varsity,74.84,1,Beau Kubodeaux,Silsbee,73.03,108.86,63.5,108.86,281.23,Single-ply,SBD,M
Junior Varsity,74.84,DQ,Christopher Smith,Orange Little Cypress-Mauriceville,69.13,,,,,Single-ply,SBD,M
Junior Varsity,82.1,1,Elijah Miller,Silsbee,79.38,129.27,86.18,165.56,381.02,Single-ply,SBD,M
Junior Varsity,82.1,2,Justin Flatt,Silsbee,82.1,120.2,88.45,129.27,337.93,Single-ply,SBD,M
Junior Varsity,82.1,DQ,Blake LeBlanc,Orange Little Cypress-Mauriceville,79.2,140.61,74.84,,,Single-ply,SBD,M
Junior Varsity,89.81,1,Andrew Daville,Orangefield,88,154.22,86.18,142.88,383.29,Single-ply,SBD,M
Junior Varsity,89.81,2,Trent Morgan,Silsbee,88.45,129.27,92.99,142.88,365.14,Single-ply,SBD,M
Junior Varsity,99.79,1,Jamarcus Myers,Silsbee,97.07,147.42,86.18,183.7,417.3,Single-ply,SBD,M
Junior Varsity,99.79,2,Ty Ligon,Silsbee,94.8,133.81,81.65,183.7,399.16,Single-ply,SBD,M
Junior Varsity,99.79,3,San Juan Jose,Orangefield,96.62,156.49,83.91,142.88,383.29,Single-ply,SBD,M
Junior Varsity,99.79,DQ,Octavious Crosson,West Orange-Stark,99.79,,79.38,127.01,,Single-ply,SBD,M
Junior Varsity,109.77,1,Kanon Mackey,Silsbee,109.77,142.88,108.86,167.83,419.57,Single-ply,SBD,M
Junior Varsity,109.77,2,Roundtree Austin,Silsbee,109.77,149.69,92.99,167.83,410.5,Single-ply,SBD,M
Junior Varsity,109.77,3,Stephen Sliter,Silsbee,108.86,147.42,97.52,163.29,408.23,Single-ply,SBD,M
Junior Varsity,109.77,DQ,Talon Weaver,Silsbee,105.69,129.27,108.86,124.74,,Single-ply,SBD,M
Junior Varsity,109.77,DQ,Caleb Green,Orange Little Cypress-Mauriceville,106.14,120.2,,156.49,,Single-ply,SBD,M
Junior Varsity,124.74,1,Johnathan Judge,Orange Little Cypress-Mauriceville,117.66,156.49,111.13,163.29,430.91,Single-ply,SBD,M
Junior Varsity,124.74,2,Brian Johnston,Silsbee,113.4,138.35,81.65,170.1,390.09,Single-ply,SBD,M
Boys,51.71,1,Patrick Herfurth,Orange Little Cypress-Mauriceville,51.26,129.27,61.23,163.29,353.8,Single-ply,SBD,M
Boys,51.71,2,Cameron Williams,Orangefield,51.26,90.72,49.9,90.72,231.33,Single-ply,SBD,M
Boys,55.79,1,Travis White,Orange Little Cypress-Mauriceville,55.52,120.2,61.23,138.35,319.78,Single-ply,SBD,M
Boys,59.87,1,Javier Garcia,Orange Little Cypress-Mauriceville,59.78,172.37,83.91,163.29,419.57,Single-ply,SBD,M
Boys,59.87,2,Reagan Ficken,Orangefield,57.15,145.15,79.38,138.35,362.87,Single-ply,SBD,M
Boys,59.87,3,Michael Chen,Orange Little Cypress-Mauriceville,59.51,131.54,79.38,145.15,356.07,Single-ply,SBD,M
Boys,67.13,1,Tremaine Anderson,West Orange-Stark,67.13,145.15,74.84,172.37,392.36,Single-ply,SBD,M
Boys,67.13,2,Coy Bird,Silsbee,66.22,138.35,92.99,158.76,390.09,Single-ply,SBD,M
Boys,67.13,3,Kaleb Franklin,West Orange-Stark,67.13,149.69,79.38,149.69,378.75,Single-ply,SBD,M
Boys,67.13,4,Bryce Rambo,Orange Little Cypress-Mauriceville,66.36,129.27,70.31,163.29,362.87,Single-ply,SBD,M
Boys,67.13,5,Joey Greer,Orangefield,61.69,127.01,77.11,142.88,347,Single-ply,SBD,M
Boys,67.13,6,Connor Jaynes,Orange Little Cypress-Mauriceville,61.6,129.27,70.31,145.15,344.73,Single-ply,SBD,M
Boys,67.13,DQ,Casey Raley,Orangefield,65.32,,,,,Single-ply,SBD,M
Boys,74.84,1,Britton Lindsey,West Orange-Stark,74.84,233.6,124.74,247.21,605.55,Single-ply,SBD,M
Boys,74.84,2,Matthew Lackey,West Orange-Stark,74.84,145.15,92.99,192.78,430.91,Single-ply,SBD,M
Boys,74.84,3,Brad Bergeron,Orange Little Cypress-Mauriceville,73.3,163.29,92.99,165.56,421.84,Single-ply,SBD,M
Boys,74.84,4,Roderick Harper,Silsbee,74.84,151.95,92.99,158.76,403.7,Single-ply,SBD,M
Boys,74.84,5,Ryan Kirkendall,Silsbee,71.21,151.95,79.38,154.22,385.55,Single-ply,SBD,M
Boys,82.1,1,Joe Lynch,West Orange-Stark,82.1,183.7,131.54,195.04,510.29,Single-ply,SBD,M
Boys,82.1,2,Kade Smith,Silsbee,79.83,165.56,124.74,210.92,501.22,Single-ply,SBD,M
Boys,82.1,3,Jhayllien Monette,West Orange-Stark,82.1,172.37,102.06,204.12,478.54,Single-ply,SBD,M
Boys,82.1,4,Bryan Adams,Silsbee,81.65,161.03,113.4,183.7,458.13,Single-ply,SBD,M
Boys,82.1,DQ,Troy Angelo,Orange Little Cypress-Mauriceville,77.29,174.63,,195.04,,Single-ply,SBD,M
Boys,89.81,1,Ian Putman,Orangefield,84.37,197.31,131.54,197.31,526.17,Single-ply,SBD,M
Boys,89.81,2,Taylor Hulsey,Orange Little Cypress-Mauriceville,89.72,154.22,106.59,172.37,433.18,Single-ply,SBD,M
Boys,89.81,3,Austin Rutledge,West Orange-Stark,89.81,133.81,88.45,176.9,399.16,Single-ply,SBD,M
Boys,99.79,1,Lawrence Gilmore,West Orange-Stark,99.79,226.8,129.27,254.01,610.08,Single-ply,SBD,M
Boys,99.79,2,Tanner Humble,Silsbee,97.98,201.85,111.13,188.24,501.22,Single-ply,SBD,M
Boys,99.79,3,Bryan Lopez,Orangefield,97.52,199.58,104.33,190.51,494.42,Single-ply,SBD,M
Boys,99.79,4,Daniel Woodson,West Orange-Stark,99.79,183.7,102.06,199.58,485.34,Single-ply,SBD,M
Boys,99.79,5,Jerrod Watkins,Orangefield,97.98,183.7,104.33,158.76,446.79,Single-ply,SBD,M
Boys,109.77,1,David Hollyfield,Silsbee,104.33,224.53,149.69,242.67,616.89,Single-ply,SBD,M
Boys,109.77,2,Dylan Morgan,Silsbee,102.51,142.88,108.86,183.7,435.45,Single-ply,SBD,M
Boys,109.77,3,Patrick Osborne,Orangefield,108.86,151.95,97.52,172.37,421.84,Single-ply,SBD,M
Boys,124.74,1,Bret Treadway,Silsbee,113.4,251.74,167.83,249.48,669.05,Single-ply,SBD,M
Boys,124.74,2,Doc Maricle,Silsbee,123.83,210.92,170.1,226.8,607.81,Single-ply,SBD,M
Boys,124.74,3,Ryan Lebouef,Orangefield,115.67,190.51,102.06,199.58,492.15,Single-ply,SBD,M
Boys,124.74,4,Stephen Guilbeaux,Orange Little Cypress-Mauriceville,120.47,174.63,138.35,174.63,487.61,Single-ply,SBD,M
Boys,124.74+,1,Ryan Allen #1,West Orange-Stark,149.69,267.62,156.49,306.17,730.28,Single-ply,SBD,M
Boys,124.74+,2,Tyler Howlett,Orange Little Cypress-Mauriceville,132.63,185.97,111.13,204.12,501.22,Single-ply,SBD,M
Boys,124.74+,3,Chase Cargill,Orangefield,126.1,120.2,74.84,113.4,308.44,Single-ply,SBD,M
