Division,WeightClassKg,Place,Name,Team,BodyweightKg,Best3SquatKg,Best3BenchKg,Best3DeadliftKg,TotalKg,Equipment,Event,Sex
Boys,51.71,1,Gabriel Roberts,Aledo,49.44,58.97,63.5,79.38,201.85,Single-ply,SBD,M
Boys,55.79,1,Noah Duvall,Springtown,54.84,124.74,68.04,142.88,335.66,Single-ply,SBD,M
Boys,55.79,2,Justin Straw,Springtown,55.16,97.52,63.5,102.06,263.08,Single-ply,SBD,M
Boys,55.79,3,Otis Jackson,Aledo,54.34,95.25,70.31,95.25,260.82,Single-ply,SBD,M
Boys,55.79,4,Eugene May,Aledo,55.25,83.91,56.7,95.25,235.87,Single-ply,SBD,M
Boys,59.87,1,Arlind Queriman,Aledo,57.02,142.88,111.13,142.88,396.89,Single-ply,SBD,M
Boys,59.87,2,Steven Burns,Aledo,59.69,120.2,72.57,136.08,328.85,Single-ply,SBD,M
Boys,59.87,3,Joel Rayos,Springtown,58.92,117.93,61.23,136.08,315.25,Single-ply,SBD,M
Boys,67.13,1,Ezikel Dutton,Springtown,66.77,129.27,81.65,151.95,362.87,Single-ply,SBD,M
Boys,67.13,2,Isiah Prater,Springtown,65.23,138.35,70.31,145.15,353.8,Single-ply,SBD,M
Boys,67.13,3,Cage Teague,Springtown,60.74,117.93,74.84,129.27,322.05,Single-ply,SBD,M
Boys,67.13,4,Dawson Adams,Springtown,66.86,115.67,68.04,124.74,308.44,Single-ply,SBD,M
Boys,67.13,5,Gabriel Bartton,Springtown,66.81,95.25,68.04,127.01,290.3,Single-ply,SBD,M
Boys,74.84,1,Tatum Price,Aledo,73.94,163.29,104.33,170.1,437.72,Single-ply,SBD,M
Boys,74.84,2,Aarron Foster,Springtown,69.13,142.88,92.99,170.1,405.97,Single-ply,SBD,M
Boys,74.84,3,Oscar Campos,Fort Worth Paschal,73.07,133.81,77.11,165.56,376.48,Single-ply,SBD,M
Boys,74.84,4,Dakota Brooks,Springtown,70.17,138.35,86.18,142.88,367.41,Single-ply,SBD,M
Boys,74.84,5,Ben Larson,Fort Worth Paschal,74.16,133.81,81.65,142.88,358.34,Single-ply,SBD,M
Boys,74.84,6,Thomas Jarrett,Fort Worth Paschal,73.62,79.38,61.23,113.4,254.01,Single-ply,SBD,M
Boys,74.84,7,Isaac Garcia,Fort Worth Paschal,74.53,92.99,47.63,97.52,238.14,Single-ply,SBD,M
Boys,74.84,DQ,Bobby Barham,Fort Worth Paschal,74.57,,,,,Single-ply,SBD,M
Boys,82.1,1,Grayson Porche,Aledo,77.11,181.44,127.01,190.51,498.95,Single-ply,SBD,M
Boys,82.1,2,Zach Watson,Springtown,80.01,185.97,113.4,181.44,480.81,Single-ply,SBD,M
Boys,82.1,3,Sawyer Drewry,Springtown,78.74,156.49,92.99,172.37,421.84,Single-ply,SBD,M
Boys,82.1,4,Bradey Rhodes,Springtown,75.84,151.95,90.72,174.63,417.3,Single-ply,SBD,M
Boys,82.1,5,Ashton Watson,Springtown,78.7,142.88,102.06,167.83,412.77,Single-ply,SBD,M
Boys,82.1,DQ,Cameron Rickett,Springtown,82.01,183.7,,,,Single-ply,SBD,M
Boys,82.1,DQ,Cummings Jaquan,Springtown,77.25,138.35,,,,Single-ply,SBD,M
Boys,89.81,1,Guillermo Pando,Springtown,89.68,210.92,127.01,199.58,537.51,Single-ply,SBD,M
Boys,89.81,2,Jordan Montes,Aledo,85.28,127.01,99.79,133.81,360.61,Single-ply,SBD,M
Boys,89.81,DQ,Tyler Holder,Springtown,88.95,133.81,,,,Single-ply,SBD,M
Boys,99.79,1,Cooper Thompson,Aledo,98.88,172.37,117.93,158.76,449.06,Single-ply,SBD,M
Boys,99.79,2,Martin Guiterrez,Springtown,98.79,158.76,95.25,170.1,424.11,Single-ply,SBD,M
Boys,99.79,3,Brent Rose,Springtown,91.85,156.49,90.72,174.63,421.84,Single-ply,SBD,M
Boys,99.79,4,Alan Hernandez #6,Springtown,91.9,133.81,83.91,161.03,378.75,Single-ply,SBD,M
Boys,109.77,1,Harrison Good,Fort Worth Paschal,109.13,190.51,133.81,204.12,528.44,Single-ply,SBD,M
Boys,109.77,2,Blake Price,Aledo,106.5,183.7,111.13,174.63,469.47,Single-ply,SBD,M
Boys,109.77,3,Logan Michael,Aledo,102.69,181.44,104.33,181.44,467.2,Single-ply,SBD,M
Boys,124.74,1,Logan Escamilla,Aledo,120.66,183.7,140.61,190.51,514.83,Single-ply,SBD,M
Boys,124.74,2,Zacc Haynes,Aledo,116.48,204.12,127.01,174.63,505.76,Single-ply,SBD,M
Boys,124.74,3,Colby Thomas,Aledo,116.75,181.44,133.81,188.24,503.49,Single-ply,SBD,M
Boys,124.74,4,William Houze,Fort Worth Paschal,112.9,142.88,90.72,165.56,399.16,Single-ply,SBD,M
Boys,124.74,5,Tyler Allison,Springtown,112.35,129.27,90.72,158.76,378.75,Single-ply,SBD,M
Boys,124.74+,1,Brain McWhorter,Springtown,125.87,183.7,113.4,222.26,519.36,Single-ply,SBD,M
