Name,WeightClassKg,Division,Sex,Best3SquatKg,Best3BenchKg,Best3DeadliftKg,TotalKg,Event,Equipment,Place
R. Brightwell,52,Open,M,165,97.5,192.5,455,SBD,Single-ply,1
T. Mims,52,Open,M,125,67.5,167.5,360,SBD,Single-ply,2
J. Dean,56,Open,M,155,117.5,180,452.5,SBD,Single-ply,1
P. Dyer,56,Open,M,127.5,57.5,135,320,SBD,Single-ply,2
R. Hernandez,60,Open,M,190,105,185,480,SBD,Single-ply,1
G. Green,60,Open,M,172.5,75,172.5,420,SBD,Single-ply,2
E. Peek,67.5,Open,M,212.5,140,212.5,565,SBD,Single-ply,1
M. Lester,67.5,Open,M,222.5,125,210,557.5,SBD,Single-ply,2
G. Santee,75,Open,M,227.5,155,250,632.5,SBD,Single-ply,1
W. Arnold,75,Open,M,190,150,212.5,552.5,SBD,Single-ply,2
D. Lerma,75,Open,M,170,140,197.5,507.5,SBD,Single-ply,3
J. Ramon,75,Open,M,165,110,215,490,SBD,Single-ply,4
Rick Gaugler,82.5,Open,M,342.5,212.5,342.5,897.5,SBD,Single-ply,1
J. Canary,82.5,Open,M,280,177.5,282.5,740,SBD,Single-ply,2
K. Rollins,82.5,Open,M,282.5,150,272.5,705,SBD,Single-ply,3
Bill Johnson,82.5,Open,M,280,142.5,245,667.5,SBD,Single-ply,4
M. Rigsby,82.5,Open,M,222.5,160,250,632.5,SBD,Single-ply,5
M. Pellegrini,82.5,Open,M,240,132.5,240,612.5,SBD,Single-ply,6
K. Hitchcock,90,Open,M,320,205,265,790,SBD,Single-ply,1
Bill Ennis,90,Open,M,287.5,202.5,292.5,782.5,SBD,Single-ply,2
S. Halbert,90,Open,M,255,165,250,670,SBD,Single-ply,3
F. Alvarez,90,Open,M,227.5,155,225,607.5,SBD,Single-ply,4
M. Downs,100,Open,M,320,210,310,840,SBD,Single-ply,1
M. Tolbert,100,Open,M,272.5,187.5,237.5,697.5,SBD,Single-ply,2
J. LeRibeus,110,Open,M,320,187.5,295,802.5,SBD,Single-ply,1
K. Phoenix,110,Open,M,267.5,167.5,267.5,702.5,SBD,Single-ply,2
M. Paradise,110,Open,M,230,152.5,262.5,645,SBD,Single-ply,3
G. Villanueva,110,Open,M,215,150,227.5,592.5,SBD,Single-ply,4
J. Young,125,Open,M,322.5,227.5,285,835,SBD,Single-ply,1
D. Carter,125+,Open,M,320,215,300,835,SBD,Single-ply,1
D. Martin #1,125+,Open,M,272.5,125,272.5,670,SBD,Single-ply,2
C. Bohls,52,Class II,M,85,55,102.5,242.5,SBD,Single-ply,1
J. Dean,67,Class II,M,155,117.5,180,452.5,SBD,Single-ply,1
T. Woolever,67.5,Class II,M,160,117.5,200,477.5,SBD,Single-ply,1
L. Navarro,75,Class II,M,217.5,140,242.5,600,SBD,Single-ply,1
J. Martinez,75,Class II,M,197.5,142.5,210,550,SBD,Single-ply,2
D. Lerma,75,Class II,M,170,140,197.5,507.5,SBD,Single-ply,3
J. Ramon,75,Class II,M,162.5,110,215,487.5,SBD,Single-ply,4
M. Rigsby,82.5,Class II,M,222.5,160,250,632.5,SBD,Single-ply,1
B. Divila,82.5,Class II,M,227.5,147.5,242.5,617.5,SBD,Single-ply,2
M. Pellegrini,82.5,Class II,M,240,132.5,240,612.5,SBD,Single-ply,3
J. Simmons,82.5,Class II,M,245,145,215,605,SBD,Single-ply,4
E. Kellem,90,Class II,M,237.5,187.5,250,675,SBD,Single-ply,1
J. Stewart,90,Class II,M,217.5,152.5,210,580,SBD,Single-ply,2
S. Krone,100,Class II,M,232.5,147.5,232.5,612.5,SBD,Single-ply,1
D. Childers,100,Class II,M,207.5,160,242.5,610,SBD,Single-ply,2
T. Ross,100,Class II,M,215,135,217.5,567.5,SBD,Single-ply,3
M. Paradise,110,Class II,M,230,152.5,262.5,645,SBD,Single-ply,1
G. Villanueva,110,Class II,M,215,150,227.5,592.5,SBD,Single-ply,2
C. Luce,110,Class II,M,200,157.5,205,562.5,SBD,Single-ply,3
M. Lord,125,Class II,M,227.5,192.5,240,660,SBD,Single-ply,1
W. Luna,125,Class II,M,270,137.5,227.5,635,SBD,Single-ply,2
D. Wilbur,125,Class II,M,200,117.5,200,517.5,SBD,Single-ply,3
N. Prieto,125+,Class II,M,257.5,152.5,232.5,642.5,SBD,Single-ply,1
L. Whiddon,44,Open,F,127.5,72.5,120,320,SBD,Single-ply,1
T. Mims,52,Open,F,125,67.5,167.5,360,SBD,Single-ply,1
M. Cansibog,52,Open,F,147.5,55,125,327.5,SBD,Single-ply,2
B. Lopez,52,Open,F,115,50,127.5,292.5,SBD,Single-ply,3
M. Mendoza,56,Open,F,127.5,65,140,332.5,SBD,Single-ply,1
P. Dyer,56,Open,F,127.5,57.5,135,320,SBD,Single-ply,2
C. Perrington,56,Open,F,120,55,137.5,312.5,SBD,Single-ply,3
N. Cline,60,Open,F,137.5,82.5,155,375,SBD,Single-ply,1
K. Stathos,60,Open,F,95,47.5,110,252.5,SBD,Single-ply,2
T. McKenzi,82.5,Open,F,145,80,187.5,412.5,SBD,Single-ply,1
G. Springs,82.5,Open,F,125,55,137.5,317.5,SBD,Single-ply,2
W. Sparks,67.5,Teen,F,105,60,120,285,SBD,Single-ply,1
N. Robbins,67.5,Teen,F,92.5,40,112.5,245,SBD,Single-ply,2
M. Trader,90,Teen,M,177.5,117.5,227.5,522.5,SBD,Single-ply,1
C. Moss,125+,Teen,M,165,82.5,162.5,410,SBD,Single-ply,1
Joe Hubbard,60,Masters,M,115,67.5,155,337.5,SBD,Single-ply,1
J. Capehart,67.5,Masters,M,182.5,107.5,175,465,SBD,Single-ply,1
G. Santee,75,Masters,M,227.5,155,250,632.5,SBD,Single-ply,1
J. Christian,75,Masters,M,172.5,120,232.5,525,SBD,Single-ply,2
D. Krone,75,Masters,M,147.5,70,137.5,355,SBD,Single-ply,3
Bill Johnson,82.5,Masters,M,280,142.5,245,667.5,SBD,Single-ply,1
E. Mitchell,82.5,Masters,M,175,102.5,205,482.5,SBD,Single-ply,2
Bill Ennis,90,Masters,M,287.5,202.5,292.5,782.5,SBD,Single-ply,1
J. Huckabay,90,Masters,M,195,147.5,185,527.5,SBD,Single-ply,2
M. Winburn,90,Masters,M,182.5,127.5,182.5,492.5,SBD,Single-ply,3
R. Ray,100,Masters,M,250,202.5,287.5,740,SBD,Single-ply,1
B. Jones,110,Masters,M,145,125,182.5,452.5,SBD,Single-ply,1
D. Carter,125+,Masters,M,320,215,300,835,SBD,Single-ply,1
D. Martin #1,125+,Masters,M,272.5,125,272.5,670,SBD,Single-ply,2
L. Evans,125+,Masters,M,247.5,137.5,240,625,SBD,Single-ply,3
J. Lyons,125+,Masters,M,215,142.5,262.5,620,SBD,Single-ply,4
