Place,WeightClassKg,Sex,Event,Equipment,Name,State,BodyweightKg,Division,Bench1Kg,Bench2Kg,Bench3Kg,Bench4Kg,Best3BenchKg,TotalKg
1,50,F,B,Raw,Valerie Pendleton,OH,49.9,whs,35,-41,-41,,35,35
1,54,F,B,Raw,Katie Oswalt,OH,53.16,wteen,47.5,52.5,-55,,52.5,52.5
1,58,F,B,Raw,Erin Lawson,OH,54.88,whs,27.5,-30,-30,,27.5,27.5
1,58,F,B,Raw,Brandy Ludwig,OH,57.97,wteen,47.5,-52.5,-52.5,,47.5,47.5
1,58,F,B,Raw,Megan Scholl,OH,56.34,wnov,50,55,-57.5,,55,55
1,58,F,B,Raw,Megan Scholl,OH,56.34,wpure,50,55,-57.5,,55,55
1,63,F,B,Raw,Aubree Judy,OH,59.69,wteen,35,-40,-40,,35,35
1,70,F,B,Raw,Ellen Alleman,OH,69.04,wjr,37.5,42.5,45,-47.5,45,45
1,77,F,B,Raw,Tara Palmer,OH,76.48,wjr,-52.5,-52.5,52.5,-55,52.5,52.5
1,85,F,B,Raw,Jenna Wasserman,OH,80.74,whs,70,-77.5,77.5,80,77.5,77.5
1,85,F,B,Raw,Courtnee Ridder,OH,81.28,wjr,52.5,-57.5,57.5,-58.5,57.5,57.5
1,85+,F,B,Raw,Lacie Harper,OH,161.12,wjr,45,52.5,-55,,52.5,52.5
1,85+,F,B,Raw,Roberta Collins,OH,160.12,wpure,142.5,160,167.5,177.5,167.5,167.5
1,54,M,B,Raw,Joel Krabill,OH,53.98,hs,65,-70,-70,,65,65
2,54,M,B,Raw,Jayce Watson,OH,53.98,hs,55,-57.5,-57.5,,55,55
1,54,M,B,Raw,Jon Wagner,OH,53.8,teen,42.5,47.5,50,-52.5,50,50
1,54,M,B,Raw,Chris Deck,OH,53.98,jr,-92.5,-92.5,92.5,,92.5,92.5
1,58,M,B,Raw,Dave Douglas,OH,57.06,hs,67.5,77.5,80,,80,80
2,58,M,B,Raw,Jake Hemminger,OH,57.61,hs,75,-80,-80,,75,75
1,58,M,B,Raw,Josh Lloyd,OH,57.33,teen,70,75,-80,,75,75
1,58,M,B,Raw,Charles Watson,OH,57.06,jr,62.5,-67.5,67.5,,67.5,67.5
1,63,M,B,Raw,Mike Roach,OH,62.82,hs,105,107.5,110,,110,110
2,63,M,B,Raw,Justin Taught,OH,28.58,hs,-70,70,-72.5,,70,70
3,63,M,B,Raw,Brian Poulton,OH,60.69,hs,-52.5,52.5,-55,,52.5,52.5
1,63,M,B,Raw,Bill Parker,OH,61.14,m2,85,87.5,90,,90,90
1,63,M,B,Raw,Tim Gunderson,OH,62.6,smp,85,-95,-95,,85,85
1,63,M,B,Raw,John Six,KY,62.6,sm1,135,137.5,-142.5,,137.5,137.5
1,70,M,B,Raw,Matt Bailey,OH,69.54,hs,102.5,-110,110,,110,110
2,70,M,B,Raw,Brian Newman,OH,66.41,hs,-62.5,62.5,72.5,,72.5,72.5
3,70,M,B,Raw,Matt Short,OH,67.13,hs,62.5,67.5,-75,,67.5,67.5
4,70,M,B,Raw,Bobby Alig,OH,68.49,hs,60,-65,-65,,60,60
5,70,M,B,Raw,John Weber,OH,66.77,hs,50,55,-60,,55,55
6,70,M,B,Raw,Aaron Quiton,OH,67.59,hs,55,-60,-60,,55,55
1,70,M,B,Raw,Joseph Yu,OH,69.72,m1,142.5,-150,,,142.5,142.5
1,70,M,B,Raw,Mike Cameron,OH,69.58,sm1,145,-150,-155,,145,145
1,77.5,M,B,Raw,Jeff Rood,OH,71.3,hs,100,107.5,-117.5,,107.5,107.5
2,77.5,M,B,Raw,Mitch Cromes,OH,73.48,hs,82.5,90,-97.5,,90,90
3,77.5,M,B,Raw,Mike Willis,OH,76.57,hs,80,87.5,-90,,87.5,87.5
1,77.5,M,B,Raw,Reggie Johnson,OH,77.29,teen,95,102.5,110,,110,110
1,77.5,M,B,Raw,Frank Newbill,OH,75.84,int,142.5,162.5,-167.5,,162.5,162.5
DQ,77.5,M,B,Raw,Ron Maynard,OH,75.61,nov,-137.5,-155,-155,,,
DQ,77.5,M,B,Raw,Ron Maynard,OH,75.61,pure,-137.5,-155,-155,,,
1,77.5,M,B,Raw,Ed McCorriston,PA,76.7,pure,145,152.5,-157.5,,152.5,152.5
1,77.5,M,B,Raw,Daren Sea,KY,77.11,smp,110,112.5,-115,,112.5,112.5
1,77.5,M,B,Raw,Ed McCorriston,PA,76.7,sm2,145,152.5,157.5,,157.5,157.5
1,85,M,B,Raw,Adam Bailey,OH,84.59,hs,107.5,115,-120,,115,115
2,85,M,B,Raw,Josh Cosner,OH,81.19,hs,102.5,110,-115,,110,110
3,85,M,B,Raw,Greg Shaffer,OH,82.15,hs,97.5,102.5,-107.5,,102.5,102.5
4,85,M,B,Raw,Phil Hidinger,OH,81.19,hs,70,-72.5,-72.5,,70,70
1,85,M,B,Raw,Jason Waldren,OH,81.83,teen,100,110,117.5,,117.5,117.5
1,85,M,B,Raw,Adam Roberts,OH,84.28,jr,140,147.5,-157.5,,147.5,147.5
1,85,M,B,Raw,Jeff Daniel,OH,83.32,smp,-115,120,125,,125,125
1,85,M,B,Raw,James Sparks,OH,82.42,smp,112.5,-122.5,-122.5,,112.5,112.5
1,85,M,B,Raw,Larry Donahue,OH,83.91,smp,105,115,122.5,125,122.5,122.5
1,85,M,B,Raw,Larry Donahue,OH,83.91,sm2,105,115,122.5,125,122.5,122.5
1,85,M,B,Raw,James Sparks,OH,82.42,sm1,112.5,-122.5,-122.5,,112.5,112.5
1,85,M,B,Raw,Alan Zimmerman,IN,83.05,m1,127.5,132.5,-137.5,,132.5,132.5
1,85,M,B,Raw,Alan Zimmerman,IN,83.05,m5,127.5,132.5,-137.5,,132.5,132.5
1,93,M,B,Raw,Dusty Roberts,OH,89.27,hs,92.5,100,-105,,100,100
2,93,M,B,Raw,Tyson Gantz,OH,83.37,hs,-97.5,97.5,-107.5,,97.5,97.5
3,93,M,B,Raw,Bubba Horsley,OH,91.17,hs,95,-102.5,-107.5,,95,95
4,93,M,B,Raw,Anthony Harris,OH,88.9,hs,75,80,-82.5,,80,80
5,93,M,B,Raw,Heath Alty,OH,89.36,hs,70,75,77.5,,77.5,77.5
1,93,M,B,Raw,Mike Connor,OH,89.95,jr,-137.5,137.5,-142.5,,137.5,137.5
2,93,M,B,Raw,Brian Pence,OH,89.45,jr,117.5,125,-132.5,,125,125
1,93,M,B,Raw,Luke Erlinger,OH,89.68,smp,92.5,105,-107.5,,105,105
1,93,M,B,Raw,Roger Lyons,OH,89.9,nov,85,-92.5,-92.5,,85,85
1,93,M,B,Raw,Roger Lyons,OH,89.9,pure,85,-92.5,-92.5,,85,85
1,93,M,B,Raw,Keith Ankeney,OH,90.08,smp,142.5,150,-155,,150,150
DQ,93,M,B,Raw,Dave Hopkens,OH,90.95,m1,-155,-155,-155,,,
DQ,93,M,B,Raw,Dave Hopkens,OH,90.95,m5,-155,-155,-155,,,
1,103,M,B,Raw,Curtis Wolpert,OH,90.13,hs,102.5,110,115,,115,115
2,103,M,B,Raw,Richard Douglas,OH,94.44,hs,97.5,105,110,,110,110
3,103,M,B,Raw,Kyle Etgen,OH,96.62,hs,92.5,102.5,-112.5,,102.5,102.5
4,103,M,B,Raw,Nate Lowe,OH,96.62,hs,82.5,92.5,-100,,92.5,92.5
5,103,M,B,Raw,Dustin Gantz,OH,97.98,hs,75,80,85,,85,85
1,103,M,B,Raw,John Kuhns,OH,95.16,int,145,155,-165,,155,155
1,103,M,B,Raw,Tom Boyer,OH,101.2,sm1,155,162.5,-170,,162.5,162.5
2,103,M,B,Raw,Mike Williams,OH,99.74,sm1,140,145,150,,150,150
1,103,M,B,Raw,Tom Boyer,OH,101.2,smp,155,162.5,-170,,162.5,162.5
2,103,M,B,Raw,Mike Williams,OH,99.74,smp,140,145,150,,150,150
1,103,M,B,Raw,Tyler Alexander,OH,102.83,sm1,142.5,-165,-165,,142.5,142.5
1,103,M,B,Raw,Robert Coots,KY,102.97,smp,172.5,192.5,-205,,192.5,192.5
2,103,M,B,Raw,Gary Wombold,OH,98.84,smp,150,-160,-160,,150,150
1,103,M,B,Raw,Dan Goble,IN,102.97,m1,175,182.5,190,192.5,190,190
DQ,103,M,B,Raw,Mike Brown,OH,101.92,m2,-165,-165,-165,,,
1,103,M,B,Raw,Charles Underhill,OH,102.33,smp,185,192.5,200,205,200,200
1,103,M,B,Raw,Doug Price,OH,97.48,sm2,195,215,-220,,215,215
1,103,M,B,Raw,Charles Workman,OH,98.38,m3,120,127.5,-132.5,,127.5,127.5
1,103,M,B,Raw,Herb Yakel,OH,97.07,m4,100,115,120,125,120,120
1,103,M,B,Raw,Tom Boyer,OH,101.2,smp,155,162.5,-170,,162.5,162.5
1,113.5,M,B,Raw,Aaron Butler,OH,109.32,teen,147.5,162.5,176,182.5,176,176
2,113.5,M,B,Raw,Chris Foster,OH,106.96,teen,100,110,117.5,-122.5,117.5,117.5
1,113.5,M,B,Raw,Rob Wiseman,OH,113.04,nov,147.5,155,-165,,155,155
1,113.5,M,B,Raw,Rob Wiseman,OH,113.04,pure,147.5,155,-165,,155,155
DQ,113.5,M,B,Raw,Harry Wotring,OH,110.36,m1,-195,-195,-195,,,
1,113.5,M,B,Raw,Joe French,OH,112.94,sm1,142.5,155,167.5,,167.5,167.5
1,113.5,M,B,Raw,Joe French,OH,112.94,smp,142.5,155,167.5,,167.5,167.5
1,113.5,M,B,Raw,Danny Canter,OH,109.23,sm1,160,-185,185,,185,185
2,113.5,M,B,Raw,Les Boyer,OH,107.91,sm1,170,182.5,-187.5,,182.5,182.5
3,113.5,M,B,Raw,Teal Davis,OH,113.49,sm1,165,172.5,177.5,,177.5,177.5
1,113.5,M,B,Raw,W. Isaac Thomas,OH,110.13,pure,217.5,-222.5,-222.5,,217.5,217.5
2,113.5,M,B,Raw,Teal Davis,OH,104.01,pure,165,172.5,177.5,,177.5,177.5
1,113.5,M,B,Raw,W. Isaac Thomas,OH,110.13,sm2,217.5,-222.5,-222.5,,217.5,217.5
DQ,113.5,M,B,Raw,Jeff Ritzler,OH,110.99,sm2,-185,-185,-195,,,
1,127,M,B,Raw,Matt Lavelle,OH,126.1,hs,110,125,-137.5,,125,125
1,127,M,B,Raw,Jim Cheeseman,OH,126.19,teen,112.5,125,130,135,130,130
1,127,M,B,Raw,Joshua Short,OH,125.37,jr,162.5,-172.5,-172.5,,162.5,162.5
1,127,M,B,Raw,Dick Ledford,OH,120.79,smp,165,172.5,177.5,-180,177.5,177.5
1,127,M,B,Raw,Jeff Baker,OH,126.82,int,-190,190,207.5,-209.5,207.5,207.5
1,127,M,B,Raw,Jeff Peshek,OH,124.47,pure,260,-266,-266,,260,260
2,127,M,B,Raw,Paul Bryant #1,OH,122.02,pure,185,-190,,,185,185
1,127,M,B,Raw,Paul Bryant #1,OH,122.02,nov,185,-190,,,185,185
1,127,M,B,Raw,Paul Bryant #1,OH,122.02,sm1,185,-190,,,185,185
1,127,M,B,Raw,Jon Klotz,OH,123.2,smp,185,190,195,197.5,195,195
1,127,M,B,Raw,Jon Klotz,OH,123.2,sm2,185,190,195,197.5,195,195
1,127,M,B,Raw,Jeff Peshek,OH,124.47,sm2,260,-266,-266,,260,260
2,127,M,B,Raw,Palmo Aracrt,OH,126.42,sm2,225,-237.5,-237.5,,225,225
3,127,M,B,Raw,David Mason,OH,126.33,sm2,180,-192.5,-192.5,,180,180
1,127,M,B,Raw,Pete Kern,OH,117.03,m1,190,-197.5,-200,,190,190
1,127,M,B,Raw,Larry Porter,OH,121.56,m2,-125,-132.5,132.5,,132.5,132.5
1,143,M,B,Raw,Pat Barton,OH,138.12,teen,77.5,87.5,95,97.5,95,95
1,143,M,B,Raw,Tim Lamb,OH,132.13,hs,-100,105,117.5,,117.5,117.5
1,143,M,B,Raw,Jay Montgomery,KY,139.12,smp,93,215,-232.5,,215,215
2,143,M,B,Raw,Steve Williams,OH,128,smp,182.5,-205,-205,,182.5,182.5
3,143,M,B,Raw,Eric Wiessinger,OH,137.17,smp,147.5,157.5,-167.5,,157.5,157.5
1,143,M,B,Raw,Steve Williams,OH,128,nov,182.5,-205,-205,,182.5,182.5
1,143,M,B,Raw,Steve Williams,OH,128,pure,182.5,-205,-205,,182.5,182.5
1,143,M,B,Raw,Mike Giese,OH,142.56,m1,172.5,177.5,182.5,,182.5,182.5
1,143+,M,B,Raw,BJ Miller,OH,159.21,hs,127.5,137.5,-145,,137.5,137.5
DQ,143+,M,B,Raw,Earl Curry,OH,161.03,m1,-182.5,-182.5,-182.5,,,
1,143+,M,B,Raw,John Lovallen,OH,154.18,sm1,247.5,-275,-275,,247.5,247.5
1,143+,M,B,Raw,Dennis Herron,OH,155.36,smp,230,-242.5,-242.5,,230,230
