9-Mar-19            UPA Washington State Spring Championships
                                    BWt     WtCls                                                        Best                                             Best      Sub    Deadlift   Deadlift   Deadlift   Deadlift    Best                      Coeff
       Name         Age      Div                     Schwartz   Squat 1   Squat 2   Squat 3   Squat 4            Bench 1   Bench 2   Bench 3   Bench 4                                                                            PL Total                 Pl-Div-WtCl
                                     (Lb)     (Lb)                                                      Squat                                            Bench     Total      1          2          3          4       Deadlift                  Score
Isela Juarez        31       F-O-C 130.5    132.25   0.8242      176.37   -198.41    198.41    0        198.41   82.673    -99.207    99.207    0        99.207   297.62    209.44 231.48 253.53 259.04                253.53        551.15      206.05    1-F-O-C-132.3
Aiyana Mehta        22     F-AD-J-C 172     181.75   0.6448      115.74    132.28    148.81 154.32      148.81   88.184     99.207   -104.72    0        99.207   248.02    165.35 181.88 203.93 220.46                203.93       451.943     132.184    1-F-AD-J-C
Julienne Taylor     32    F-AD-SM-C 161     165.25   0.6789      159.83    176.37     192.9  203.93      192.9   88.184     93.696    99.207 -110.23     99.207   292.11    253.53 264.55 -270.06   0                  264.55      556.6615   171.42225   1-F-AD-SM-C
Krista Mahan        56    F-AD-M4-C135.5    148.75   0.7927      203.93   -214.95    214.95 220.46      214.95   110.23    -115.74   -115.74    0        110.23   325.18    209.44 214.95 -220.46   0                  214.95       540.127    194.2115   1-F-AD-M4-C
Allison Kelly       24     F-AD-O-C 163     165.25   0.6797      253.53   -264.55    264.55    0        264.55   121.25     126.76   -132.28    0        126.76   391.32    270.06 275.58 281.09 -286.6                281.09       672.403    207.3085   1-F-AD-O-C-165.3
Monica Gengler      37      F-R-SM 159      165.25   0.6859     -275.58   -275.58    275.58    0        275.58    143.3     159.83   -165.35    0        159.83   435.41     286.6  303.13 -325.18  0                  303.13       738.541    229.7765     1-F-R-SM
Melissa Clubb       27     F-AD-R-O 154.5   165.25   0.7022      270.06    292.11    303.13 308.64      303.13   110.23     115.74   -121.25    0        115.74   418.87    236.99 248.02 253.53 -264.55               253.53       672.403     214.171   1-F-AD-R-O-165.3
Emily Abbot         26     F-AD-R-O 323      SHW     0.4964      369.27    385.81   -407.85    0        385.81   369.27     159.83    170.86    0        369.27   755.08    358.25 385.81 -396.83   0                  385.81     1140.8805     256.887   1-F-AD-R-O-SHW
Ashley Condray      30       F-R-O   131    132.25   0.8213      308.64    330.69   -341.71    0        330.69   159.83     170.86   -176.37    0        170.86   501.55    407.85 -429.9     0     0                  407.85      909.3975   338.78625    1-F-R-O-132.3
Jose Solano         35      M-SM-C 216      220.25   0.5591      424.39   -451.94    451.94    0        451.94   242.51     259.04    264.55    0        264.55    716.5    451.94 485.01 496.04    0                  496.04       1212.53     307.505     1-M-SM-C
Pete O'Cain         34       M-O-C 189.5    198.25   0.6022      440.92    451.94   -468.48    0        451.94   319.67    -330.69   -330.69    0        319.67   771.61    518.08 -551.15 -551.15  0                  518.08      1289.691     352.287   1-M-O-C-198.3
Gavin Osegueda      24       M-O-C 192      198.25   0.5973      380.29   -396.83   -396.83    0        380.29   242.51     253.53   -270.06    0        253.53   633.82    407.85 435.41 462.97 -479.5                462.97     1096.7885   297.15675   2-M-O-C-198.3
Greg Delp           29     M-AD-O-C 194     198.25   0.5935      462.97     479.5    490.52 501.55      490.52   325.18     -336.2    -336.2    0        325.18    815.7    562.17 600.75     0     0                  600.75     1416.4555   381.32375   1-M-AD-O-C-198.3
Nathan Tebeck       29     M-AD-O-C 215     220.25   0.5605      402.34   -424.39   -424.39    0        402.34   259.04     275.58     286.6 -292.11      286.6   688.94    512.57 -540.13 -540.13  0                  512.57      1201.507    305.4725   1-M-AD-O-C-220.3
Colton Hodgson      26     M-AD-O-C 246      275.5   0.5347      363.76    402.34    435.41 451.94      435.41   330.69     352.74   -363.76    0        352.74   788.14    440.92 485.01 507.06 518.08                507.06     1295.2025   314.13625   1-M-AD-O-C-275.5
Job Cardenas        19    M-AD-R-T3 290      308.5   0.5132      407.85    451.94    507.06    0        507.06   248.02      286.6   -303.13    0         286.6   793.66    424.39 468.48 -512.57   0                  468.48     1262.1335     293.807   1-M-AD-R-T3
Jesse Stavano       35      M-R-SM 219      220.25   0.5558      457.45    496.04    534.62    0        534.62   314.16    -341.71    347.22 358.25      347.22   881.84    496.04 584.22     0     0                  496.04      1377.875     347.375    1-M-R-SM
Godai Furuta        30       M-R-O   181    181.75   0.6214      369.27    374.78    391.32    0        391.32   214.95    -220.46   -220.46    0        214.95   606.27    424.39 446.43 457.45    0                  457.45     1063.7195    299.8255   1-M-R-O-181.8
Nathan Brandhorst   25       M-R-O   267     275.5   0.5259      738.54    777.12    826.73    0        826.73   473.99     501.55       0      0        501.55   1328.3     716.5  777.12    0     0                  777.12      2105.393    502.2345   1-M-R-O-275.5
Saxton Sykes        22       M-R-J   335     SHW     0.4909      584.22    606.27     622.8    0         622.8   347.22     363.76   -385.81    0        363.76   986.56    595.24 611.78 628.31    0                  628.31     1614.8695   359.58425       1-M-R-J
Coby Peterson       16       M-R-J   242     242.5   0.5367      435.41   -473.99    473.99 -518.08     473.99   231.48     253.53   -275.58    0        253.53   727.52    319.67 358.25 396.83 -402.34               396.83      1124.346     273.717       2-M-R-J
Levi Briggs         16       M-R-J   181    181.75   0.6214      314.16     336.2   -374.78    0         336.2   214.95     231.48   -248.02    0        231.48   567.68   -314.16 347.22 385.81    0                  385.81      953.4895    268.7555       3-M-R-J
Ian Smith           16      M-R-T2 160      165.25    0.682      44.092       0         0      0        44.092   159.83     165.35    170.86 -176.37     170.86   214.95    292.11 303.13 -314.16   0                  303.13       518.081      160.27      1-M-R-T2
Jared Bachmeier     38      M-EQ-O 240       242.5   0.5392      755.08   -859.79       0      0        755.08   413.36        0     -722.01    0        413.36   1168.4    600.75 -705.47    0     0                  600.75     1769.1915     432.708    1-M-EQ-O-242.5
9-Mar-19       UPA Washington State Spring Championships
                             BWt    WtCls                                               Best     Coeff
        Name   Age    Div                    Schwartz   Bench 1   Bench 2   Bench 3                      Pl-Div-WtCl
                             (Lb)    (Lb)                                              Bench    Score
Jeff Schlect   49    M-R-O   179    181.75   0.6262     231.48    242.51    -248.02   242.506   68.882   1-M-R-O-181.8
