Division,WeightClassKg,Place,Name,Team,BodyweightKg,Best3SquatKg,Best3BenchKg,Best3DeadliftKg,TotalKg,Equipment,Event,Sex
Div 3,44.23,1,Brittany Trevino,San Diego,43.45,122.47,61.23,122.47,306.17,Single-ply,SBD,F
Div 3,44.23,2,Lexus Gutierrez,Mathis,43.54,106.59,56.7,129.27,292.57,Single-ply,SBD,F
Div 3,44.23,3,Clarissa Garcia,Yoakum,42.37,99.79,47.63,113.4,260.82,Single-ply,SBD,F
Div 3,44.23,4,Adrianna Villafuerte,Edinburg Idea College Prep,43.36,102.06,45.36,111.13,258.55,Single-ply,SBD,F
Div 3,44.23,5,Samantha Sanchez,Natalia,41.28,95.25,52.16,108.86,256.28,Single-ply,SBD,F
Div 3,44.23,6,Gabby Zarate,San Diego,43,95.25,38.56,120.2,254.01,Single-ply,SBD,F
Div 3,44.23,7,Anastasia Rodriguez,Natalia,43.64,97.52,61.23,90.72,249.48,Single-ply,SBD,F
Div 3,44.23,8,Lesette Munoz,Mathis,43.54,90.72,47.63,97.52,235.87,Single-ply,SBD,F
Div 3,44.23,9,Ariana Aguilar,Stockdale,39.64,95.25,40.82,97.52,233.6,Single-ply,SBD,F
Div 3,44.23,10,Jaylin Haughie,Center Point,41.55,86.18,47.63,95.25,229.06,Single-ply,SBD,F
Div 3,44.23,11,Bailey Luckman,Jourdanton,44.09,92.99,52.16,83.91,229.06,Single-ply,SBD,F
Div 3,44.23,12,Amber Fuentes,Odem,43.45,83.91,40.82,92.99,217.72,Single-ply,SBD,F
Div 3,44.23,13,Amber Gallegos,San Diego,43.27,79.38,52.16,79.38,210.92,Single-ply,SBD,F
Div 3,44.23,14,Angelica Hartsfield,Kenedy,41.91,72.57,36.29,99.79,208.65,Single-ply,SBD,F
Div 3,44.23,DQ,Ashley Martinez,Edinburg Idea College Prep,42.82,,,,,Single-ply,SBD,F
Div 3,47.85,1,Regina Garza,Natalia,45.9,124.74,61.23,136.08,322.05,Single-ply,SBD,F
Div 3,47.85,2,Sarah Jo Campos,San Diego,46.9,120.2,56.7,127.01,303.91,Single-ply,SBD,F
Div 3,47.85,3,Alexis Longoria,Yorktown,47.08,120.2,45.36,106.59,272.16,Single-ply,SBD,F
Div 3,47.85,4,Annie Ochoa,Yorktown,47.54,111.13,45.36,108.86,265.35,Single-ply,SBD,F
Div 3,47.85,5,Amber Trevino,Edinburg Quest College Prep,46.63,88.45,63.5,97.52,249.48,Single-ply,SBD,F
Div 3,47.85,6,Breanna Candela,Odem,46.72,92.99,40.82,113.4,247.21,Single-ply,SBD,F
Div 3,47.85,7,Savanna Sanchez,Benavides,46.49,95.25,40.82,108.86,244.94,Single-ply,SBD,F
Div 3,47.85,8,Reina de la Paz,Santa Gertrudis Academy,47.54,102.06,47.63,95.25,244.94,Single-ply,SBD,F
Div 3,47.85,9,Francell Menendez,Edinburg Quest College Prep,46.9,79.38,45.36,117.93,242.67,Single-ply,SBD,F
Div 3,47.85,10,Ayssa Hinojosa,Hebbronville,46.27,86.18,38.56,115.67,240.4,Single-ply,SBD,F
Div 3,47.85,11,Brinlee Freeman,Altair Rice,46.99,86.18,36.29,113.4,235.87,Single-ply,SBD,F
Div 3,47.85,DQ,Alexia Mia Dy,San Antonio Cole,46.54,104.33,45.36,127.01,,Single-ply,SBD,F
Div 3,47.85,DQ,Nyelli Garza,Hebbronville,46.99,,,,,Single-ply,SBD,F
Div 3,51.94,1,Liszette Rosando-Ortiz,San Antonio Brooks Academy,50.44,133.81,97.52,136.08,367.41,Single-ply,SBD,F
Div 3,51.94,2,Katherine Espinoza,Hebbronville,51.71,145.15,61.23,142.88,349.27,Single-ply,SBD,F
Div 3,51.94,3,Gabby Garcia,Freer,50.62,136.08,63.5,129.27,328.85,Single-ply,SBD,F
Div 3,51.94,4,Karisa Ramirez,Hebbronville,50.98,131.54,56.7,129.27,317.51,Single-ply,SBD,F
Div 3,51.94,5,Carolina Flores,Hebbronville,51.44,120.2,54.43,142.88,317.51,Single-ply,SBD,F
Div 3,51.94,6,Iris Cantu,Natalia,50.53,136.08,63.5,113.4,312.98,Single-ply,SBD,F
Div 3,51.94,7,Caitlyn Berry,Bishop,50.17,117.93,65.77,122.47,306.17,Single-ply,SBD,F
Div 3,51.94,8,Vanessa Vega,Skidmore-Tynan,50.8,124.74,61.23,120.2,306.17,Single-ply,SBD,F
Div 3,51.94,9,Jasmine Gomez,Natalia,50.89,124.74,65.77,115.67,306.17,Single-ply,SBD,F
Div 3,51.94,10,Camryn Galvan,San Diego,51.26,117.93,45.36,131.54,294.84,Single-ply,SBD,F
Div 3,51.94,11,Isabel Soliz,Bishop,49.8,111.13,61.23,113.4,285.76,Single-ply,SBD,F
Div 3,51.94,12,Phaidra Malcher,Poth,50.44,120.2,56.7,99.79,276.69,Single-ply,SBD,F
Div 3,51.94,13,Robin Naranjo,Yorktown,50.89,102.06,49.9,117.93,269.89,Single-ply,SBD,F
Div 3,51.94,DQ,Caitlin Ambeau,Altair Rice,48.72,108.86,,,,Single-ply,SBD,F
Div 3,56.02,1,Julie Gonzalez,San Diego,53.61,149.69,54.43,138.35,342.46,Single-ply,SBD,F
Div 3,56.02,2,Baily Pastrano,San Diego,54.88,133.81,63.5,136.08,333.39,Single-ply,SBD,F
Div 3,56.02,3,Amy Jo Wick,Weimar,53.71,129.27,63.5,136.08,328.85,Single-ply,SBD,F
Div 3,56.02,4,Christy Gonzalez,Edinburg Idea College Prep,54.16,129.27,70.31,129.27,328.85,Single-ply,SBD,F
Div 3,56.02,5,Jordan Moore,Hallettsville,55.07,131.54,68.04,129.27,328.85,Single-ply,SBD,F
Div 3,56.02,6,Marissa Olvera,Center Point,54.43,120.2,65.77,136.08,322.05,Single-ply,SBD,F
Div 3,56.02,7,Mia Auster,Odem,55.97,113.4,58.97,136.08,308.44,Single-ply,SBD,F
Div 3,56.02,8,Serenity Alaniz,Karnes City,54.79,136.08,45.36,124.74,306.17,Single-ply,SBD,F
Div 3,56.02,9,Ava Garza,Hebbronville,55.88,108.86,56.7,129.27,294.84,Single-ply,SBD,F
Div 3,56.02,10,Jazmin Estrada,San Antonio Brooks Academy,54.61,113.4,61.23,117.93,292.57,Single-ply,SBD,F
Div 3,56.02,11,Madison Salinas,Hebbronville,55.07,115.67,54.43,117.93,288.03,Single-ply,SBD,F
Div 3,56.02,12,Gail Salinas,Cotulla,53.89,108.86,49.9,127.01,285.76,Single-ply,SBD,F
Div 3,60.1,1,Alee Ruiz,Dilley,59.33,161.03,65.77,151.95,378.75,Single-ply,SBD,F
Div 3,60.1,2,Julianna Morales,Natalia,58.79,131.54,74.84,151.95,358.34,Single-ply,SBD,F
Div 3,60.1,3,Jolynn Moreno,Hebbronville,59.87,138.35,70.31,131.54,340.19,Single-ply,SBD,F
Div 3,60.1,4,McKayla Salaiz,San Diego,59.78,138.35,68.04,113.4,319.78,Single-ply,SBD,F
Div 3,60.1,5,Sandra Tovar,Skidmore-Tynan,59.15,115.67,65.77,129.27,310.71,Single-ply,SBD,F
Div 3,60.1,6,Emma Johnson,Poth,57.79,115.67,63.5,122.47,301.64,Single-ply,SBD,F
Div 3,60.1,7,Raina Rivera,Bishop,57.42,120.2,54.43,124.74,299.37,Single-ply,SBD,F
Div 3,60.1,8,Cianna Mercado,Mathis,58.88,115.67,54.43,122.47,292.57,Single-ply,SBD,F
Div 3,60.1,9,Madeline Dougherty,Skidmore-Tynan,58.69,117.93,54.43,111.13,283.5,Single-ply,SBD,F
Div 3,60.1,10,Annabel Garcia,Cotulla,58.97,120.2,54.43,108.86,283.5,Single-ply,SBD,F
Div 3,60.1,11,Tori Luce,Brackettville Brackett,58.06,106.59,56.7,111.13,274.42,Single-ply,SBD,F
Div 3,60.1,12,Tressa Reading,Knippa,60.1,120.2,52.16,61.23,233.6,Single-ply,SBD,F
Div 3,60.1,DQ,Meranda Segura,Karnes City,58.33,,,,,Single-ply,SBD,F
Div 3,60.1,DQ,Hailey Ferguson,Altair Rice,58.51,,,,,Single-ply,SBD,F
Div 3,67.36,1,Nallely Gutierrez,San Antonio Brooks Academy,65.77,165.56,97.52,167.83,430.91,Single-ply,SBD,F
Div 3,67.36,2,Kiersten Paul,La Pryor,65.14,147.42,79.38,145.15,371.95,Single-ply,SBD,F
Div 3,67.36,3,Olivia Garcia,Hebbronville,67.31,149.69,68.04,147.42,365.14,Single-ply,SBD,F
Div 3,67.36,4,Abby Esquivel,Mathis,64.05,145.15,63.5,154.22,362.87,Single-ply,SBD,F
Div 3,67.36,5,Kayci Molina,Runge,66.22,147.42,63.5,149.69,360.61,Single-ply,SBD,F
Div 3,67.36,6,Briana Cruz,Mathis,63.96,149.69,65.77,138.35,353.8,Single-ply,SBD,F
Div 3,67.36,7,T'Nia Sample,San Antonio Cole,63.05,138.35,65.77,140.61,344.73,Single-ply,SBD,F
Div 3,67.36,8,Lauren Lara,San Antonio Brooks Academy,65.05,129.27,68.04,142.88,340.19,Single-ply,SBD,F
Div 3,67.36,9,Makayla Cantu,Freer,62.23,133.81,68.04,136.08,337.93,Single-ply,SBD,F
Div 3,67.36,10,Mercedes Rodriguez,San Diego,67.22,151.95,56.7,129.27,337.93,Single-ply,SBD,F
Div 3,67.36,11,Aleasha Aguillon,Freer,64.23,136.08,54.43,138.35,328.85,Single-ply,SBD,F
Div 3,67.36,DQ,Victoria Elizondo,Bishop,62.78,,,,,Single-ply,SBD,F
Div 3,75.07,1,Catrina Soto,Skidmore-Tynan,71.94,181.44,92.99,179.17,453.59,Single-ply,SBD,F
Div 3,75.07,2,Karina Avila,Hebbronville,72.12,201.85,77.11,174.63,453.59,Single-ply,SBD,F
Div 3,75.07,3,Brianna Guillen,San Diego,74.66,161.03,70.31,151.95,383.29,Single-ply,SBD,F
Div 3,75.07,4,Gabby Albiar,Kenedy,73.57,147.42,74.84,158.76,381.02,Single-ply,SBD,F
Div 3,75.07,5,Alexis Salazar,George West,74.48,156.49,74.84,147.42,378.75,Single-ply,SBD,F
Div 3,75.07,6,Rakel Aguero,Jourdanton,72.03,158.76,77.11,138.35,374.21,Single-ply,SBD,F
Div 3,75.07,7,Loren Chavez,San Antonio Brooks Academy,73.84,142.88,83.91,142.88,369.68,Single-ply,SBD,F
Div 3,75.07,8,Adrianna Landry,San Antonio Brooks Academy,70.49,142.88,72.57,138.35,353.8,Single-ply,SBD,F
Div 3,75.07,9,Kinley Liska,Karnes City,72.67,149.69,65.77,136.08,351.53,Single-ply,SBD,F
Div 3,75.07,10,Kendall Straube,Three Rivers,67.77,133.81,61.23,142.88,337.93,Single-ply,SBD,F
Div 3,75.07,11,Jozelle Rodriguez,Mathis,73.94,138.35,68.04,131.54,337.93,Single-ply,SBD,F
Div 3,75.07,DQ,Analyssa Gonzales,Mathis,73.84,,,,,Single-ply,SBD,F
Div 3,82.33,1,Alexis Gallegos,San Diego,78.56,181.44,102.06,158.76,442.25,Single-ply,SBD,F
Div 3,82.33,2,Piper Bush,Center Point,80.2,165.56,86.18,145.15,396.89,Single-ply,SBD,F
Div 3,82.33,3,Cassie Castro,Poth,77.02,165.56,63.5,158.76,387.82,Single-ply,SBD,F
Div 3,82.33,4,Natalia Ortiz,San Antonio Brooks Academy,77.84,151.95,83.91,149.69,385.55,Single-ply,SBD,F
Div 3,82.33,5,Amanda Vasquez,Skidmore-Tynan,79.02,149.69,77.11,145.15,371.95,Single-ply,SBD,F
Div 3,82.33,6,Cierra Lopez,Jourdanton,77.66,151.95,72.57,145.15,369.68,Single-ply,SBD,F
Div 3,82.33,7,Larissa Miller,Kenedy,79.11,136.08,79.38,149.69,365.14,Single-ply,SBD,F
Div 3,82.33,8,Brittney Stafford,Hebbronville,79.65,158.76,63.5,142.88,365.14,Single-ply,SBD,F
Div 3,82.33,9,Harlie Guerra,Bishop,80.74,154.22,77.11,133.81,365.14,Single-ply,SBD,F
Div 3,82.33,10,Allyson Rangel,Freer,81.37,170.1,49.9,140.61,360.61,Single-ply,SBD,F
Div 3,82.33,11,Melissa Salinas,Mathis,78.65,151.95,68.04,136.08,356.07,Single-ply,SBD,F
Div 3,82.33,12,Bryanna Gonzalez,Bishop,76.66,142.88,74.84,131.54,349.27,Single-ply,SBD,F
Div 3,90.04,1,Abby Hernandez,San Diego,87.82,183.7,79.38,142.88,405.97,Single-ply,SBD,F
Div 3,90.04,2,Breann Garza,Yoakum,89.9,158.76,63.5,167.83,390.09,Single-ply,SBD,F
Div 3,90.04,3,Kyana Gayden,Universal City Randolph,88.09,170.1,58.97,154.22,383.29,Single-ply,SBD,F
Div 3,90.04,4,Araceli Loeva,Bishop,86.82,145.15,77.11,142.88,365.14,Single-ply,SBD,F
Div 3,90.04,5,Haylynn Garza,Marion,85.28,138.35,68.04,147.42,353.8,Single-ply,SBD,F
Div 3,90.04,6,Priscilla Garza,Edinburg Idea College Prep,82.92,147.42,61.23,136.08,344.73,Single-ply,SBD,F
Div 3,90.04,7,Aubry Williams,Goliad,82.55,142.88,61.23,133.81,337.93,Single-ply,SBD,F
Div 3,90.04,8,Adriana Martinez,Kenedy,82.92,142.88,72.57,122.47,337.93,Single-ply,SBD,F
Div 3,90.04,9,Olivia Monsevais,Karnes City,83.55,142.88,63.5,131.54,337.93,Single-ply,SBD,F
Div 3,90.04,10,Abigail Vera,Three Rivers,83.73,142.88,52.16,136.08,331.12,Single-ply,SBD,F
Div 3,90.04,11,Daniela Quintero,Cotulla,86.27,117.93,65.77,136.08,319.78,Single-ply,SBD,F
Div 3,90.04,DQ,Esmeralda Hernandez,Jourdanton,88.72,,,,,Single-ply,SBD,F
Div 3,100.02,1,Jasmyne Martinez,Cotulla,92.08,213.19,111.13,167.83,492.15,Single-ply,SBD,F
Div 3,100.02,2,Jennefer Lozano,Hebbronville,92.8,183.7,90.72,185.97,460.4,Single-ply,SBD,F
Div 3,100.02,3,Stephanie Figueroa,Bishop,92.62,190.51,90.72,145.15,426.38,Single-ply,SBD,F
Div 3,100.02,4,Alexia Soliz,San Diego,92.08,179.17,79.38,158.76,417.3,Single-ply,SBD,F
Div 3,100.02,5,Ilse Guerrero,Jourdanton,93.62,181.44,81.65,140.61,403.7,Single-ply,SBD,F
Div 3,100.02,6,Argentina Garcia,La Villa,90.45,172.37,79.38,140.61,392.36,Single-ply,SBD,F
Div 3,100.02,7,Amberosia Aleman,Kenedy,90.45,154.22,77.11,158.76,390.09,Single-ply,SBD,F
Div 3,100.02,8,Modelyn Tarando,Freer,92.62,151.95,54.43,136.08,342.46,Single-ply,SBD,F
Div 3,100.02,9,Malaysia Rubit,Goliad,95.71,142.88,54.43,142.88,340.19,Single-ply,SBD,F
Div 3,100.02,10,Jackie Salazar,Ben Bolt-Palito Blanco,94.12,131.54,54.43,138.35,324.32,Single-ply,SBD,F
Div 3,100.02,DQ,Summer Castro,Lyford,95.44,151.95,,,,Single-ply,SBD,F
Div 3,100.02,DQ,Priscilla Tovar,Lyford,96.43,156.49,,,,Single-ply,SBD,F
Div 3,117.71,1,Ebony Vega,Mathis,114.03,213.19,83.91,179.17,476.27,Single-ply,SBD,F
Div 3,117.71,2,Samantha Heimer,San Antonio Brooks Academy,102.51,183.7,142.88,142.88,469.47,Single-ply,SBD,F
Div 3,117.71,3,Nikki Rangel,Rocksprings,100.06,183.7,83.91,151.95,419.57,Single-ply,SBD,F
Div 3,117.71,4,Elizabeth Ledesma,Riviera Kaufer,104.42,181.44,83.91,142.88,408.23,Single-ply,SBD,F
Div 3,117.71,5,Marissa Hernandez,Kenedy,110.59,156.49,72.57,149.69,378.75,Single-ply,SBD,F
Div 3,117.71,6,Mykayla Stehle,Ben Bolt-Palito Blanco,109.41,145.15,83.91,131.54,360.61,Single-ply,SBD,F
Div 3,117.71,7,Jazmine Esquivel,Altair Rice,111.49,151.95,63.5,136.08,351.53,Single-ply,SBD,F
Div 3,117.71,8,Samantha Crisman,Santa Gertrudis Academy,114.31,136.08,83.91,131.54,351.53,Single-ply,SBD,F
Div 3,117.71,9,Madison Oaks,Yorktown,110.4,149.69,61.23,127.01,337.93,Single-ply,SBD,F
Div 3,117.71,10,Monika Morales,Edinburg Idea College Prep,107.41,151.95,72.57,111.13,335.66,Single-ply,SBD,F
Div 3,117.71,11,Jodi Linscomb,Freer,104.78,140.61,43.09,136.08,319.78,Single-ply,SBD,F
Div 3,117.71,12,Esmeralda Rojas,Yoakum,100.88,133.81,49.9,131.54,315.25,Single-ply,SBD,F
Div 3,117.71+,1,Julie Martinez,Cotulla,157.22,197.31,108.86,167.83,474,Single-ply,SBD,F
Div 3,117.71+,2,Victoria Gonzales,Cotulla,124.83,167.83,83.91,156.49,408.23,Single-ply,SBD,F
Div 3,117.71+,3,Jacklyn Perez,La Pryor,118.75,188.24,74.84,142.88,405.97,Single-ply,SBD,F
Div 3,117.71+,4,Jasmine Sanchez,La Villa,124.65,163.29,77.11,156.49,396.89,Single-ply,SBD,F
Div 3,117.71+,5,Amber Gonzales,Kenedy,125.55,117.93,90.72,158.76,367.41,Single-ply,SBD,F
Div 3,117.71+,6,Bethany Gonzales,Santa Gertrudis Academy,129.36,147.42,72.57,124.74,344.73,Single-ply,SBD,F
Div 3,117.71+,7,Shania Zapata,Benavides,118.93,145.15,56.7,133.81,335.66,Single-ply,SBD,F
Div 3,117.71+,8,Kimberly Rivera,San Diego,118.21,136.08,52.16,124.74,312.98,Single-ply,SBD,F
Div 3,117.71+,9,Aracely Nieto,George West,122.02,102.06,52.16,124.74,278.96,Single-ply,SBD,F
Div 3,117.71+,10,Aunriette Davis,Goliad,133.27,90.72,63.5,113.4,267.62,Single-ply,SBD,F
Div 3,117.71+,11,Sophia Arredondo,San Antonio Brooks Academy,128.19,86.18,56.7,113.4,256.28,Single-ply,SBD,F
Div 3,117.71+,DQ,Zoe Slusher,Banquete,122.83,,,,,Single-ply,SBD,F
Div 3,,NS,Destiny Terrazas,Brackettville Brackett,,,,,,Single-ply,SBD,F
Div 3,,NS,Sierra Caro,Falfurrias,,,,,,Single-ply,SBD,F
Div 3,,NS,Sydney Miller,Santa Gertrudis Academy,,,,,,Single-ply,SBD,F
Div 2,44.23,1,Mari Lopez,Corpus Christi West Oso,41.82,108.86,49.9,120.2,278.96,Single-ply,SBD,F
Div 2,44.23,2,Aracely Juarez,Hidalgo Early College,43.27,104.33,43.09,127.01,274.42,Single-ply,SBD,F
Div 2,44.23,3,Yaira Velez,Rio Hondo,43.73,97.52,58.97,104.33,260.82,Single-ply,SBD,F
Div 2,44.23,4,Aaliyah Garcia,Crystal City,43.54,90.72,56.7,111.13,258.55,Single-ply,SBD,F
Div 2,44.23,5,Savanah Sandoval,Kingsville King,44.23,86.18,47.63,99.79,233.6,Single-ply,SBD,F
Div 2,44.23,6,Caitlin Thrasher,Bandera,43.54,95.25,38.56,97.52,231.33,Single-ply,SBD,F
Div 2,44.23,7,June Ji Peters,Columbus,39.46,90.72,34.02,104.33,229.06,Single-ply,SBD,F
Div 2,44.23,8,Taitlin Nguyen,Rockport-Fulton,43.64,88.45,34.02,106.59,229.06,Single-ply,SBD,F
Div 2,44.23,9,Kaitlyn Gonzalez,Robstown,44.18,74.84,43.09,108.86,226.8,Single-ply,SBD,F
Div 2,44.23,10,Doralicia Patlan,Lytle,42.27,102.06,38.56,72.57,213.19,Single-ply,SBD,F
Div 2,44.23,11,Nadia Rodriguez,Hidalgo Early College,43,81.65,36.29,90.72,208.65,Single-ply,SBD,F
Div 2,44.23,DQ,Sandra Paul,Beeville Jones,39.92,,,,,Single-ply,SBD,F
Div 2,44.23,DQ,Alyssa Tovar,Rio Hondo,43.73,,,,,Single-ply,SBD,F
Div 2,47.85,1,Bri Hernandez,Corpus Christi West Oso,46.81,133.81,63.5,117.93,315.25,Single-ply,SBD,F
Div 2,47.85,2,Alyssa Canales,Corpus Christi West Oso,47.72,129.27,49.9,108.86,288.03,Single-ply,SBD,F
Div 2,47.85,3,Diamond Teran,Hidalgo Early College,45.99,108.86,54.43,122.47,285.76,Single-ply,SBD,F
Div 2,47.85,4,Amri Benitez,Rio Hondo,45.45,108.86,54.43,102.06,265.35,Single-ply,SBD,F
Div 2,47.85,5,Caitlin Watson,Bandera,46.45,90.72,47.63,111.13,249.48,Single-ply,SBD,F
Div 2,47.85,6,Abby Saegert,Rockport-Fulton,46.81,104.33,36.29,104.33,244.94,Single-ply,SBD,F
Div 2,47.85,7,Raquel Longoria,Kingsville King,47.63,99.79,45.36,97.52,242.67,Single-ply,SBD,F
Div 2,47.85,8,Celeste Correa,Carrizo Springs,46.18,92.99,34.02,104.33,231.33,Single-ply,SBD,F
Div 2,47.85,DQ,Isanelli Martinez,Crystal City,47.45,90.72,,,,Single-ply,SBD,F
Div 2,47.85,DQ,Jamie Nail,Beeville Jones,46.63,,,,,Single-ply,SBD,F
Div 2,47.85,DQ,Janet de la Sancha,Lytle,46.08,,,,,Single-ply,SBD,F
Div 2,47.85,DQ,Stephany Villarreal,Zapata,47.45,,,,,Single-ply,SBD,F
Div 2,51.94,1,Kaitlyn Pelitire,Beeville Jones,50.71,167.83,77.11,151.95,396.89,Single-ply,SBD,F
Div 2,51.94,2,Sophia Romero,Pleasanton,51.17,149.69,88.45,142.88,381.02,Single-ply,SBD,F
Div 2,51.94,3,Sydney Martinez,Crystal City,51.89,138.35,70.31,151.95,360.61,Single-ply,SBD,F
Div 2,51.94,4,Karina Garay,Carrizo Springs,51.44,140.61,88.45,127.01,356.07,Single-ply,SBD,F
Div 2,51.94,5,Rebecca Rocha,Rio Hondo,51.89,142.88,83.91,117.93,344.73,Single-ply,SBD,F
Div 2,51.94,6,Brea Eguia,Crystal City,51.44,127.01,70.31,115.67,312.98,Single-ply,SBD,F
Div 2,51.94,7,Analee Uriegas,San Antonio Holy Cross,51.62,120.2,63.5,127.01,310.71,Single-ply,SBD,F
Div 2,51.94,8,Gaby Moncada,Crystal City,50.8,111.13,49.9,102.06,263.08,Single-ply,SBD,F
Div 2,51.94,9,Illiana Moreno,Ingleside,51.07,92.99,52.16,115.67,260.82,Single-ply,SBD,F
Div 2,51.94,10,Journey Shoemake,Devine,50.08,90.72,47.63,90.72,229.06,Single-ply,SBD,F
Div 2,51.94,DQ,Monique Covarrubias,Lytle,49.44,90.72,,,,Single-ply,SBD,F
Div 2,51.94,DQ,EmmaLee Lopez,Raymondville,51.89,97.52,,,,Single-ply,SBD,F
Div 2,56.02,1,Yvette Flores,Crystal City,53.43,167.83,95.25,138.35,401.43,Single-ply,SBD,F
Div 2,56.02,2,Haley Sharp,Beeville Jones,54.52,151.95,79.38,138.35,369.68,Single-ply,SBD,F
Div 2,56.02,3,Aly Urrabazo,Crystal City,55.7,145.15,77.11,145.15,367.41,Single-ply,SBD,F
Div 2,56.02,4,Andrea Guerra,Zapata,55.16,147.42,77.11,140.61,365.14,Single-ply,SBD,F
Div 2,56.02,5,Jiulda Villalobos,Hidalgo Early College,55.97,147.42,79.38,136.08,362.87,Single-ply,SBD,F
Div 2,56.02,6,Gracie Lopez,Corpus Christi West Oso,53.43,138.35,68.04,131.54,337.93,Single-ply,SBD,F
Div 2,56.02,7,Falyn Currie,Orange Grove,54.34,127.01,72.57,138.35,337.93,Single-ply,SBD,F
Div 2,56.02,8,Codi Steenbeke,Pleasanton,55.43,131.54,63.5,133.81,328.85,Single-ply,SBD,F
Div 2,56.02,9,Maria Martinez,Crystal City,55.7,124.74,61.23,131.54,317.51,Single-ply,SBD,F
Div 2,56.02,10,Celine Samarripa,Devine,54.7,113.4,61.23,108.86,283.5,Single-ply,SBD,F
Div 2,56.02,11,Gloria Betancourt,Hidalgo Early College,55.79,111.13,47.63,122.47,281.23,Single-ply,SBD,F
Div 2,60.1,1,Victoria Ortega,Rio Hondo,58.51,181.44,97.52,145.15,424.11,Single-ply,SBD,F
Div 2,60.1,2,Pamela Avila,Crystal City,58.97,140.61,81.65,140.61,362.87,Single-ply,SBD,F
Div 2,60.1,3,Claudia Chapa,Robstown,58.97,133.81,68.04,149.69,351.53,Single-ply,SBD,F
Div 2,60.1,4,Kelly Huerta,Carrizo Springs,59.69,142.88,68.04,131.54,342.46,Single-ply,SBD,F
Div 2,60.1,5,Joanna Arredondo,Crystal City,58.51,136.08,70.31,131.54,337.93,Single-ply,SBD,F
Div 2,60.1,6,Breanna Santos,San Antonio Holy Cross,56.88,147.42,70.31,117.93,335.66,Single-ply,SBD,F
Div 2,60.1,7,Autumn Lopez,San Antonio Holy Cross,58.51,138.35,79.38,111.13,328.85,Single-ply,SBD,F
Div 2,60.1,8,Lauren Soliz,Orange Grove,59.6,136.08,49.9,115.67,301.64,Single-ply,SBD,F
Div 2,60.1,9,Lexi Reyes,Carrizo Springs,57.88,115.67,61.23,117.93,294.84,Single-ply,SBD,F
Div 2,60.1,10,Jennifer Montellano,Crystal City,59.51,113.4,58.97,111.13,283.5,Single-ply,SBD,F
Div 2,60.1,11,Sarina Trevino,Corpus Christi West Oso,59.78,117.93,49.9,115.67,283.5,Single-ply,SBD,F
Div 2,60.1,DQ,Sadie Salazar,Beeville Jones,59.78,129.27,47.63,,,Single-ply,SBD,F
Div 2,67.36,1,Andrea Ramirez,Rio Hondo,62.51,192.78,111.13,172.37,476.27,Single-ply,SBD,F
Div 2,67.36,2,Kianna Lara,Crystal City,66.5,172.37,95.25,136.08,403.7,Single-ply,SBD,F
Div 2,67.36,3,Andrea Montes,Zapata,66.32,147.42,77.11,156.49,381.02,Single-ply,SBD,F
Div 2,67.36,4,Khelsea Cray,Gonzales,64.86,149.69,68.04,161.03,378.75,Single-ply,SBD,F
Div 2,67.36,5,Julianna Barrera,Port Isabel,61.33,138.35,77.11,147.42,362.87,Single-ply,SBD,F
Div 2,67.36,6,Enid Lopez,Zapata,63.05,142.88,86.18,133.81,362.87,Single-ply,SBD,F
Div 2,67.36,7,Dana Mican,Cuero,65.14,151.95,61.23,149.69,362.87,Single-ply,SBD,F
Div 2,67.36,8,Frida Olarte,Hidalgo Early College,66.22,145.15,79.38,122.47,347,Single-ply,SBD,F
Div 2,67.36,9,Cassie Rangel,Corpus Christi West Oso,66.77,136.08,70.31,136.08,342.46,Single-ply,SBD,F
Div 2,67.36,10,Kayla Jimenez,Crystal City,65.95,138.35,61.23,133.81,333.39,Single-ply,SBD,F
Div 2,75.07,1,Kiana Lopez,Crystal City,74.93,188.24,88.45,154.22,430.91,Single-ply,SBD,F
Div 2,75.07,2,Franchesca Sandoval,Port Isabel,67.86,174.63,77.11,156.49,408.23,Single-ply,SBD,F
Div 2,75.07,3,Kazzandra Alaniz,Zapata,72.57,154.22,83.91,158.76,396.89,Single-ply,SBD,F
Div 2,75.07,4,Brooke Ngo,Orange Grove,72.94,156.49,61.23,172.37,390.09,Single-ply,SBD,F
Div 2,75.07,5,Audrey Gonzales,Geronimo Navarro,73.21,156.49,65.77,165.56,387.82,Single-ply,SBD,F
Div 2,75.07,6,Adriana Lopez,Raymondville,73.3,161.03,74.84,138.35,374.21,Single-ply,SBD,F
Div 2,75.07,7,Victoria Villarreal,Somerset,68.95,145.15,61.23,142.88,349.27,Single-ply,SBD,F
Div 2,75.07,8,Molly Fuller,Devine,74.57,136.08,72.57,140.61,349.27,Single-ply,SBD,F
Div 2,75.07,9,Desiree Moncevaiz,Raymondville,73.75,142.88,61.23,136.08,340.19,Single-ply,SBD,F
Div 2,75.07,10,Cristal Garcia,Gonzales,73.21,133.81,54.43,149.69,337.93,Single-ply,SBD,F
Div 2,75.07,11,Mikaela Snyder,Port Isabel,74.93,138.35,52.16,142.88,333.39,Single-ply,SBD,F
Div 2,75.07,DQ,Esmeralda Hinojosa,Raymondville,74.03,,,,,Single-ply,SBD,F
Div 2,75.07,DQ,Ashley Vargas,Corpus Christi West Oso,72.39,,,,,Single-ply,SBD,F
Div 2,82.33,1,Krystal Ortiz,Beeville Jones,80.65,174.63,115.67,190.51,480.81,Single-ply,SBD,F
Div 2,82.33,2,Lauryn Botello,Beeville Jones,80.1,167.83,95.25,140.61,403.7,Single-ply,SBD,F
Div 2,82.33,3,Illea Lugo,Somerset,81.56,172.37,83.91,145.15,401.43,Single-ply,SBD,F
Div 2,82.33,4,Angela Rendon,Hidalgo Early College,79.92,174.63,72.57,145.15,392.36,Single-ply,SBD,F
Div 2,82.33,5,Alyssa Alva,Pearsall,80.29,163.29,65.77,156.49,385.55,Single-ply,SBD,F
Div 2,82.33,6,Anyssa Barrientes,Rio Hondo,81.65,147.42,83.91,154.22,385.55,Single-ply,SBD,F
Div 2,82.33,7,Amanda Rivera,Poteet,75.84,172.37,58.97,142.88,374.21,Single-ply,SBD,F
Div 2,82.33,8,Ivy Rodriguez,Bandera,78.29,149.69,61.23,151.95,362.87,Single-ply,SBD,F
Div 2,82.33,9,Jazlynn Lewis,Bandera,80.56,131.54,63.5,138.35,333.39,Single-ply,SBD,F
Div 2,82.33,10,Rosita Robles,Zapata,77.11,133.81,58.97,133.81,326.59,Single-ply,SBD,F
Div 2,82.33,11,Madysen Devoria,Somerset,76.57,124.74,65.77,127.01,317.51,Single-ply,SBD,F
Div 2,82.33,12,Rebecca Fowler,Devine,79.11,136.08,68.04,113.4,317.51,Single-ply,SBD,F
Div 2,90.04,1,Katelin Van Dong,Lytle,86.73,174.63,79.38,176.9,430.91,Single-ply,SBD,F
Div 2,90.04,2,Mariana Botello,Beeville Jones,87.27,192.78,92.99,138.35,424.11,Single-ply,SBD,F
Div 2,90.04,3,Yazmine Garcia,Pearsall,84.1,165.56,72.57,158.76,396.89,Single-ply,SBD,F
Div 2,90.04,4,Paige Cote,Devine,87.09,156.49,92.99,147.42,396.89,Single-ply,SBD,F
Div 2,90.04,5,Reva Salazar,Beeville Jones,89.18,161.03,81.65,142.88,385.55,Single-ply,SBD,F
Div 2,90.04,6,Kimberly Santos,Zapata,85.28,145.15,92.99,145.15,383.29,Single-ply,SBD,F
Div 2,90.04,7,Alexxis Resendez,Kingsville King,82.55,145.15,68.04,154.22,367.41,Single-ply,SBD,F
Div 2,90.04,8,Ashlea Perales,Rio Hondo,85.64,145.15,74.84,142.88,362.87,Single-ply,SBD,F
Div 2,90.04,9,Destiny Sepulveda,Crystal City,86.82,138.35,86.18,138.35,362.87,Single-ply,SBD,F
Div 2,90.04,10,Adelina Quintana,Rio Hondo,87,124.74,74.84,136.08,335.66,Single-ply,SBD,F
Div 2,90.04,11,Aimee Youngblood,Pleasanton,85.64,120.2,68.04,129.27,317.51,Single-ply,SBD,F
Div 2,90.04,DQ,Casey Najar,Rio Hondo,88.36,133.81,,,,Single-ply,SBD,F
Div 2,100.02,1,Dominique Covarrubias,San Antonio Holy Cross,97.79,229.06,104.33,165.56,498.95,Single-ply,SBD,F
Div 2,100.02,2,Karina Martinez,Raymondville,99.97,204.12,92.99,165.56,462.66,Single-ply,SBD,F
Div 2,100.02,3,Kaylie Perez,Victoria St. Joseph,95.98,188.24,86.18,161.03,435.45,Single-ply,SBD,F
Div 2,100.02,4,Yasmine Perez,La Feria,95.8,176.9,86.18,163.29,426.38,Single-ply,SBD,F
Div 2,100.02,5,Azzie Garza,Ingleside,92.53,149.69,88.45,131.54,369.68,Single-ply,SBD,F
Div 2,100.02,6,Liliana Martinez,Carrizo Springs,94.17,133.81,70.31,127.01,331.12,Single-ply,SBD,F
Div 2,100.02,7,Morgan Gale,Cuero,91.72,129.27,56.7,138.35,324.32,Single-ply,SBD,F
Div 2,100.02,DQ,Jessica Soto,Lytle,97.79,,,,,Single-ply,SBD,F
Div 2,100.02,DQ,Felicitas Diaz,Devine,92.62,,,,,Single-ply,SBD,F
Div 2,100.02,DQ,Elizabeth Zaragoza,Raymondville,92.9,,,,,Single-ply,SBD,F
Div 2,100.02,DQ,Clarissa Vargas,Orange Grove,96.25,,,,,Single-ply,SBD,F
Div 2,117.71,1,Jeannie Flores,Orange Grove,112.04,201.85,108.86,199.58,510.29,Single-ply,SBD,F
Div 2,117.71,2,Isabel Alvarez,Zapata,107.32,170.1,86.18,151.95,408.23,Single-ply,SBD,F
Div 2,117.71,3,Bethanie Rodriguez,Crystal City,100.43,158.76,92.99,149.69,401.43,Single-ply,SBD,F
Div 2,117.71,4,Brandy Gonzales,Rio Hondo,102.6,165.56,90.72,138.35,394.63,Single-ply,SBD,F
Div 2,117.71,5,Lisa Zuniga,Rio Hondo,100.15,151.95,86.18,147.42,385.55,Single-ply,SBD,F
Div 2,117.71,6,Chloe Reina,Kingsville King,107.77,165.56,81.65,133.81,381.02,Single-ply,SBD,F
Div 2,117.71,7,Emily Martinez,Hidalgo Early College,103.6,142.88,65.77,129.27,337.93,Single-ply,SBD,F
Div 2,117.71,8,Leah Whittington,Cuero,112.76,136.08,63.5,129.27,328.85,Single-ply,SBD,F
Div 2,117.71,9,Erika Summers,Columbus,104.42,133.81,56.7,129.27,319.78,Single-ply,SBD,F
Div 2,117.71,10,Desiree Perez,La Feria,103.51,117.93,61.23,136.08,315.25,Single-ply,SBD,F
Div 2,117.71,DQ,Sydney Clack,Gonzales,100.7,,,,,Single-ply,SBD,F
Div 2,117.71,DQ,Marlayna Garcia,Zapata,100.24,,,,,Single-ply,SBD,F
Div 2,117.71+,1,Daisy Tellez,Crystal City,179.71,195.04,131.54,172.37,498.95,Single-ply,SBD,F
Div 2,117.71+,2,Kaitlon Brod,Columbus,123.56,147.42,74.84,165.56,387.82,Single-ply,SBD,F
Div 2,117.71+,3,Alyssa Silva,Hidalgo Early College,146.51,142.88,81.65,163.29,387.82,Single-ply,SBD,F
Div 2,117.71+,4,Analicia Ramirez,Beeville Jones,130.27,156.49,95.25,120.2,371.95,Single-ply,SBD,F
Div 2,117.71+,5,Krystal Tellez,Crystal City,140.25,113.4,52.16,117.93,283.5,Single-ply,SBD,F
Div 2,,NS,Christy Alvarez,Crystal City,,,,,,Single-ply,SBD,F
Div 2,,NS,Pracilla Ramirez,Crystal City,,,,,,Single-ply,SBD,F
Div 2,,NS,Brianna Charles,Kingsville King,,,,,,Single-ply,SBD,F
Div 2,,NS,AnaLuz Velasquez,Rio Grande City Grulla,,,,,,Single-ply,SBD,F
