Division,WeightClassKg,Place,Name,Team,BodyweightKg,Best3SquatKg,Best3BenchKg,Best3DeadliftKg,TotalKg,Equipment,Event,Sex
Boys,51.71,1,Cesar Ledesma,Burleson,46.54,129.27,77.11,151.95,358.34,Single-ply,SBD,M
Boys,51.71,2,Jd Davis,Joshua,51.71,108.86,63.5,115.67,288.03,Single-ply,SBD,M
Boys,51.71,DQ,Josh Lambert,Burleson Centennial,50.62,,,,,Single-ply,SBD,M
Boys,55.79,1,Dylan Quintero,Burleson Centennial,55.52,129.27,77.11,156.49,362.87,Single-ply,SBD,M
Boys,55.79,2,David Cook,Burleson Centennial,55.79,129.27,79.38,154.22,362.87,Single-ply,SBD,M
Boys,55.79,3,Alex Renteria,Burleson,53.43,106.59,63.5,140.61,310.71,Single-ply,SBD,M
Boys,55.79,DQ,Titus Newsom,Burleson Centennial,54.61,,,,,Single-ply,SBD,M
Boys,59.87,1,Jason Jones,Burleson,58.6,204.12,104.33,231.33,539.77,Single-ply,SBD,M
Boys,59.87,2,Jacob Moss,Burleson,59.33,156.49,90.72,176.9,424.11,Single-ply,SBD,M
Boys,59.87,3,Riley Angel,Midlothian,59.06,129.27,83.91,161.03,374.21,Single-ply,SBD,M
Boys,67.13,1,Jacob Hughes #3,Joshua,66.77,167.83,113.4,183.7,464.93,Single-ply,SBD,M
Boys,67.13,2,Jeff Keiren,Burleson Centennial,63.23,154.22,99.79,151.95,405.97,Single-ply,SBD,M
Boys,67.13,3,Jayden Huse,Midlothian,62.32,145.15,99.79,147.42,392.36,Single-ply,SBD,M
Boys,67.13,4,Matthew Lacey,Cleburne,63.41,161.03,83.91,138.35,383.29,Single-ply,SBD,M
Boys,74.84,1,Ethan Haynes,Burleson,70.31,231.33,133.81,231.33,596.47,Single-ply,SBD,M
Boys,74.84,2,Ross Martinez,Midlothian,71.21,195.04,111.13,204.12,510.29,Single-ply,SBD,M
Boys,74.84,3,Casey Jackson,Burleson,71.21,183.7,108.86,197.31,489.88,Single-ply,SBD,M
Boys,74.84,4,Wesley Free,Cleburne,72.39,170.1,113.4,158.76,442.25,Single-ply,SBD,M
Boys,74.84,5,Jayson McCall,Midlothian,73.12,140.61,79.38,165.56,385.55,Single-ply,SBD,M
Boys,74.84,6,Zion Ababio,Burleson Centennial,70.03,149.69,77.11,145.15,371.95,Single-ply,SBD,M
Boys,74.84,7,Kody Arsenault,Cleburne,68.4,145.15,77.11,142.88,365.14,Single-ply,SBD,M
Boys,82.1,1,Devin Stevenson,Burleson,82.1,208.65,124.74,233.6,566.99,Single-ply,SBD,M
Boys,82.1,2,Jayton DeLeon,Midlothian,78.29,226.8,111.13,217.72,555.65,Single-ply,SBD,M
Boys,82.1,3,Hunter Cunningham,Burleson,80.29,204.12,122.47,217.72,544.31,Single-ply,SBD,M
Boys,82.1,4,Jc Mueller,Burleson,79.29,188.24,113.4,188.24,489.88,Single-ply,SBD,M
Boys,82.1,5,Aaron Bodine,Joshua,81.56,156.49,117.93,176.9,451.32,Single-ply,SBD,M
Boys,82.1,6,Mykel Parker,Burleson Centennial,78.38,163.29,102.06,158.76,424.11,Single-ply,SBD,M
Boys,82.1,7,Jakobe Tutt,North Crowley,78.2,142.88,83.91,190.51,417.3,Single-ply,SBD,M
Boys,89.81,1,Brek Galbreath,Joshua,86.91,238.14,161.03,249.48,648.64,Single-ply,SBD,M
Boys,89.81,2,Justis Chaney,Joshua,86.91,188.24,131.54,188.24,508.02,Single-ply,SBD,M
Boys,89.81,3,Kenny Long,Burleson Centennial,84.01,190.51,106.59,197.31,494.42,Single-ply,SBD,M
Boys,89.81,4,Jacob Jackson,Burleson Centennial,87.27,188.24,106.59,176.9,471.74,Single-ply,SBD,M
Boys,89.81,5,Jared Johnson,Joshua,89.27,183.7,86.18,181.44,451.32,Single-ply,SBD,M
Boys,89.81,6,Noah Leverett,Cleburne,89.81,147.42,102.06,165.56,415.04,Single-ply,SBD,M
Boys,89.81,DQ,Cole Porter,Burleson Centennial,88.54,,,,,Single-ply,SBD,M
Boys,99.79,1,Dylan Hipsman,Midlothian,97.61,265.35,83.91,272.16,621.42,Single-ply,SBD,M
Boys,99.79,2,Michael Kornak,Burleson Centennial,99.61,219.99,117.93,219.99,557.92,Single-ply,SBD,M
Boys,99.79,3,Tyler Massingill,Burleson,93.53,215.46,113.4,204.12,532.97,Single-ply,SBD,M
Boys,99.79,4,Jt Cavender,Midlothian,94.8,181.44,106.59,195.04,483.08,Single-ply,SBD,M
Boys,99.79,5,Austin Adams,Midlothian,90.9,165.56,108.86,179.17,453.59,Single-ply,SBD,M
Boys,99.79,6,Thomas Jones,Burleson Centennial,94.62,174.63,106.59,172.37,453.59,Single-ply,SBD,M
Boys,99.79,7,Keairis Thompson,North Crowley,93.71,154.22,106.59,183.7,444.52,Single-ply,SBD,M
Boys,99.79,DQ,Frank Martinez,North Crowley,91.81,,,,,Single-ply,SBD,M
Boys,99.79,DQ,Zach Scrabrogh,Burleson Centennial,98.97,,,,,Single-ply,SBD,M
Boys,99.79,DQ,Mathu Blanton,Cleburne,95.44,,,,,Single-ply,SBD,M
Boys,109.77,1,Thomas Godi,Burleson Centennial,108.23,276.69,174.63,249.48,700.8,Single-ply,SBD,M
Boys,109.77,2,Blake Edgington,Joshua,108.59,260.82,149.69,274.42,684.92,Single-ply,SBD,M
Boys,109.77,3,Bailey Mullins,Burleson,109.59,240.4,140.61,256.28,637.3,Single-ply,SBD,M
Boys,109.77,4,Chris Hillard,Burleson Centennial,105.32,210.92,124.74,206.38,542.04,Single-ply,SBD,M
Boys,109.77,5,Blake Jones,North Crowley,106.23,181.44,115.67,210.92,508.02,Single-ply,SBD,M
Boys,109.77,6,Chris Jones,North Crowley,104.78,195.04,97.52,204.12,496.68,Single-ply,SBD,M
Boys,124.74,1,Talwinder Singh,North Crowley,118.57,249.48,142.88,249.48,641.83,Single-ply,SBD,M
Boys,124.74,2,Tyler Meksavanh,Burleson Centennial,123.56,208.65,127.01,208.65,544.31,Single-ply,SBD,M
Boys,124.74,3,Marquis Jones,North Crowley,116.94,204.12,115.67,176.9,496.68,Single-ply,SBD,M
Boys,124.74,4,Tyler Washington,North Crowley,114.94,181.44,111.13,190.51,483.08,Single-ply,SBD,M
Boys,124.74+,1,Richard Cuellar,Cleburne,136.08,294.84,170.1,208.65,673.58,Single-ply,SBD,M
Boys,124.74+,2,Duane Johnson,Midlothian,126.19,235.87,158.76,249.48,644.1,Single-ply,SBD,M
Boys,124.74+,3,James Bell,North Crowley,138.25,195.04,106.59,204.12,505.76,Single-ply,SBD,M
Boys,124.74+,4,Thomas Ray,Midlothian,148.51,195.04,104.33,195.04,494.42,Single-ply,SBD,M
Boys,124.74+,5,Clayton Mitchell,North Crowley,133.36,183.7,113.4,195.04,492.15,Single-ply,SBD,M
Boys,124.74+,6,Joe Cisneros,Midlothian,132.18,174.63,124.74,190.51,489.88,Single-ply,SBD,M
Boys,,NS,Brenden Strebeck,Joshua,,,,,,Single-ply,SBD,M
